﻿Sal_id,Monday,Tuesday,Wednesday,Thursday,Friday,Saturday,Sunday,Mobile Number,Salon Pic,Website,Facebook,Twitter,Instagram,Sal_zip,,
292,00:00-00:00,08:30-18:00,08:30-18:00,10:00-19:00,08:30-18:00,08:30-18:00,00:00-00:00,,290.jpg,http://danielgalvin.com,https://www.facebook.com/DanielGalvinSalon,https://twitter.com/danielgalvinldn,https://www.instagram.com/danielgalvinldn/,W8 6AN,,
408,09:00-18:00,09:00-18:00,10:00-20:00,10:00-20:00,09:00-18:00,10:00-18:00,00:00-00:00,,408.jpg,http://www.hairspacelondon.com,,,,W8 4NB,,
444,09:00-18:00,09:00-18:00,10:00-20:00,10:00-20:00,09:00-18:00,10:00-18:00,00:00-00:00,07973 211 901,444.jpg,http://hairdresser.london.mobile.googlepages.com,,,,NW11 9UD,,
495,00:00-00:00,10:30-17:30,10:30-17:30,10:30-17:30,10:30-18:00,09:30-18:00,00:00-00:00,,495.jpg,http://www.prestige-hairextensions.co.uk/,https://www.facebook.com/hairbyprestige/,https://twitter.com/Connoisseursuk,https://www.instagram.com/hairbyprestige/,NW3 3ST,,
693,09:00-17:00,09:00-17:00,09:00-17:00,09:00-19:00,09:00-18:00,08:30-17:00,00:00-00:00,,693.jpg,http://sterlinghair.co.uk/default.aspx,https://www.facebook.com/permalink.php?story_fbid=1544480842254210&id=178268568875451,,,TN13 1XJ,,
67,09:00-21:00,09:00-21:00,09:00-21:00,09:00-21:00,09:00-21:00,09:00-21:00,00:00-00:00,,67.jpg,https://harissalon.com,www.facebook.com/harissalon,,https://www.instagram.com/harishair/,SW3 6HR,,
70,00:00-00:00,10:00-20:00,10:00-20:00,10:00-20:00,10:00-20:00,10:00-18:00,00:00-00:00,,70.jpg,http://www.joeandco.net/,www.facebook.com/joeandcosoho,https://twitter.com/JoeandCoSoho,https://www.instagram.com/joeandcosoho/,W1F 0AG,,
71,08:00-20:00,11:00-20:00,08:00-21:00,08:00-21:00,10:15-19:00,09:15-18:00,10:00-17:00,,71.jpg,https://www.charlesworthingtonsalons.com/salons/percy-street/#content,www.facebook.com/charles.worthington,,https://www.instagram.com/charlesworthingtonsalons/,W1T 1DH,,
133,00:00-00:00,10:00-20:00,10:00-18:00,10:00-18:00,10:00-18:00,08:00-16:00,00:00-00:00,,133.jpg,http://www.mustardhairdressing.com,https://www.facebook.com/MUSTARDHAIRDRESSING?fref=ts,,,E4 7BJ,,
140,00:00-00:00,09:30-18:30,09:30-18:30,09:30-18:30,09:30-18:30,09:30-18:30,00:00-00:00,,140.jpg,http://bellahairlondon.co.uk/,,https://twitter.com/@bellahairlondon,,SE3 7BT,,
149,00:00-00:00,00:00-00:00,00:00-00:00,10:00-19:30,10:00-20:30,09:00-19:00,11:00-18:30,,149.jpg,http://www.mkhsa.co.uk,,,,N17 0JL,,
153,00:00-00:00,10:00-19:00,10:00-19:00,12:00-20:00,10:00-19:00,10:00-19:00,10:00-16:00,07706 950 370,153.jpg,http://www.natashawalker.co.uk/,https://www.facebook.com/NatashaWalkerMCSRH/,https://twitter.com/NatashaWalkerH,,SE8 3ES,,
157,10:00-16:00,00:00-00:00,09:00-17:30,09:00-19:30,09:00-17:30,09:00-19:30,00:00-00:00,0745 0034546,157.jpg,https://hairbynataliejade.co.uk,https://www.facebook.com/HairByNatalieJadeB/,https://twitter.com/HairByNJ,https://www.instagram.com/hairbynataliejade1/,0L11 4DG,,
211,00:00-00:00,09:00-18:00,09:00-18:00,09:00-20:00,09:00-20:00,09:00-18:00,00:00-00:00,,211.jpg,http://barbaros.co.uk,https://www.facebook.com/Barbaros-Hair-Salon-224951677638645/,https://twitter.com/barbaroshair,https://www.instagram.com/barbaroshair/?hl=en,SE23 1DY,,
214,08:30-19:00,08:30-19:00,08:30-19:45,08:30-19:45,08:30-19:45,08:30-17:30,11:00-19:45,,214.jpg,http://sassoon.com,https://www.facebook.com/sassoonsalons/,https://twitter.com/SassoonSalons,https://www.instagram.com/sassoonsalonofficial/,WC2H 9DG,,
225,08:30-19:00,08:30-19:00,08:30-19:45,09:00-18:45,09:00-18:00,09:00-17:15,11:00-19:45,,734.jpg,http://www.clipso.co.uk,https://www.facebook.com/clipsosalons,https://twitter.com/clipsosalons,https://www.instagram.com/clipsosalons/,W1T 2JS,,
253,10:00-20:00,10:00-20:00,10:00-20:00,10:00-20:00,10:00-20:00,10:00-18:00,00:00-00:00,,,https://www.theonehairdressing.com/,,,,SW1Y 4AA,,
264,09:00-17:30,09:00-17:30,09:00-17:30,09:00-21:00,09:00-19:00,08:30-17:00,00:00-00:00,,264.jpg,http://www.mrsmithsofepping.co.uk/,https://www.facebook.com/Mr-Smiths-of-London-1666844473553540,https://twitter.com/LondonSmiths,,CM16 4BD,,
358,09:00-17:30,09:00-17:30,09:00-17:30,09:00-21:00,09:00-19:00,08:30-17:00,00:00-00:00,,358.jpg,http://jopartridge.co.uk/index.php/wandsworth/,,,,SE21 8SW,,
359,09:00-18:00,09:00-19:00,09:00-20:00,09:00-19:00,09:00-19:00,09:00-17:00,00:00-00:00,,359.jpg,http://richardward.co.uk,https://web.facebook.com/richardwardhair/?_rdc=1&_rdr,https://twitter.com/RichardWardHair,https://www.instagram.com/richardwardhair/,SW3 4LY,,
378,09:00-18:00,00:00-00:00,09:00-18:00,09:00-20:00,09:00-20:00,09:00-18:00,11:00-16:00,07970 267 256,378.jpg,http://www.antonioflondon.uk/,https://web.facebook.com/AntoniOfLondon/,https://twitter.com/antonioflondon,https://www.instagram.com/antonioflondon/,N2 0SZ,,
382,08:00-18:00,09:00-18:00,09:00-19:30,09:00-20:00,09:00-19:00,08:30-17:30,11:00-17:00,,214.jpg,http://sassoon.com,https://www.facebook.com/sassoonsalons/,https://twitter.com/SassoonSalons,https://www.instagram.com/sassoonsalonofficial/,SW3 4TR,,
386,08:00-17:00,08:00-17:00,08:00-17:00,08:00-17:00,08:00-17:00,08:30-17:00,00:00-00:00,44 7828 318037,,http://shortcutshair.co.uk,https://web.facebook.com/shortcutshair?_rdc=1&_rdr,https://twitter.com/shortcuts_hair,,NW6 2LG,,
12436,09:00-21:00,09:00-21:00,09:00-21:00,09:00-21:00,09:00-21:00,09:00-21:00,09:00-21:00,07930 661971,12436.jpg,www.emporiumtreatments.co.uk,https://www.facebook.com/emporiumtreatmentclinic/,https://twitter.com/emporiumtc,https://www.instagram.com/emporiumtreatmentclinic/,W1H 1QU,,
12457,09:00-21:00,09:00-21:00,09:00-21:00,09:00-21:00,09:00-21:00,09:00-21:00,09:00-21:00,7505515967,,www.1faybasn.com,,,,E7 0QT,,
12521,09:00-21:00,09:00-21:00,09:00-21:00,09:00-21:00,09:00-21:00,09:00-21:00,09:00-21:00,7756626565,,www.treatmenicesunlesstanning.com,,,,NW10 1LN,,
12560,09:00-21:00,09:00-21:00,09:00-21:00,09:00-21:00,09:00-21:00,09:00-21:00,09:00-21:00,7787553341,12560.jpg,www.hhmakeup.com,https://www.facebook.com/HelenHoggMakeup/,https://twitter.com/hashtag/hhmakeup,https://www.instagram.com/hhmakeup/,SE9 2EJ,,
12584,10:00-20:00,10:00-20:00,10:00-20:00,10:00-20:00,10:00-20:00,10:00-20:00,10:00-20:00,7421385157,12584.jpg,www.thebab.co.uk,https://www.facebook.com/TheBritishAestheticBar/,https://twitter.com/The_BAB_London,https://www.instagram.com/thebritishaestheticbar/,N10 1LJ,,
12589,10:00-19:00,10:00-19:00,10:00-19:00,10:00-20:00,10:00-19:00,10:00-18:00,10:00-14:00,,12589.jpg,https://hcmedspa.com/clinics-locations/finchley-central,https://www.facebook.com/HCMedSpa,https://twitter.com/hcmedspa,https://www.instagram.com/hcmedspa/,N3 1XP,,
12722,10:30-19:00,10:30-19:00,10:30-19:00,10:30-19:00,10:30-19:00,10:30-18:00,00:00-00:00,,12722.jpg,slimbodyline.co.uk,https://www.facebook.com/slim.bodyline.3,https://twitter.com/sblclinic,https://www.instagram.com/SBLClinic/,W1U 1EQ,,
12725,10:00-20:00,10:00-20:00,10:00-20:00,10:00-20:00,10:00-20:00,10:30-18:00,00:00-00:00,07775 628931,12725.jpg,www.aurabeautymassage.com,https://www.facebook.com/aurabeautymassage/,,,PE7 3NP,,
12741,09:00-21:00,09:00-21:00,09:00-21:00,09:00-21:00,09:00-21:00,09:00-19:00,11:00-17:00,,12741.jpg,www.radiancehealthandbeauty.co.uk,https://www.facebook.com/Radianceclinicltd/,https://twitter.com/radiancehealthb,,SW20 8LR,,
12778,09:00-19:00,09:00-19:00,09:00-19:00,09:00-19:00,09:00-19:00,09:00-19:00,11:00-17:00,,12778.png,svetlanabeauty.co.uk,https://www.facebook.com/svetlanabeautysalonuk/,https://twitter.com/svetlanabeauty,,SW6 2TF,,
12797,10:00-19:00,10:00-19:00,10:00-19:00,08:00-20:00,09:00-18:00,09:00-12:00,00:00-00:00,07561 090260,12797.jpg,www.rlbeauty.co.uk,https://www.facebook.com/RLBeautyLondonBridge/,https://twitter.com/RLBeautyLDNBRDG,https://www.instagram.com/rlbeauty/,SE1 3QJ,,
12807,10:00-19:30,10:00-19:30,10:00-19:30,10:00-19:30,10:00-19:30,10:00-19:30,11:00-18:00,07438 936991,12807.jpg,www.magic-fairies.com,https://www.facebook.com/Magicfairieshairandbeauty/,https://twitter.com/MagicFairies3,,N4 1JX,,
12877,10:30-19:30,10:30-19:30,10:30-19:30,10:30-19:30,10:30-19:30,09:00-18:00,11:00-17:00,,12877.png,www.lagoonspa.co.uk,https://www.facebook.com/Lagoon-146765482052322/,https://twitter.com/lagoonspa,,SW19 7JY,,
12883,00:00-00:00,10:00-18:00,10:00-18:00,10:00-19:00,10:00-18:00,09:00-18:00,10:00-17:00,,12883.jpg,beautologybyjessica.com,https://www.facebook.com/Beautologybyjessica/,,,NW9 6NB,,
12894,10:00-19:00,10:00-19:00,10:00-19:00,10:00-20:00,10:00-19:00,09:00-18:00,00:00-00:00,,12894.jpg,officenailsbeauty.co.uk,https://www.facebook.com/officenailsbeauty/,https://twitter.com/officenailsbeau,https://www.instagram.com/officenailsbeauty/,E14 9TS,,
12898,09:00-19:00,09:00-19:00,09:00-19:00,09:00-19:00,09:00-19:00,10:00-17:00,00:00-00:00,,12898.jpg,http://hisandhersbeautyclinic.co.uk/,,,,N1 9DN,,
12901,09:00-18:00,09:00-20:00,09:00-20:00,09:00-20:00,09:00-20:00,09:00-18:00,00:00-00:00,,12901.jpg,http://www.tessastevens.com,,,https://www.instagram.com/p/BiuLmMkHudz/,EN2 6HU,,
12908,10:00-20:00,10:00-20:00,10:00-20:00,10:00-20:00,10:00-20:00,10:00-18:00,11:00-15:00,,12908.png,http://www.thenailandtanningsalon.co.uk/,https://www.facebook.com/Dayspablackheath,https://twitter.com/@dayspase3,,SE3 9DJ,,
12944,00:00-00:00,10:00-20:00,10:00-20:00,10:00-20:00,10:00-20:00,09:00-18:00,11:00-18:00,,12944.jpg,www.puresynergie.co.uk,,,,WC2R 0DW,,
12967,09:00-17:30,09:00-17:30,09:00-17:30,09:00-19:00,09:00-19:00,09:00-17:00,00:00-00:00,,12967.png,https://www.andrewsmithsalons.co.uk,,https://twitter.com/andrewsmithhair,https://www.instagram.com/andrewsmithsalons/,PO7 7HE,,
12986,10:00-20:00,08:00-20:00,08:00-20:00,08:00-20:00,08:00-20:00,09:00-15:00,00:00-00:00,,12986.png,www.beautyinbloomsbury.co.uk,,https://twitter.com/beautyin_la,https://www.instagram.com/beautyinbloomsbury/,WC1X 8NW,,
12991,09:00-17:00,09:00-18:00,00:00-00:00,12:00-20:00,09:30-18:00,09:00-15:00,00:00-00:00,,,www.purebeautyandrelaxation.com,,,,CW4 7AJ,,
,,,,,,,,,,,,,,,,
,,,,,,,,,,,,,,,,
,,,,,,,,,,,,,,,,
,,,,,,,,,,,,,,,,
,,,,,,,,,,,,,,,,
,,,,,,,,,,,,,,,,
,,,,,,,,,,,,,,,,
,,,,,,,,,,,,,,,,
,,,,,,,,,,,,,,,,
,,,,,,,,,,,,,,,,
,,,,,,,,,,,,,,,,
,,,,,,,,,,,,,,,,
,,,,,,,,,,,,,,,,
,,,,,,,,,,,,,,,,
,,,,,,,,,,,,,,,,
,,,,,,,,,,,,,,,,
,,,,,,,,,,,,,,,,
,,,,,,,,,,,,,,,,
,,,,,,,,,,,,,,,,
,,,,,,,,,,,,,,,,
,,,,,,,,,,,,,,,,
,,,,,,,,,,,,,,,,
,,,,,,,,,,,,,,,,
,,,,,,,,,,,,,,,,
,,,,,,,,,,,,,,,,
,,,,,,,,,,,,,,,,
,,,,,,,,,,,,,,,,
,,,,,,,,,,,,,,,,
,,,,,,,,,,,,,,,,
,,,,,,,,,,,,,,,,
,,,,,,,,,,,,,,,,
,,,,,,,,,,,,,,,,
,,,,,,,,,,,,,,,,
,,,,,,,,,,,,,,,,
,,,,,,,,,,,,,,,,
,,,,,,,,,,,,,,,,
,,,,,,,,,,,,,,,,
,,,,,,,,,,,,,,,,
,,,,,,,,,,,,,,,,
,,,,,,,,,,,,,,,,
,,,,,,,,,,,,,,,,
,,,,,,,,,,,,,,,,
,,,,,,,,,,,,,,,,
,,,,,,,,,,,,,,,,
,,,,,,,,,,,,,,,,
