Sal_id,Monday,Tuesday,Wednesday,Thursday,Friday,Saturday,Sunday,Mobile Number,Salon_profile_Pic,Website,Facebook,Twitter,Instagram,Sal_zip,Sal_address
1s,10:00-19:00,10:00-19:00,10:00-19:00,10:00-19:00,09:30-20:00,09:30-20:00,00:00-00:00,,115.png,http://www.hairforce-1.com,,,https://www.instagram.com/hairforce1/,IG1 4LZ,"134 Cranbrook Road, Ilford"
2s,11:00-20:00,11:00-20:00,11:00-20:00,11:00-20:00,11:00-20:00,11:00-20:00,11:00-18:00,,136.png,http://smoothyou.co.uk,https://www.facebook.com/SmoothYou,https://twitter.com/Smooth_U,https://www.instagram.com/smooth_you/,6SU UK,155 Kensington High St Kensington
3s,11:00-20:00,11:00-20:00,11:00-20:00,11:00-20:00,11:00-20:00,11:00-20:00,11:00-18:00,,136.png,http://smoothyou.co.uk,https://www.facebook.com/SmoothYou,https://twitter.com/Smooth_U,https://www.instagram.com/smooth_you/,W1W 5BQ,"210 Great Portland St, London"
4s,07:00-21:00,07:00-21:00,07:00-21:00,07:00-21:00,07:00-21:00,10:00-17:00,10:00-17:00,,160.jpg,http://edwardholland.co.uk,,,,EC2Y 9HR,Unit 4-Citypoint Ropemaker street London
5s,07:00-21:00,07:00-21:00,07:00-21:00,07:00-21:00,07:00-21:00,10:00-17:00,10:00-17:00,,160.jpg,http://edwardholland.co.uk,,,,E1 7LP,Edward Holland- Artillery Lane London
6s,08:30-19:00,08:30-19:00,08:30-19:00,08:30-19:00,08:30-19:00,08:30-19:00,00:00-00:00,,318.jpg,http://nevillehairandbeauty.net/,,,,SW7 1DW,171 Knightsbridge London
7s,00:00-00:00,00:00-00:00,10:00-18:00,10:00-18:00,10:00-20:00,09:00-17:30,10:00-16:00,,409.jpg,http://www.hypeimageltd.co.uk/,https://www.facebook.com/HypeCoiffureUk,https://twitter.com/officialHypeUK,https://www.instagram.com/hypecoiffureuk/,SW2 2TH,"17 Tulse Hill, Brixton"
8s,09:00-18:00,09:00-18:00,09:00-20:00,09:00-20:00,09:40-18:00,09:00-18:00,11:00-17:00,,500.jpg,http://seanhanna.com,https://www.facebook.com/sean.hannasalons,https://twitter.com/seanhannasalons,https://www.instagram.com/seanhannasalons/,CB2 3BJ,48 Grand Arcade
9s,09:00-19:00,09:00-19:40,09:00-19:40,09:00-20:00,09:00-20:20,10:00-18:00,10:00-18:00,,500.jpg,http://seanhanna.com,https://www.facebook.com/sean.hannasalons,https://twitter.com/seanhannasalons,https://www.instagram.com/seanhannasalons/,E14 5NY,"35-36 Bank St, Canary Wharf, London "
10s,09:00-18:00,09:00-20:00,09:00-20:00,09:00-20:00,09:40-18:00,08:00-18:00,10:00-17:00,,500.jpg,http://seanhanna.com,https://www.facebook.com/sean.hannasalons,https://twitter.com/seanhannasalons,https://www.instagram.com/seanhannasalons/,KT17 4RH,"4 The Quadrant, Epsom "
11s,09:30-18:00,09:30-21:00,09:30-21:00,09:30-21:00,09:40-19:00,08:45-18:00,10:00-17:00,,500.jpg,http://seanhanna.com,https://www.facebook.com/sean.hannasalons,https://twitter.com/seanhannasalons,https://www.instagram.com/seanhannasalons/,SW15 1RG,108 Putney High St
12s,09:00-18:00,09:00-18:00,09:00-18:00,09:00-20:00,09:40-18:00,08:00-18:00,10:00-17:00,,500.jpg,http://seanhanna.com,https://www.facebook.com/sean.hannasalons,https://twitter.com/seanhannasalons,https://www.instagram.com/seanhannasalons/,SM1 1AW,"21 St Nicholas Way, Sutton"
13s,00:00-00:00,09:00-20:00,09:00-20:00,09:00-20:00,09:40-18:00,08:00-18:00,00:00-00:00,,500.jpg,http://seanhanna.com,https://www.facebook.com/sean.hannasalons,https://twitter.com/seanhannasalons,https://www.instagram.com/seanhannasalons/,KT4 8HT,"122 Central Rd, Worcester Park "
14s,09:30-17:30,09:30-17:30,09:30-17:30,09:30-20:00,09:30-17:30,07:30-16:00,00:00-00:00,,800.jpg,http://kbarbers.com,https://www.facebook.com/Kbarbersemporium/,https://twitter.com/kbarbersemp,https://www.instagram.com/kbarbersemporium/,CM12 9AH,129 High Street Billericay Essex
15s,09:00-18:00,09:00-18:00,09:00-21:00,10:00-19:00,09:00-18:00,09:00-18:00,00:00-00:00,,290.jpg,http://danielgalvin.com,https://www.facebook.com/DanielGalvinSalon,https://twitter.com/danielgalvinldn,https://www.instagram.com/danielgalvinldn/,W1u 7ET,"Marylebone, 58-60 George Street London"
16s,09:00-18:00,09:00-18:00,09:00-19:00,09:00-20:00,09:00-18:00,09:00-17:00,00:00-00:00,,806.jpg,http://www.darehairdressing.co.uk,https://www.facebook.com/Dare-Hairdressing-Reigate-203465623038543/,,,RH4 1AY,"86-88 High Street, Dorking, Surrey"
17s,09:00-17:15,09:00-17:15,09:00-17:15,09:00-19:15,09:00-18:15,08:15-17:15,00:00-00:00,,734.jpg,http://www.clipso.co.uk,https://www.facebook.com/clipsosalons,https://twitter.com/clipsosalons,https://www.instagram.com/clipsosalons/,WD17 2QN,"57 Queens Road, Watford, Hertfordshire"
18s,09:00-18:00,09:00-18:00,09:00-18:00,09:00-20:00,09:00-17:00,08:15-18:00,00:00-00:00,,734.jpg,http://www.clipso.co.uk,https://www.facebook.com/clipsosalons,https://twitter.com/clipsosalons,https://www.instagram.com/clipsosalons/,HP1 1EF,"12 Bridge Street, Hemel Hempstead, Hertfordshire"
19s,00:00-00:00,09:00-17:00,10:00-20:00,10:00-20:00,09:00-18:00,08:30-17:00,00:00-00:00,,734.jpg,http://www.clipso.co.uk,https://www.facebook.com/clipsosalons,https://twitter.com/clipsosalons,https://www.instagram.com/clipsosalons/,EN8 9DF,"8 Clarendon Parade, Cheshunt, Hertfordshire"
20s,09:00-18:30,09:00-18:30,09:00-18:30,09:00-18:30,09:00-18:30,09:00-18:30,11:00-18:00,,67.jpg,https://harissalon.com,www.facebook.com/harissalon,,https://www.instagram.com/harishair/,SW3 5EJ,"233 KINGS ROAD,LONDON"
21s,09:30-18:30,09:30-18:30,09:30-18:30,09:30-18:30,09:30-18:30,09:30-18:30,00:00-00:00,,67.jpg,https://harissalon.com,www.facebook.com/harissalon,,https://www.instagram.com/harishair/,W11 2AA,"41 LEDBURY ROAD,NOTTING HILL"
22s,09:30-18:30,09:30-18:30,09:30-18:30,09:30-18:30,09:30-18:30,09:30-18:30,00:00-00:00,,67.jpg,https://harissalon.com,www.facebook.com/harissalon,,https://www.instagram.com/harishair/,SW6 4SW,"183 NEW KINGS ROAD,LONDON"
23s,08:00-20:00,11:00-20:00,08:00-21:00,08:00-21:00,10:15-19:00,09:15-18:00,10:00-17:00,,71.JPG,https://www.charlesworthingtonsalons.com/salons/percy-street/#content,www.facebook.com/charles.worthington,,https://www.instagram.com/charlesworthingtonsalons/,WC2B 5BB,28 Great Queen Street
24s,08:00-21:00,08:00-21:00,08:00-21:00,08:00-21:00,10:00-19:00,10:00-18:00,10:00-18:00,,71.JPG,https://www.charlesworthingtonsalons.com/salons/percy-street/#content,www.facebook.com/charles.worthington,,,EC2M 2QT,"1 Exchange Place, London"
25s,10:00-19:00,10:00-19:00,10:00-19:00,10:00-19:00,09:30-20:00,09:30-20:00,00:00-00:00,,115.png,http://www.hairforce-1.com,,,https://www.instagram.com/hairforce1/,IG1 4LZ,"134 Cranbrook Road, Ilford"
26s,08:00-18:00,09:00-18:00,09:00-19:30,09:00-19:30,08:30-17:30,08:30-17:30,11:00-17:00,,214.jpg,http://sassoon.com,https://www.facebook.com/sassoonsalons/,https://twitter.com/SassoonSalons,https://www.instagram.com/sassoonsalonofficial/,SW3 4TR,124C KINGS ROAD LONDON
27s,08:00-18:45,09:00-19:00,09:00-20:00,09:00-20:00,09:00-19:00,09:00-17:30,00:00-00:00,,214.jpg,http://sassoon.com,https://www.facebook.com/sassoonsalons/,https://twitter.com/SassoonSalons,https://www.instagram.com/sassoonsalonofficial/,W1K 5SW,60 SOUTH MOLTON STREET LONDON
28s,08:00-18:45,08:00-19:30,08:00-19:30,08:00-19:30,08:00-18:30,09:30-17:15,00:00-00:00,,214.jpg,http://sassoon.com,https://www.facebook.com/sassoonsalons/,https://twitter.com/SassoonSalons,https://www.instagram.com/sassoonsalonofficial/,EC4M 7AQ,5 AVE MARIA LANE LONDON
29s,09:00-18:30,09:00-18:30,09:00-18:30,09:00-19:00,09:00-19:00,08:30-17:30,00:00-00:00,,214.jpg,http://sassoon.com,https://www.facebook.com/sassoonsalons/,https://twitter.com/SassoonSalons,https://www.instagram.com/sassoonsalonofficial/,M2 1HW,1 MARSDEN STREET MANCHESTER
30s,09:00-18:30,09:00-18:30,09:00-18:30,09:00-19:00,09:00-18:30,08:30-18:00,00:00-00:00,,214.jpg,http://sassoon.com,https://www.facebook.com/sassoonsalons/,https://twitter.com/SassoonSalons,https://www.instagram.com/sassoonsalonofficial/,LS1 5AA,WEST RIDING HOUSE 63 ALBION STREET LEEDS
31s,09:00-19:00,09:00-19:00,09:00-19:00,09:00-19:00,09:00-19:00,09:00-18:00,11:30-17:00,,214.jpg,http://sassoon.com,https://www.facebook.com/sassoonsalons/,https://twitter.com/SassoonSalons,https://www.instagram.com/sassoonsalonofficial/,G1 3JN,46 BUCHANAN STREET PRINCES SQUARE GLASGOW
32s,10:00-17:45,09:30-17:00,09:30-20:00,09:30-20:00,09:30-18:30,09:00-17:15,00:00-00:00,,214.jpg,http://sassoon.com,https://www.facebook.com/sassoonsalons/,https://twitter.com/SassoonSalons,https://www.instagram.com/sassoonsalonofficial/,NG1 2JF,11 ST PETERS GATE NOTTINGHAM
33s,09:30-18:00,09:30-18:00,09:30-18:00,09:30-19:00,09:30-18:00,09:00-18:00,00:00-00:00,,214.jpg,http://sassoon.com,https://www.facebook.com/sassoonsalons/,https://twitter.com/SassoonSalons,https://www.instagram.com/sassoonsalonofficial/,L1 6DA,1ST FLOOR METQUARTER 34 WHITECHAPEL LIVERPOOL
34s,09:30-18:00,09:30-18:00,09:30-18:00,09:30-19:00,09:30-18:00,09:00-18:00,00:00-00:00,,358.jpg,http://jopartridge.co.uk/index.php/wandsworth/,,,,SW17 7EG,9 Bellevue Road Wandsworth Common
35s,10:00-19:00,10:00-19:00,10:00-19:00,10:00-20:00,10:00-19:00,10:00-18:00,00:00-00:00,,12589.jpg,https://hcmedspa.com/clinics-locations/finchley-central,https://www.facebook.com/HCMedSpa,https://twitter.com/hcmedspa,https://www.instagram.com/hcmedspa/,NW7 3TG,"93 - 95 The Broadway, Mill Hill, London"
36s,10:00-19:00,10:00-19:00,10:00-19:00,10:00-20:00,10:00-19:00,10:00-18:00,00:00-00:00,,12589.jpg,https://hcmedspa.com/clinics-locations/finchley-central,https://www.facebook.com/HCMedSpa,https://twitter.com/hcmedspa,https://www.instagram.com/hcmedspa/,WD7 7LB,"345 Watling Street, Radlett, Hertfordshire"
37s,10:00-19:00,10:00-19:00,10:00-19:00,10:00-20:00,10:00-19:00,10:00-18:00,00:00-00:00,,12589.jpg,https://hcmedspa.com/clinics-locations/finchley-central,https://www.facebook.com/HCMedSpa,https://twitter.com/hcmedspa,https://www.instagram.com/hcmedspa/,EN5 5SZ,"224 High Street, Barnet"
38s,09:00-19:00,09:00-19:00,09:00-19:00,09:00-19:00,09:00-19:00,10:00-17:00,00:00-00:00,,12898.jpg,http://hisandhersbeautyclinic.co.uk/,,,,IG8 7HX,"96, Snakes Lane East, Woodford Green, Essex"
39s,09:00-18:00,09:00-20:00,09:00-20:00,09:00-20:00,09:00-20:00,09:00-18:00,00:00-00:00,,12901.jpg,http://www.tessastevens.com,,,https://www.instagram.com/p/BiuLmMkHudz/,N21 2AD,"948 Green Lanes, Winchmore Hill"
40s,09:00-17:30,09:00-17:30,09:00-17:30,09:00-19:00,09:00-19:00,09:00-17:00,00:00-00:00,,12967.png,https://www.andrewsmithsalons.co.uk,,https://twitter.com/andrewsmithhair,https://www.instagram.com/andrewsmithsalons/,PO16 OEP,"92 West Street,Fareham,Hampshire"
41s,10:00-16:00,09:00-20:00,09:00-20:00,09:00-20:00,09:00-18:00,09:00-17:00,00:00-00:00,,12967.png,https://www.andrewsmithsalons.co.uk,,https://twitter.com/andrewsmithhair,https://www.instagram.com/andrewsmithsalons/,PO13 9UE,"29 Rowner Rd,Gosport"
42s,10:00-18:00,10:00-18:00,10:00-20:00,10:00-20:00,10:00-20:00,09:30-18:00,10:00-18:00,,13046.jpg,www.thecovespa.co.uk,https://www.facebook.com/thecovespa/,https://twitter.com/TheCoveSpa,https://www.instagram.com/thecovespa/,N12 8JY,773 High Road North Finchley London
43s,10:30-20:00,10:30-20:00,10:30-20:00,10:30-20:00,10:30-20:00,10:00-19:00,10:00-18:00,,13561.png,www.images-beauty.co.uk,https://www.facebook.com/imageslondonbeautysalon/,https://twitter.com/images_london,https://www.instagram.com/imageslondon_/,SW6 1AA,14 Fulham Broadway London
44s,09:00-19:00,09:00-19:00,09:00-19:00,09:00-20:00,09:00-20:00,09:00-19:00,10:00-17:00,,,www.singharbeauty.co.uk,,,,N8 8PT,24 TOPSFIELD PARADE CROUCH END LONDON
45s,10:00-18:00,10:00-18:00,10:00-18:00,10:00-19:00,09:00-19:00,09:00-19:00,10:00-17:00,,,www.singharbeauty.co.uk,,,,N8 0EP,33 TURNPIKE LANE WOOD GREEN LONDON
46s,09:00-18:00,09:00-18:00,09:00-18:00,09:00-18:00,09:00-18:00,09:00-19:00,10:30-17:00,,,www.singharbeauty.co.uk,,,,AL8 6HA,37 Howard Centre Welwyn Garden City
47s,09:00-20:00,09:00-20:00,09:00-20:00,09:00-20:00,09:00-20:00,09:00-18:00,10:00-18:00,,13976.png,www.mayfair-aesthetics.co.uk,https://www.facebook.com/MayfairAesthetics/,https://twitter.com/MfairAesthetics,https://www.instagram.com/mayfairaesthetics/?hl=en,SW1V 3EE,52 Lupus Street (Entrance via stairs on St Georges Drive) Pimlico London
48s,09:00-20:00,09:00-20:00,09:00-20:00,09:00-20:00,09:00-20:00,09:00-18:00,10:00-18:00,,13976.png,www.mayfair-aesthetics.co.uk,https://www.facebook.com/MayfairAesthetics/,https://twitter.com/MfairAesthetics,https://www.instagram.com/mayfairaesthetics/?hl=en,EC2M 5QU,Unit 64-65 - Lower Ground Floor Salisbury House 29 Finsbury Circus Moorgate
49s,09:00-19:00,09:00-19:00,09:00-19:00,09:00-19:00,09:00-19:00,09:00-16:00,00:00-00:00,,14008.jpg,www.beautyandmelody.co.uk,https://www.facebook.com/BeautyAndMelody,https://twitter.com/beautyandmelody,https://www.instagram.com/beautyandmelody/,NW8 7BT,Charlbert Street (within Aura Centre) London
50s,11:00-20:00,11:00-20:00,11:00-20:00,11:00-20:00,11:00-20:00,10:00-19:00,11:00-19:00,,14008.jpg,www.beautyandmelody.co.uk,https://www.facebook.com/BeautyAndMelody,https://twitter.com/beautyandmelody,https://www.instagram.com/beautyandmelody/,N1 0PN,47 Upper Street (top floor above Herbal Inn) London
51s,09:00-18:00,09:00-20:00,09:00-20:00,09:00-20:00,09:00-20:00,09:00-18:00,11:00-18:00,,14008.jpg,www.beautyandmelody.co.uk,https://www.facebook.com/BeautyAndMelody,https://twitter.com/beautyandmelody,https://www.instagram.com/beautyandmelody/,W8 5NP,"5 Kensington High St, London"
52s,09:00-20:00,09:00-20:00,09:00-20:00,09:00-20:00,09:00-20:00,09:00-19:00,10:00-19:00,,14008.jpg,www.beautyandmelody.co.uk,https://www.facebook.com/BeautyAndMelody,https://twitter.com/beautyandmelody,https://www.instagram.com/beautyandmelody/,SW1X 7PF,"122 Knightsbridge, London"
53s,10:00-19:00,10:00-19:00,10:00-19:00,10:00-19:00,10:00-19:00,10:00-19:00,10:00-19:00,,14008.jpg,www.beautyandmelody.co.uk,https://www.facebook.com/BeautyAndMelody,https://twitter.com/beautyandmelody,https://www.instagram.com/beautyandmelody/,EC2A 1DX,"22-25 Finsbury Square, London"
54s,11:00-20:00,11:00-20:00,11:00-20:00,11:00-20:00,11:00-20:00,10:00-19:00,10:00-18:00,,14008.jpg,www.beautyandmelody.co.uk,https://www.facebook.com/BeautyAndMelody,https://twitter.com/beautyandmelody,https://www.instagram.com/beautyandmelody/,W1D 6EX,65-73 Shaftesbury Avenue (within Piccadilly London West End Hotel)
55s,10:00-19:00,10:00-19:00,10:00-19:00,10:00-19:00,10:00-19:00,10:00-19:00,10:00-18:00,,14008.jpg,www.beautyandmelody.co.uk,https://www.facebook.com/BeautyAndMelody,https://twitter.com/beautyandmelody,https://www.instagram.com/beautyandmelody/,EC1V 1JH,151-157 City Road (M by Montcalm Hotel) London
,,,,,,,,,,,,,,,
,,,,,,,,,,,,,,,
,,,,,,,,,,,,,,,
,,,,,,,,,,,,,,,
,,,,,,,,,,,,,,,
,,,,,,,,,,,,,,,
,,,,,,,,,,,,,,,
,,,,,,,,,,,,,,,
,,,,,,,,,,,,,,,
,,,,,,,,,,,,,,,
,,,,,,,,,,,,,,,
,,,,,,,,,,,,,,,
,,,,,,,,,,,,,,,
,,,,,,,,,,,,,,,
,,,,,,,,,,,,,,,
,,,,,,,,,,,,,,,
,,,,,,,,,,,,,,,
,,,,,,,,,,,,,,,
,,,,,,,,,,,,,,,
,,,,,,,,,,,,,,,
,,,,,,,,,,,,,,,
,,,,,,,,,,,,,,,
,,,,,,,,,,,,,,,
,,,,,,,,,,,,,,,
,,,,,,,,,,,,,,,
,,,,,,,,,,,,,,,
,,,,,,,,,,,,,,,
,,,,,,,,,,,,,,,
,,,,,,,,,,,,,,,
,,,,,,,,,,,,,,,
,,,,,,,,,,,,,,,
,,,,,,,,,,,,,,,
,,,,,,,,,,,,,,,
,,,,,,,,,,,,,,,
,,,,,,,,,,,,,,,