Sal_id,Monday,Tuesday,Wednesday,Thursday,Friday,Saturday,Sunday,Mobile Number,Salon_profile_Pic,Website,Facebook,Twitter,Instagram,Sal_zip,Sal_address
693,09:00-17:00,09:00-17:00,09:00-17:00,09:00-19:00,09:00-18:00,08:30-17:00,00:00-00:00,,693.jpg,http://sterlinghair.co.uk/default.aspx,https://www.facebook.com/permalink.php?story_fbid=1544480842254210&id=178268568875451,,,TN13 1XJ,"Sterling Hair 159 High Street, Sevenoaks, Kent"
71,08:00-20:00,11:00-20:00,08:00-21:00,08:00-21:00,10:15-19:00,09:15-18:00,10:00-17:00,,71.jpg,https://www.charlesworthingtonsalons.com/salons/percy-street/#content,www.facebook.com/charles.worthington,,https://www.instagram.com/charlesworthingtonsalons/,W1T 1DH,"7 Percy street, Fit Zrovia, London"
