Sal_id,Monday,Tuesday,Wednesday,Thursday,Friday,Saturday,Sunday,Mobile Number,Salon_profile_Pic,Website,Facebook,Twitter,Instagram,Sal_zip,Sal_address
495,00:00-00:00,10:30-17:30,10:30-17:30,10:30-17:30,10:30-18:00,09:30-18:00,00:00-00:00,,495.jpg,http://www.prestige-hairextensions.co.uk/,https://www.facebook.com/hairbyprestige/,https://twitter.com/Connoisseursuk,https://www.instagram.com/hairbyprestige/,NW3 3ST,Marriott Hotel Regents Park 128 King Henrys Road
13602,10:00-20:00,10:00-20:00,10:00-20:00,10:00-20:00,10:00-20:00,10:00-19:00,11:00-18:00,7484523030,13602.jpg,www.singharbeauty.co.uk,,,,W1D 2DS,1st & 2nd FLOOR 33 OXFORD STREET
