﻿16150,Manraj Kaur  Make up Artist MK Pro Makeup,Bridal Make up,Makeup for bride,£105.00,120,0,0,0
16150,Manraj Kaur  Make up Artist MK Pro Makeup,Bridal Make up,Makeup for bridesmaids,£40.00,60,,,
16150,Manraj Kaur  Make up Artist MK Pro Makeup,Bridal Make up,Makeup trial only for brides,£45.00,120,,,
16150,Manraj Kaur  Make up Artist MK Pro Makeup,Occasion Make up,Hair and Makeup,£150.00,120,,,
16150,Manraj Kaur  Make up Artist MK Pro Makeup,Occasion Make up,Hair only,£100.00,90,,,
16150,Manraj Kaur  Make up Artist MK Pro Makeup,Occasion Make up,Makeup only,£100.00,90,,,
16173,Tareena Make Up Artist,Bridal Make up,Makeup Trial,£50.00,60,,,
16173,Tareena Make Up Artist,Bridal Make up,Bride on the Day,£115.00,120,,,
16173,Tareena Make Up Artist,Bridal Make up,Bridesmaids Makeup,£60.00,60,,,
16173,Tareena Make Up Artist,Bridal Make up,Mother of Brides,£40.00,45,,,
16173,Tareena Make Up Artist,Bridal Make up,Lashes,£10.00,15,,,
16173,Tareena Make Up Artist,Fashion and Beauty,Eyebrow Shape,£8.00,10,,,
16173,Tareena Make Up Artist,Fashion and Beauty,Eyebrow tint,£8.00,10,,,
16173,Tareena Make Up Artist,Fashion and Beauty,Eyelash tint,£12.00,15,,,
16173,Tareena Make Up Artist,Fashion and Beauty,Eyelash perm,£25.00,30,,,
16173,Tareena Make Up Artist,Fashion and Beauty,Perm and lash tint,£32.00,30,,,
16173,Tareena Make Up Artist,Fashion and Beauty,manicure,£20.00,30,,,
16173,Tareena Make Up Artist,Fashion and Beauty,Pedicure,£25.00,30,,,
16173,Tareena Make Up Artist,Fashion and Beauty,Express Facial,£75.00,70,,,
16173,Tareena Make Up Artist,Fashion and Beauty,Environ Facial,£52.00,60,,,
16202,Mariya Kiani Professional Makeup Artist,Party Make up,Make up only party,£80.00,60,,,
16202,Mariya Kiani Professional Makeup Artist,Party Make up,Hair and makeup party,£120.00,90,,,
16202,Mariya Kiani Professional Makeup Artist,Bridal,Bridal Makeup,£220.00,160,,,
16202,Mariya Kiani Professional Makeup Artist,Bridal,Bridal Trial Makeup,£80.00,60,,,
16211,Shoreditch School of Makeup,Hair and Makeup,Makeup,£70.00,60,,,
16211,Shoreditch School of Makeup,Hair and Makeup,Hair and Makeup,£90.00,105,,,
16211,Shoreditch School of Makeup,Hair and Makeup,"Hair, Nails and Makeup",£115.00,150,,,
16211,Shoreditch School of Makeup,Hair and Makeup,Hair Style,£30.00,60,,,
16211,Shoreditch School of Makeup,Party Make up,Make up only party,£80.00,60,,,
16211,Shoreditch School of Makeup,Party Make up,Hair and makeup party,£120.00,90,,,
16243,Premier Bridal Beauty,Bridal Make up,Make up trial,£100.00,75,,,
16243,Premier Bridal Beauty,Bridal Make up,Hair Trial,£100.00,75,,,
16243,Premier Bridal Beauty,Bridal Make up,Bridesmaids Makeup,£55.00,60,,,
16243,Premier Bridal Beauty,Bridal Make up,Brides Mother Makeup,£55.00,60,,,
16243,Premier Bridal Beauty,Bridal Make up,Makeup and hair,£100.00,90,,,
16243,Premier Bridal Beauty,Bridal Make up,Make up and hair trial,£120.00,90,,,
16243,Premier Bridal Beauty,On Wedding Day,Make up for the bride,£150.00,120,,,
16243,Premier Bridal Beauty,On Wedding Day,Hair for the bride,£150.00,120,,,
16243,Premier Bridal Beauty,On Wedding Day,Make up and hair for the bride,£250.00,160,,,
16266,Fanny Vega,Wedding,Weddig hair and makeup,£200.00,120,,,
16266,Fanny Vega,Wedding,Hair up,£40.00,60,,,
16266,Fanny Vega,Wedding,Makeup,£50.00,60,,,
16266,Fanny Vega,Wedding,Wedding hair,£160.00,60,,,
16266,Fanny Vega,Wedding,Weddign makeup,£160.00,75,,,
16266,Fanny Vega,Fashion and Beauty,Eyebrow Shape,£8.00,10,,,
16266,Fanny Vega,Fashion and Beauty,Eyebrow tint,£8.00,10,,,
16266,Fanny Vega,Fashion and Beauty,Eyelash tint,£12.00,15,,,
16266,Fanny Vega,Fashion and Beauty,Eyelash perm,£25.00,30,,,
16266,Fanny Vega,Fashion and Beauty,Perm and lash tint,£32.00,30,,,
16266,Fanny Vega,Fashion and Beauty,manicure,£20.00,30,,,
16266,Fanny Vega,Fashion and Beauty,Pedicure,£25.00,30,,,
16266,Fanny Vega,Fashion and Beauty,Express Facial,£75.00,70,,,
