﻿14206,SpaClinique,Laser Hair Removal for Men and Women,"Eyebrows , Earlobes , Nose , Toes, Fingers",£32.00,10,0,0,0
14206,SpaClinique,Laser Hair Removal for Men and Women,"Nipples , Naval , Upper lip , Chin , Hands , Feet , Cheek Bones",£65.00,20,,,
14206,SpaClinique,Laser Hair Removal for Men and Women,"Upper arms , Lower arms , Bikini Brazilian , Shoulders , Abdomen, Upper lip and Chin",£105.00,30,,,
14206,SpaClinique,Laser Hair Removal for Men and Women,"Lower legs , Upper Legs , Hollywood and Peri anal , Full Face and Front Neck",£177.00,30,,,
14206,SpaClinique,Laser Hair Removal for Men and Women,"Chest and Abs,Full Arms",£190.00,35,,,
14206,SpaClinique,Laser Hair Removal for Men and Women,"Full Legs, Full Back and Shoulders",£240.00,60,,,
14206,SpaClinique,Face Treatments,Mesotherm (face and neck),£150.00,60,,,
14206,SpaClinique,Face Treatments,Signature MP facial,£195.00,90,,,
14206,SpaClinique,Face Treatments,Mini facial peel,£25.00,30,,,
14206,SpaClinique,Face Treatments,Cleansing Treatment,£75.00,60,,,
14206,SpaClinique,Face Treatments,Relaxing Facial Treatment,£70.00,90,,,
14206,SpaClinique,Hiffu Treatment,Face,£650.00,30,,,
14206,SpaClinique,Hiffu Treatment,Neck,£250.00,15,,,
14206,SpaClinique,Hiffu Treatment,Stretch Marks,£280.00,30,,,
14206,SpaClinique,Upper Face,under eye area,£125.00,45,,,
14206,SpaClinique,Upper Face,"crows feet , laughter lines",£125.00,30,,,
14206,SpaClinique,Upper Face,Eyelid and Eyebrow lift,£150.00,15,,,
14206,SpaClinique,Hot Waxing,Underarm ,£25.00,15,,,
14206,SpaClinique,Hot Waxing,Standar Bikini,£20.00,15,,,
14206,SpaClinique,Hot Waxing,High Bikini ,£25.00,15,,,
14206,SpaClinique,Hot Waxing,Lip or chin ,£15.00,15,,,
14206,SpaClinique,Hot Waxing,Eye brows ,£15.00,15,,,
14206,SpaClinique,Strip Waxing,Full Leg,£60.00,40,,,
14206,SpaClinique,Strip Waxing,Lower Half Leg,£30.00,25,,,
14206,SpaClinique,Strip Waxing,Upper Half Leg,£50.00,35,,,
14206,SpaClinique,Strip Waxing,Half arm,£45.00,40,,,
14206,SpaClinique,Strip Waxing,Full arm,£65.00,40,,,
14206,SpaClinique,Strip Waxing,under arm,£25.00,15,,,
14206,SpaClinique,Strip Waxing,Lip or chin ,£15.00,15,,,
14206,SpaClinique,Strip Waxing,eye brown,£15.00,15,,,
14206,SpaClinique,Strip Waxing,chest wax for men,£36.00,20,,,
14206,SpaClinique,Strip Waxing,Back wax,£45.00,25,,,
14206,SpaClinique,Perfect Eyelash Extension,In-fills feather lashes,£50.00,60,,,
14206,SpaClinique,Perfect Eyelash Extension,Lash removal,£20.00,30,,,
14206,SpaClinique,Eye Care,Eye brow and eye lash tint,£35.00,35,,,
14206,SpaClinique,Eye Care,eye lash tint,£15.00,20,,,
14206,SpaClinique,Eye Care,eye brow tint,£20.00,30,,,
14206,SpaClinique,Eye Care,eye brow shape,£15.00,20,,,
14206,SpaClinique,Make up,Special Occasion Make-up,£150.00,90,,,
14206,SpaClinique,Make up,Wedding Make-up,£120.00,90,,,
14206,SpaClinique,Massages,Back and Neck Massage,£65.00,30,,,
14206,SpaClinique,Massages,Swedish Full Body Massage,£65.00,60,,,
14206,SpaClinique,Massages,Lymphatic Massage,£65.00,60,,,
14206,SpaClinique,Gentlemens Pedicure,Executive Spa Pedicure,£50.00,60,,,
14206,SpaClinique,Gentlemens Pedicure,Express Padicure for men,£25.00,25,,,
14206,SpaClinique,Padicure,Padicure Clear,£25.00,30,,,
14206,SpaClinique,Padicure,Padicure color,£30.00,40,,,
14206,SpaClinique,Padicure,French Pedicure,£45.00,60,,,
14206,SpaClinique,Manicure,Color change,£10.00,15,,,
14206,SpaClinique,Manicure,Manicure Classic,£15.00,25,,,
14206,SpaClinique,Manicure,French manicure,£20.00,35,,,
14206,SpaClinique,Manicure,Luxury Manicure,£28.00,35,,,
14306,Laser-beautypoint,Eye Lash Extensions,Full set,£55.00,45,,,
14306,Laser-beautypoint,Eye Lash Extensions,Half set,£35.00,30,,,
14306,Laser-beautypoint,Eye Lash Extensions,Lash flick / corners,£15.00,15,,,
14306,Laser-beautypoint,Microdermabrasion Treatments,Basic Microdermabrasion,£30.00,70,,,
14306,Laser-beautypoint,Microdermabrasion Treatments,Regenrating Treatment,£35.00,75,,,
14306,Laser-beautypoint,Microdermabrasion Treatments,Basic Post acne treatment,£40.00,80,,,
14306,Laser-beautypoint,Microdermabrasion Treatments,Stretch mark treatment,£40.00,80,,,
14739,Makeup by Juancy,Hair and Makeup,Makeup,£70.00,60,,,
14739,Makeup by Juancy,Hair and Makeup,Hair and Makeup,£90.00,105,,,
14739,Makeup by Juancy,Hair and Makeup,"Hair, Nails and Makeup",£115.00,150,,,
14739,Makeup by Juancy,Hair and Makeup,Hair Style,£30.00,60,,,
14739,Makeup by Juancy,Bridal,Bridal Hair and Makeup,£120.00,150,,,
14739,Makeup by Juancy,Bridal,Bridal Makeup,£85.00,90,,,
14739,Makeup by Juancy,Bridal,Bridal Hair Style,£50.00,90,,,
14739,Makeup by Juancy,Bridal,Wedding Day Hair and Makeup,£150.00,120,,,
14739,Makeup by Juancy,Bridal,Wedding Day Makup only,£100.00,90,,,
14739,Makeup by Juancy,Bridal,Wedding Day Hair Style,£60.00,60,,,
14739,Makeup by Juancy,Bridal,Flower Girl Hair Style,£20.00,30,,,
14739,Makeup by Juancy,Nails,Classic Manicure,£30.00,45,,,
14739,Makeup by Juancy,Nails,Gellicure,£40.00,45,,,
14739,Makeup by Juancy,Nails,Classic Manicure and Classic Pedicure,£60.00,105,,,
14739,Makeup by Juancy,Nails,Manicure and Pedicure with Gel,£75.00,105,,,
14739,Makeup by Juancy,Nails,Pedicure,£40.00,60,,,
14739,Makeup by Juancy,Nails,File and Polish,£30.00,45,,,
14739,Makeup by Juancy,Nails,Gel Removal ,£5.00,10,,,
14739,Makeup by Juancy,Nails,Nail Art,£5.00,10,,,
15861,sinead bevan makeup,Wedding,Bridal Makeup,£80.00,90,,,
15861,sinead bevan makeup,Wedding,Bridal Trial Makeup,£50.00,60,,,
15861,sinead bevan makeup,Wedding,Special Occasions,£60.00,60,,,
15861,sinead bevan makeup,Wedding,Bridesmaids Makeup,£60.00,60,,,
15861,sinead bevan makeup,Wedding,Mother of the brides makeup,£60.00,60,,,
15861,sinead bevan makeup,Wedding,Groom Makeup,£60.00,60,,,
14197,Spaisha Ltd,Massage,Si Detox Massage,£30.00,30,,,
14197,Spaisha Ltd,Massage,LYMPHATIC DRAINAGE MASSAGE,£30.00,30,,,
14197,Spaisha Ltd,Massage,REFLEXOLOGY,£30.00,30,,,
14197,Spaisha Ltd,Massage,HERAPEUTIC MASSAGE,£50.00,60,,,
14197,Spaisha Ltd,Massage,THAI HERBAL HEAT REVIVAL MASSAGE,£55.00,75,,,
14197,Spaisha Ltd,Massage,COUPLES MASSAGE,£65.00,90,,,
14197,Spaisha Ltd,Massage,HOT STONE MASSAGE THERAPY,£30.00,30,,,
14197,Spaisha Ltd,Massage,SWEDISH MASSAGE,£55.00,75,,,
14197,Spaisha Ltd,Massage,PREGNANCY AND POSTNATAL MASSAGE,£45.00,60,,,
14197,Spaisha Ltd,Massage,AROMATHERAPY MASSAGE,£50.00,75,,,
14197,Spaisha Ltd,Massage,MASSAGE FOR BABIES AND CHILDREN,£30.00,30,,,
14197,Spaisha Ltd,Massage,HEATED BAMBOO MASSAGE,£30.00,30,,,
14197,Spaisha Ltd,Massage,PREGNANCY AND POSTNATAL MASSAGE,£28.00,30,,,
14197,Spaisha Ltd,Massage,MASSAGE FOR BABIES AND CHILDREN,£28.00,30,,,
14197,Spaisha Ltd,Massage,COUPLES MASSAGE,£90.00,60,,,
14197,Spaisha Ltd,Beauty Treatments,MINI MANICURE,£20.00,30,,,
14197,Spaisha Ltd,Beauty Treatments,Man-I-Care,£28.00,45,,,
14197,Spaisha Ltd,Beauty Treatments,CLASSIC AROMATHERAPY MANICURE,£35.00,60,,,
14197,Spaisha Ltd,Beauty Treatments,CLASSIC AROMATHERAPY PEDICURE,£35.00,60,,,
14197,Spaisha Ltd,Beauty Treatments,DELUXE AROMATHERAPY MANICURE,£40.00,75,,,
14197,Spaisha Ltd,Beauty Treatments,DELUXE AROMATHERAPY PEDICURE,£40.00,75,,,
14197,Spaisha Ltd,Beauty Treatments,LITTLE MISS ISHA PEDICURE (UNDER 12 ONLY),£10.00,25,,,
14197,Spaisha Ltd,Beauty Treatments,LITTLE MISS ISHA MANICURE (UNDER 12 ONLY),£10.00,25,,,
14197,Spaisha Ltd,Beauty Treatments,CLASSIC MANICURE AND PEDICURE PACKAGE,£50.00,75,,,
14197,Spaisha Ltd,Beauty Treatments,GELISH,£25.00,75,,,
14197,Spaisha Ltd,Beauty Treatments,POLYGEL EXTENSIONS / NAIL REPAIR,£50.00,75,,,
14197,Spaisha Ltd,Threading and Waxing,EYEBROW SHAPING,£6.00,15,,,
14197,Spaisha Ltd,Threading and Waxing,ARM WAXING,£15.00,30,,,
14197,Spaisha Ltd,Threading and Waxing,EYEBROW AND UPPER LIP,£6.50,20,,,
14197,Spaisha Ltd,Threading and Waxing,LEG WAXING,£15.00,20,,,
14197,Spaisha Ltd,Threading and Waxing,THREADING - UPPER LIP/CHIN/FOREHEAD,£3.00,15,,,
14197,Spaisha Ltd,Threading and Waxing,UNDERARMS WAXING,£10.00,20,,,
14197,Spaisha Ltd,Threading and Waxing,FULL FACE THREADING,£15.00,25,,,
14197,Spaisha Ltd,Threading and Waxing,BIKINI LINE,£15.00,10,,,
14197,Spaisha Ltd,Threading and Waxing,UPPER LIP WAXING,£7.00,20,,,
14197,Spaisha Ltd,Threading and Waxing,FULL FACE WAXING,£20.00,30,,,
14197,Spaisha Ltd,Facial Treatments,MINI FACIAL,£20.00,30,,,
14197,Spaisha Ltd,Facial Treatments,SI SIGNATURE FACIAL,£35.00,90,,,
14197,Spaisha Ltd,Facial Treatments,CLASSICAL FACIAL,£28.00,60,,,
14197,Spaisha Ltd,Ear Treatments,EAR PIERCING,£15.00,20,,,
14197,Spaisha Ltd,Ear Treatments,HOPI EAR CANDLING,£25.00,40,,,
