Sal_id,Monday,Tuesday,Wednesday,Thursday,Friday,Saturday,Sunday,Mobile Number,Sal_profile_pic,Website,Facebook,Twitter,Instagram,Sal_zip,Sal_address
14206,00:00-00:00,09:00-20:00,09:00-20:00,09:00-20:00,09:00-20:00,09:00-20:00,10:00-17:00,,14206.jpg,www.spaclinique.co.uk,,,,SW6 5NT,580 Fulham Road 
14306,08:30-19:30,08:30-19:30,08:30-19:30,08:30-19:30,08:30-16:00,Closed,08:30-19:30,7816918745,14306.jpg,www.laser-beautypoint.co.uk,,,,N3 3EY,22 Hillcrest Gardens Finchley 
14739,09:00-17:00,09:00-17:00,09:00-17:00,09:00-17:00,09:00-17:00,09:00-17:00,Closed,7738150328,14739.jpg,www.makeupbyjuancy.co.uk,https://twitter.com/makeupbyjuancy,,,N21 2DS,Enfield Winchmore Hill 
15861,09:00-17:00,09:00-17:00,09:00-17:00,09:00-17:00,09:00-17:00,09:00-17:00,00:00-00:00,7521630554,15861.jpg,sineadbevanmakeup.sitey.me,https://www.facebook.com/sineadbevanmakeup/,https://twitter.com/sineadbmakeup,https://www.instagram.com/sineadbevanmakeup/,N22 8JQ,Clapham and Central to South areas
14197,10:00-18:00,10:00-20:00,10:00-18:00,10:00-20:00,10:00-20:00,10:00-18:00,10:00-16:00,,14197.jpg,www.spaisha.co.uk,https://web.facebook.com/pg/spaisha/,,,W7 1DR,"Spaisha Aromatherapy and Beauty Centre, 20 Church Road Hanwell "
