53517,City Nails & Spa,Nails Treatments,Express Manicure,15,30,0,0,0
53517,City Nails & Spa,Nails Treatments,Express Pedicure,22,30,,,
53517,City Nails & Spa,Nails Treatments,Artificial full set clear/ white,35,30,,,
53517,City Nails & Spa,Nails Treatments,UV full set clear/ White,40,30,,,
53517,City Nails & Spa,Nails Treatments,Hand polish,8,15,,,
53517,City Nails & Spa,Nails Treatments,Toes polish,10,15,,,
53517,City Nails & Spa,Nails Treatments,Nail repair,5,15,,,
53517,City Nails & Spa,Nails Treatments,Hand polish,10,15,,,
53517,City Nails & Spa,Tinting,Eyebrows,12,15,,,
53517,City Nails & Spa,Tinting,Eyelash,15,15,,,
53517,City Nails & Spa,Massage,Body massage relax,50,60,,,
53517,City Nails & Spa,Massage,Foot massage,50,90,,,
53517,City Nails & Spa,Eyelash extensions,Full set,70,60,,,
53517,City Nails & Spa,Eyelash extensions,Eyelash removal,20,30,,,
53517,City Nails & Spa,Waxing,Eyebrows,12,15,,,
53517,City Nails & Spa,Waxing,Lip,8,15,,,
53517,City Nails & Spa,Waxing,Chin,10,15,,,
53517,City Nails & Spa,Waxing,Full face,40,30,,,
53517,City Nails & Spa,Waxing,Full arm,35,30,,,
53517,City Nails & Spa,Waxing,Full leg,45,30,,,
53517,City Nails & Spa,Waxing,Chest/Back,35,30,,,
53510,NAILS BY ANNA MOBILE SPA,Manicure,Essential manicure,30,30,,,
53510,NAILS BY ANNA MOBILE SPA,Manicure,Paraffin manicure,35,30,,,
53510,NAILS BY ANNA MOBILE SPA,Manicure,Shellac manicure,40,30,,,
53510,NAILS BY ANNA MOBILE SPA,Pedicure,Essential pedicure,40,30,,,
53510,NAILS BY ANNA MOBILE SPA,Pedicure,Shellac pedicure,45,45,,,
53510,NAILS BY ANNA MOBILE SPA,Pedicure,Paraffin pedicure,50,45,,,
53510,NAILS BY ANNA MOBILE SPA,Massage,Aromatherapy massage,20,15,,,
53510,NAILS BY ANNA MOBILE SPA,Massage,Hot stone massage,40,30,,,
53510,NAILS BY ANNA MOBILE SPA,Massage,Indian head,45,30,,,
53510,NAILS BY ANNA MOBILE SPA,Men Nails,Express manicure,15,15,,,
53510,NAILS BY ANNA MOBILE SPA,Men Nails,Don juan manicure,25,30,,,
53510,NAILS BY ANNA MOBILE SPA,Men Nails,Sports pedicure,50,30,,,
53505,Trade Secrets ,Hair styles,Woman ,45,45,,,
53505,Trade Secrets ,Hair styles,Bang trim,6,15,,,
53505,Trade Secrets ,Hair styles,Men cut,24,30,,,
53505,Trade Secrets ,Hair styles,Girl cut into 7,25,30,,,
53505,Trade Secrets ,Hair styles,Boy cut into 7,20,30,,,
53505,Trade Secrets ,Waxing,Brow,9,15,,,
53505,Trade Secrets ,Waxing,Lip,7,15,,,
53505,Trade Secrets ,Waxing,Chin/Cheek,8,15,,,
53505,Trade Secrets ,Waxing,Full leg,55,30,,,
53505,Trade Secrets ,Waxing,Chest,35,30,,,
53505,Trade Secrets ,Waxing,Full arm,28,30,,,
53505,Trade Secrets ,Waxing,Bikini,20,30,,,
53505,Trade Secrets ,Spa services,Lash tint,20,15,,,
53505,Trade Secrets ,Spa services,Brow tint,15,15,,,
53505,Trade Secrets ,Spa services,Laser,75,60,,,
53505,Trade Secrets ,Chemical services,Perm,75,45,,,
53505,Trade Secrets ,Chemical services,Part foil,85,45,,,
53505,Trade Secrets ,Chemical services,Full foil,155,60,,,
53504,All About Massage & Laser Services,Massage,Massage Therapy,56,30,,,
53504,All About Massage & Laser Services,Massage,Massage Therapy,68,45,,,
53504,All About Massage & Laser Services,Massage,Massage Therapy,85,60,,,
53504,All About Massage & Laser Services,Massage,Couple massage,90,60,,,
53504,All About Massage & Laser Services,Massage,Couple massage,120,90,,,
53504,All About Massage & Laser Services,Massage,Reflexology,68,45,,,
53504,All About Massage & Laser Services,Facial,Custom facial,85,60,,,
53504,All About Massage & Laser Services,Facial,Deep cleansing facial,95,60,,,
53504,All About Massage & Laser Services,Facial,Chrono detox facial,105,60,,,
53504,All About Massage & Laser Services,Facial,Treatment facial,105,60,,,
53504,All About Massage & Laser Services,Nails ,Polish change,30,30,,,
53504,All About Massage & Laser Services,Nails ,Spa manicure,40,30,,,
53504,All About Massage & Laser Services,Nails ,Shellac manicure,50,45,,,
53504,All About Massage & Laser Services,Nails ,Petite manicure,30,30,,,
53501,The Spa at 61 Elm,Permanent makeup,Micro pigmentation,650,180,,,
53501,The Spa at 61 Elm,Permanent makeup,Microblading,500,180,,,
53501,The Spa at 61 Elm,Permanent makeup,Upperlash enhancements,450,180,,,
53501,The Spa at 61 Elm,Permanent makeup,Upper and lower,750,180,,,
53501,The Spa at 61 Elm,Permanent makeup,Lip liner,500,180,,,
53501,The Spa at 61 Elm,Facial treatments,Silkpeel facial,140,60,,,
53501,The Spa at 61 Elm,Facial treatments,Silkpeel express,120,60,,,
53501,The Spa at 61 Elm,Facial treatments,Deep cleansing facial,100,60,,,
53501,The Spa at 61 Elm,Facial treatments,LED facial phototherapy treatment,150,90,,,
53501,The Spa at 61 Elm,Facial treatments,Lumi facial,180,60,,,
53501,The Spa at 61 Elm,Facial treatments,Face or neck,100,60,,,
53501,The Spa at 61 Elm,Facial treatments,Collagen eyelift,45,45,,,
53501,The Spa at 61 Elm,Facial treatments,Lip plump,60,15,,,
53501,The Spa at 61 Elm,Haircut,Women cut,40,30,,,
53501,The Spa at 61 Elm,Haircut,Men cut,25,30,,,
53501,The Spa at 61 Elm,Haircut,Kids cut,15,30,,,
53501,The Spa at 61 Elm,Haircut,Beard trim,15,15,,,
53501,The Spa at 61 Elm,Colour,Colour and cut,95,60,,,
53501,The Spa at 61 Elm,Colour,Balayage/Ombre,150,60,,,
53501,The Spa at 61 Elm,Colour,Full highlights,150,60,,,
53501,The Spa at 61 Elm,Colour,Partial highlights,110,60,,,
53501,The Spa at 61 Elm,Styling,Up do Evening style,35,30,,,
53501,The Spa at 61 Elm,Styling,Wash and set,40,30,,,
53501,The Spa at 61 Elm,Perms,Long hair,100,60,,,
53501,The Spa at 61 Elm,Perms,Short hair,80,60,,,
53501,The Spa at 61 Elm,Massage,Massage Therapy,50,30,,,
53501,The Spa at 61 Elm,Massage,Massage Therapy,60,45,,,
53501,The Spa at 61 Elm,Massage,Massage Therapy,75,90,,,
53501,The Spa at 61 Elm,Massage,Hot stone massage,95,60,,,
53501,The Spa at 61 Elm,Massage,Couples massage for Two,150,60,,,
53501,The Spa at 61 Elm,Massage,Body polishing,75,45,,,
53501,The Spa at 61 Elm,Nails,Spa manicure,35,30,,,
53501,The Spa at 61 Elm,Nails,Essential manicure,30,30,,,
53501,The Spa at 61 Elm,Nails,Shellac manicure,45,30,,,
53501,The Spa at 61 Elm,Nails,French polish,10,15,,,
53501,The Spa at 61 Elm,Nails,Spa pedicure,65,45,,,
53501,The Spa at 61 Elm,Nails,Essential pedicure,45,45,,,
53501,The Spa at 61 Elm,Nails,Shellac pedicure,70,60,,,
53501,The Spa at 61 Elm,Nails,Men pedicure,45,45,,,
53501,The Spa at 61 Elm,Waxing,Full leg and bikini,65,60,,,
53501,The Spa at 61 Elm,Waxing,Half legs,35,30,,,
53501,The Spa at 61 Elm,Waxing,Bikini,25,30,,,
53501,The Spa at 61 Elm,Waxing,Arms,30,30,,,
53501,The Spa at 61 Elm,Waxing,Chest,40,30,,,
53499,Shes So Fine Esthetics,Hands and Feets,Manicure,28,30,,,
53499,Shes So Fine Esthetics,Hands and Feets,Spa manicure,38,45,,,
53499,Shes So Fine Esthetics,Hands and Feets,Shellac,10,15,,,
53499,Shes So Fine Esthetics,Hands and Feets,French polish,7,15,,,
53499,Shes So Fine Esthetics,Hands and Feets,Mini pedicure,25,30,,,
53499,Shes So Fine Esthetics,Hands and Feets,Makeup application,40,30,,,
53499,Shes So Fine Esthetics,Waxing,Upperlip,10,15,,,
53499,Shes So Fine Esthetics,Waxing,Eyebrows,10,15,,,
53499,Shes So Fine Esthetics,Waxing,Chin and neck,8,15,,,
53499,Shes So Fine Esthetics,Waxing,Full leg,58,60,,,
53499,Shes So Fine Esthetics,Waxing,Bikini,28,30,,,
53499,Shes So Fine Esthetics,Waxing,Full arm,28,30,,,
53499,Shes So Fine Esthetics,Waxing,Brazilian,50,45,,,
53499,Shes So Fine Esthetics,Waxing,Eyelash tinting,22,30,,,
53499,Shes So Fine Esthetics,Waxing,Eyebrow tinting,20,30,,,
53499,Shes So Fine Esthetics,Facials,Essential facial,70,60,,,
53499,Shes So Fine Esthetics,Facials,Deluxe facial,90,60,,,
53494,Nails & Art,Nails Treatments,Gel colour,7,15,,,
53494,Nails & Art,Nails Treatments,Cat eyes colour,15,15,,,
53494,Nails & Art,Nails Treatments,Chrome,17,15,,,
53494,Nails & Art,Nails Treatments,Free hand nail art,15,15,,,
53494,Nails & Art,Nails Treatments,Basic manicure,22,15,,,
53494,Nails & Art,Nails Treatments,Basic pedicure,37,30,,,
53494,Nails & Art,Nails Treatments,Deluxe manicure,45,30,,,
53494,Nails & Art,Nails Treatments,Spa pedicure,55,45,,,
53494,Nails & Art,Nails Treatments,Deluxe pedicure,60,30,,,
53494,Nails & Art,Nails Treatments,Feet-gel polish,30,30,,,
53494,Nails & Art,Facials,Mini facial,50,30,,,
53494,Nails & Art,Facials,Custom facial,85,60,,,
53494,Nails & Art,Facials,Refreshing mask facial,60,45,,,
53494,Nails & Art,Facials,Full facial spa,135,90,,,
53494,Nails & Art,Waxing,Eyebrows,10,15,,,
53494,Nails & Art,Waxing,Upperlip,7,15,,,
53494,Nails & Art,Waxing,Chin,10,15,,,
53494,Nails & Art,Waxing,Full arms,45,30,,,
53494,Nails & Art,Waxing,Full legs,55,30,,,
53494,Nails & Art,Waxing,Brazilian,55,30,,,
53488,Champers Salons,Ladies,Haircut and finish,50,45,,,
53488,Champers Salons,Ladies,Cut,38,30,,,
53488,Champers Salons,Ladies,Wet cut,40,30,,,
53488,Champers Salons,Kids,into 4,16,30,,,
53488,Champers Salons,Kids,into 12,22,30,,,
53488,Champers Salons,Styling,Simple styles,30,30,,,
53488,Champers Salons,Styling,Up dos,70,60,,,
53488,Champers Salons,Styling,Braids,25,30,,,
53488,Champers Salons,Styling,Curls,35,30,,,
53488,Champers Salons,Technical Services,Chemical straightening short,150,60,,,
53488,Champers Salons,Technical Services,Keratin smoothing,250,120,,,
53488,Champers Salons,Technical Services,Perm,100,60,,,
53488,Champers Salons,Technical Services,Spiral perm,150,90,,,
53488,Champers Salons,Men ,Haircut,28,30,,,
53488,Champers Salons,Men ,Fresh fade,21,30,,,
53488,Champers Salons,Men ,Beard,5,15,,,
53488,Champers Salons,Men ,Hot shave,35,30,,,
53488,Champers Salons,Hair colour,Full colour,100,60,,,
53488,Champers Salons,Hair colour,Colour refresh,80,60,,,
53488,Champers Salons,Hair colour,Men colour,38,30,,,
53488,Champers Salons,Hair colour,Men bleach,40,30,,,
53488,Champers Salons,Hair colour,Full head highlight,125,60,,,
53488,Champers Salons,Hair colour,Partial highlights,100,60,,,
53487,Apollo Nails & Spa,Nails Treatments,Spa manicure,21,30,,,
53487,Apollo Nails & Spa,Nails Treatments,Deluxe manicure,31,30,,,
53487,Apollo Nails & Spa,Nails Treatments,Organic manicure,31,30,,,
53487,Apollo Nails & Spa,Nails Treatments,Spa pedicure,35,30,,,
53487,Apollo Nails & Spa,Nails Treatments,Deluxe pedicure,45,30,,,
53487,Apollo Nails & Spa,Nails Treatments,Organic pedicure,45,30,,,
53487,Apollo Nails & Spa,Nails Treatments,Shellac manicure,35,30,,,
53487,Apollo Nails & Spa,Nails Treatments,Shellac pedicure,55,45,,,
53487,Apollo Nails & Spa,Nails Treatments,Shellac removal,10,15,,,
53487,Apollo Nails & Spa,Nails Treatments,Polish change nails,8,15,,,
53487,Apollo Nails & Spa,Nails Treatments,Kid pedicure,25,30,,,
53487,Apollo Nails & Spa,Nails Treatments,Kid manicure,15,30,,,
53487,Apollo Nails & Spa,Waxing,Eyebrow,16,15,,,
53487,Apollo Nails & Spa,Waxing,Lip,11,15,,,
53487,Apollo Nails & Spa,Waxing,Chin,12,15,,,
53487,Apollo Nails & Spa,Waxing,Nasal,15,15,,,
53487,Apollo Nails & Spa,Waxing,Full face,45,45,,,
53487,Apollo Nails & Spa,Waxing,Bikini,45,45,,,
53487,Apollo Nails & Spa,Waxing,Full leg,70,60,,,
53487,Apollo Nails & Spa,Waxing,Hands,10,15,,,
53487,Apollo Nails & Spa,Waxing,Chest,35,30,,,
53487,Apollo Nails & Spa,Eye treatments,Eyebrow tinting,20,30,,,
53487,Apollo Nails & Spa,Eye treatments,Eyelash tinting,22,30,,,
53487,Apollo Nails & Spa,Facial,European facial,80,60,,,
53487,Apollo Nails & Spa,Facial,Paraffin facial,90,60,,,
53487,Apollo Nails & Spa,Facial,Glycolic peel facial,90,60,,,
53487,Apollo Nails & Spa,Facial,Teen facial,60,60,,,
53484,Champers Walnut Grove,Ladies,Haircut and finish,50,45,,,
53484,Champers Walnut Grove,Ladies,Cut,38,30,,,
53484,Champers Walnut Grove,Ladies,Wet cut,40,30,,,
53484,Champers Walnut Grove,Kids,into 4,16,30,,,
53484,Champers Walnut Grove,Kids,into 12,22,30,,,
53484,Champers Walnut Grove,Styling,Simple styles,30,30,,,
53484,Champers Walnut Grove,Styling,Up dos,70,60,,,
53484,Champers Walnut Grove,Styling,Braids,25,30,,,
53484,Champers Walnut Grove,Styling,Curls,35,30,,,
53484,Champers Walnut Grove,Technical Services,Chemical straightening short,150,60,,,
53484,Champers Walnut Grove,Technical Services,Keratin smoothing,250,120,,,
53484,Champers Walnut Grove,Technical Services,Perm,100,60,,,
53484,Champers Walnut Grove,Technical Services,Spiral perm,150,90,,,
53484,Champers Walnut Grove,Men ,Haircut,28,30,,,
53484,Champers Walnut Grove,Men ,Fresh fade,21,30,,,
53484,Champers Walnut Grove,Men ,Beard,5,15,,,
53484,Champers Walnut Grove,Men ,Hot shave,35,30,,,
53484,Champers Walnut Grove,Hair colour,Full colour,100,60,,,
53484,Champers Walnut Grove,Hair colour,Colour refresh,80,60,,,
53484,Champers Walnut Grove,Hair colour,Men colour,38,30,,,
53484,Champers Walnut Grove,Hair colour,Men bleach,40,30,,,
53484,Champers Walnut Grove,Hair colour,Full head highlight,125,60,,,
53484,Champers Walnut Grove,Hair colour,Partial highlights,100,60,,,
53483,Kenza Day Spa & Eyebrows Microblading,Facial,Microdermabrasion,149,90,,,
53483,Kenza Day Spa & Eyebrows Microblading,Facial,Hydra facial,159,90,,,
53483,Kenza Day Spa & Eyebrows Microblading,Facial,Ultrasonic galvanic facial,129,60,,,
53483,Kenza Day Spa & Eyebrows Microblading,Facial,European facial,109,60,,,
53483,Kenza Day Spa & Eyebrows Microblading,Facial,Sensitive facial,99,60,,,
53483,Kenza Day Spa & Eyebrows Microblading,Massage,Swedish,35,30,,,
53483,Kenza Day Spa & Eyebrows Microblading,Massage,Deep tissue,75,30,,,
53483,Kenza Day Spa & Eyebrows Microblading,Massage,Pregnancy,99,60,,,
53483,Kenza Day Spa & Eyebrows Microblading,Massage,Reflexology,89,60,,,
53483,Kenza Day Spa & Eyebrows Microblading,Massage,Signature  massage,139,60,,,
53483,Kenza Day Spa & Eyebrows Microblading,Massage,Lava stone massage,89,45,,,
53483,Kenza Day Spa & Eyebrows Microblading,Nails Services,Spa manicure plus massage,49,60,,,
53483,Kenza Day Spa & Eyebrows Microblading,Nails Services,Express manicure,35,30,,,
53483,Kenza Day Spa & Eyebrows Microblading,Nails Services,Artificial nail removal,25,30,,,
53483,Kenza Day Spa & Eyebrows Microblading,Nails Services,Polish change,15,30,,,
53483,Kenza Day Spa & Eyebrows Microblading,Nails Services,Gel polish shellac,39,45,,,
53483,Kenza Day Spa & Eyebrows Microblading,Makeup,All occassion,55,60,,,
53483,Kenza Day Spa & Eyebrows Microblading,Waxing,Full legs,62,60,,,
53483,Kenza Day Spa & Eyebrows Microblading,Waxing,Bikini,25,30,,,
53483,Kenza Day Spa & Eyebrows Microblading,Waxing,Brazilian,59,60,,,
53483,Kenza Day Spa & Eyebrows Microblading,Waxing,Upper lip,10,15,,,
53483,Kenza Day Spa & Eyebrows Microblading,Waxing,Chin,16,15,,,
53483,Kenza Day Spa & Eyebrows Microblading,Waxing,Brows,16,15,,,
53483,Kenza Day Spa & Eyebrows Microblading,Waxing,Face ,30,30,,,
53483,Kenza Day Spa & Eyebrows Microblading,Waxing,Chest,50,30,,,
53483,Kenza Day Spa & Eyebrows Microblading,Waxing,Stomach,22,30,,,
53482,Strawberry Hills Hair Care,Services,Manicure,20,30,,,
53482,Strawberry Hills Hair Care,Services,Pedicure,30,30,,,
53482,Strawberry Hills Hair Care,Services,Shellac,25,30,,,
53482,Strawberry Hills Hair Care,Services,Nair art,30,30,,,
53482,Strawberry Hills Hair Care,Services,Facials,40,45,,,
53482,Strawberry Hills Hair Care,Services,Relaxation massage,45,45,,,
53482,Strawberry Hills Hair Care,Services,Facial waxing,30,30,,,
53482,Strawberry Hills Hair Care,Services,Full body waxing,50,45,,,
53482,Strawberry Hills Hair Care,Services,Lash and brow tinting,45,45,,,
53482,Strawberry Hills Hair Care,Services,Men haircut,25,30,,,
53482,Strawberry Hills Hair Care,Services,Women haircut,35,30,,,
53482,Strawberry Hills Hair Care,Services,Seniors Haircut,20,30,,,
53482,Strawberry Hills Hair Care,Services,Kids haircut,15,30,,,
53482,Strawberry Hills Hair Care,Services,Bridal haircut,50,45,,,
53482,Strawberry Hills Hair Care,Services,Bridal makeup,60,60,,,
53480,Lush Nail Lounge,Hands and Feets,Manicure and pedicure,45,30,,,
53480,Lush Nail Lounge,Hands and Feets,Basic pedicure,30,30,,,
53480,Lush Nail Lounge,Hands and Feets,Gel polish pedicure,45,45,,,
53480,Lush Nail Lounge,Hands and Feets,Manicure with gel polish,35,30,,,
53480,Lush Nail Lounge,Hands and Feets,10 min hand massage,10,15,,,
53480,Lush Nail Lounge,Hands and Feets,Paraffin on hands or feet,10,15,,,
53480,Lush Nail Lounge,Acrylics,Clear full set,35,30,,,
53480,Lush Nail Lounge,Acrylics,Full set with polish,50,45,,,
53480,Lush Nail Lounge,Acrylics,Ombre full set,63,45,,,
53480,Lush Nail Lounge,Maintenance,Removal of artificial nails,20,30,,,
53480,Lush Nail Lounge,Maintenance,Remove gel polish,10,15,,,
53480,Lush Nail Lounge,Maintenance,Nail repair,5,15,,,
53480,Lush Nail Lounge,Maintenance,Buff and reshine gel,5,15,,,
53479,Perfection Nail,Nails Services,Solar nails,45,30,,,
53479,Perfection Nail,Nails Services,Acrylic nails full set,30,30,,,
53479,Perfection Nail,Nails Services,Spa pedicure,28,30,,,
53479,Perfection Nail,Nails Services,Manicure,17,30,,,
53479,Perfection Nail,Nails Services,Polish change,10,15,,,
53479,Perfection Nail,Nails Services,Nail art,5,15,,,
53479,Perfection Nail,Waxing,Eyebrows,7,15,,,
53479,Perfection Nail,Waxing,Chin,5,15,,,
53479,Perfection Nail,Waxing,Full face,25,30,,,
53479,Perfection Nail,Waxing,Full leg,35,30,,,
53479,Perfection Nail,Waxing,Full arm,25,30,,,
53479,Perfection Nail,Waxing,Bikini,15,30,,,
53479,Perfection Nail,Waxing,Brazilian,35,30,,,
53478,Ultimate Hair Salon & Esthetics Studio,Haircut,Haircut,33,30,,,
53478,Ultimate Hair Salon & Esthetics Studio,Haircut,Shampoo and style,33,30,,,
53478,Ultimate Hair Salon & Esthetics Studio,Haircut,Men haircut,17,30,,,
53478,Ultimate Hair Salon & Esthetics Studio,Haircut,Kids trim,5,15,,,
53478,Ultimate Hair Salon & Esthetics Studio,Haircut,Princess cut,12,15,,,
53478,Ultimate Hair Salon & Esthetics Studio,Perms,Regular Perm,75,60,,,
53478,Ultimate Hair Salon & Esthetics Studio,Perms,Spiral perm,129,60,,,
53478,Ultimate Hair Salon & Esthetics Studio,Color,Roots,59,60,,,
53478,Ultimate Hair Salon & Esthetics Studio,Color,Full head colour,70,60,,,
53478,Ultimate Hair Salon & Esthetics Studio,Color,Foils,13,15,,,
53478,Ultimate Hair Salon & Esthetics Studio,Color,Full head foils,120,60,,,
53478,Ultimate Hair Salon & Esthetics Studio,Color,Bleach and tone,80,60,,,
53478,Ultimate Hair Salon & Esthetics Studio,Color,Ombre colour,120,60,,,
53478,Ultimate Hair Salon & Esthetics Studio,Seniors,Haircut,29,30,,,
53478,Ultimate Hair Salon & Esthetics Studio,Seniors,Shampoo and style,29,30,,,
53478,Ultimate Hair Salon & Esthetics Studio,Seniors,Regular perm,68,60,,,
53476,Minty Nails Salon,Nails Services,Regular manicure,20,30,,,
53476,Minty Nails Salon,Nails Services,Regular pedicure,30,30,,,
53476,Minty Nails Salon,Nails Services,Polish change,10,15,,,
53476,Minty Nails Salon,Nails Services,Minty manicure,35,30,,,
53476,Minty Nails Salon,Nails Services,Minty pedicure,50,30,,,
53476,Minty Nails Salon,Nails Services,Gel polish,25,30,,,
53476,Minty Nails Salon,Nails Services,Gel polish manicure,35,30,,,
53476,Minty Nails Salon,Nails Services,Gel polish pedicure,45,30,,,
53476,Minty Nails Salon,Nails Services,Nail repair,5,15,,,
53476,Minty Nails Salon,Nails Services,French,5,15,,,
53476,Minty Nails Salon,Nails Services,Fading,7,15,,,
53475,i Pro Nails Salon,Nails Services,Regular manicure,17,30,,,
53475,i Pro Nails Salon,Nails Services,Regular pedicure,28,30,,,
53475,i Pro Nails Salon,Nails Services,Regular manicure and pedicure,40,30,,,
53475,i Pro Nails Salon,Nails Services,Polish change (for nails),8,15,,,
53475,i Pro Nails Salon,Nails Services,Polish change (for toes),10,15,,,
53475,i Pro Nails Salon,Nails Services,Shellac gel colour (for colour),20,30,,,
53475,i Pro Nails Salon,Nails Services,Shellac gel colour (with manicure),30,30,,,
53475,i Pro Nails Salon,Nails Services,Shellac gel colour (with pedicure),40,30,,,
53475,i Pro Nails Salon,Nails Services,Nail repair,5,15,,,
53475,i Pro Nails Salon,Nails Services,Nail design,5,15,,,
53475,i Pro Nails Salon,Nails Services,Nail cut,5,15,,,
53475,i Pro Nails Salon,Nails Services,Hand paraffin,6,15,,,
53475,i Pro Nails Salon,Nails Services,Foot paraffin,8,15,,,
53473,Lush Nail Lounge on 96th,Hands and Feets,Manicure and pedicure,45,30,,,
53473,Lush Nail Lounge on 96th,Hands and Feets,Basic pedicure,30,30,,,
53473,Lush Nail Lounge on 96th,Hands and Feets,Gel polish pedicure,45,45,,,
53473,Lush Nail Lounge on 96th,Hands and Feets,Manicure with gel polish,35,30,,,
53473,Lush Nail Lounge on 96th,Hands and Feets,10 min hand massage,10,15,,,
53473,Lush Nail Lounge on 96th,Hands and Feets,Paraffin on hands or feet,10,15,,,
53473,Lush Nail Lounge on 96th,Acrylics,Clear full set,35,30,,,
53473,Lush Nail Lounge on 96th,Acrylics,Full set with polish,50,45,,,
53473,Lush Nail Lounge on 96th,Acrylics,Ombre full set,63,45,,,
53473,Lush Nail Lounge on 96th,Maintenance,Removal of artificial nails,20,30,,,
53473,Lush Nail Lounge on 96th,Maintenance,Remove gel polish,10,15,,,
53473,Lush Nail Lounge on 96th,Maintenance,Nail repair,5,15,,,
53473,Lush Nail Lounge on 96th,Maintenance,Buff and reshine gel,5,15,,,
53472,Newunique Nails,Nails Services,Manicure,16,30,,,
53472,Newunique Nails,Nails Services,Pedicure,28,30,,,
53472,Newunique Nails,Nails Services,Overlay,25,30,,,
53472,Newunique Nails,Nails Services,Pink and white,45,30,,,
53472,Newunique Nails,Nails Services,Regular fill,20,30,,,
53472,Newunique Nails,Nails Services,Repair (per nail),5,15,,,
53472,Newunique Nails,Nails Services,Nail art,5,15,,,
53472,Newunique Nails,Waxing,Eyebrows,7,15,,,
53472,Newunique Nails,Waxing,Upperlip,5,15,,,
53472,Newunique Nails,Waxing,Chin,5,15,,,
53472,Newunique Nails,Waxing,Face ,20,15,,,
53472,Newunique Nails,Waxing,Full arm,25,30,,,
53472,Newunique Nails,Waxing,Full leg,45,30,,,
53472,Newunique Nails,Waxing,Underarm,10,15,,,
53472,Newunique Nails,Waxing,Back,30,30,,,
53472,Newunique Nails,Waxing,Bikini,15,15,,,
53472,Newunique Nails,Waxing,Eyebrows tint,15,15,,,
53472,Newunique Nails,Waxing,Eyelashes,12,15,,,
53472,Newunique Nails,Massage,Full body massage,55,60,,,
53472,Newunique Nails,Massage,Partial body massage,40,60,,,
53472,Newunique Nails,Facial,Basic facial,35,30,,,
53472,Newunique Nails,Facial,Japanese facial,55,60,,,
53472,Newunique Nails,Facial,European facial,45,45,,,
53472,Newunique Nails,Facial,Acne facial,40,30,,,
53471,BB Nails,Nails Services,Spa manicure,21,30,,,
53471,BB Nails,Nails Services,Deluxe manicure,31,30,,,
53471,BB Nails,Nails Services,Organic manicure,31,30,,,
53471,BB Nails,Nails Services,Spa pedicure,35,30,,,
53471,BB Nails,Nails Services,Deluxe pedicure,45,30,,,
53471,BB Nails,Nails Services,Organic pedicure,45,30,,,
53471,BB Nails,Nails Services,Shellac manicure,35,30,,,
53471,BB Nails,Nails Services,Shellac pedicure,55,45,,,
53471,BB Nails,Nails Services,Shellac removal,10,15,,,
53471,BB Nails,Nails Services,Polish change nails,8,15,,,
53471,BB Nails,Nails Services,Kid pedicure,25,30,,,
53471,BB Nails,Nails Services,Kid manicure,15,30,,,
53470,La Debonaire Hair and Spa,Hair cuts,Women haircut,34,30,,,
53470,La Debonaire Hair and Spa,Hair cuts,Men haircut,20,30,,,
53470,La Debonaire Hair and Spa,Hair cuts,Children haircut,10,30,,,
53470,La Debonaire Hair and Spa,Hair styling,Shampoo and style,25,30,,,
53470,La Debonaire Hair and Spa,Hair styling,Special occasion,30,30,,,
53470,La Debonaire Hair and Spa,Hair styling,Bridal,60,45,,,
53470,La Debonaire Hair and Spa,Colour Services,Colour application,50,60,,,
53470,La Debonaire Hair and Spa,Colour Services,INOA special colour,55,60,,,
53470,La Debonaire Hair and Spa,Colour Services,Men colour application,25,30,,,
53470,La Debonaire Hair and Spa,Colour Services,Partial foils,45,45,,,
53470,La Debonaire Hair and Spa,Colour Services,Full foils,80,60,,,
53470,La Debonaire Hair and Spa,Nail Services,Manicure,15,15,,,
53470,La Debonaire Hair and Spa,Nail Services,Spa manicure,26,30,,,
53470,La Debonaire Hair and Spa,Nail Services,Deluxe spa manicure,42,45,,,
53470,La Debonaire Hair and Spa,Nail Services,Pedicure,10,15,,,
53470,La Debonaire Hair and Spa,Nail Services,Spa pedicure,39,45,,,
53470,La Debonaire Hair and Spa,Nail Services,Deluxe spa pedicure,55,60,,,
53470,La Debonaire Hair and Spa,Nail Services,Gel nails,60,60,,,
53470,La Debonaire Hair and Spa,Nail Services,OPI gel manicure,42,75,,,
53470,La Debonaire Hair and Spa,Facial treatments,Express facial,42,45,,,
53470,La Debonaire Hair and Spa,Facial treatments,Spa facial,62,60,,,
53470,La Debonaire Hair and Spa,Facial treatments,Deluxe spa facial,82,75,,,
53470,La Debonaire Hair and Spa,Waxing,Eyebrow,10,15,,,
53470,La Debonaire Hair and Spa,Waxing,Lip,9,15,,,
53470,La Debonaire Hair and Spa,Waxing,Chin,10,15,,,
53470,La Debonaire Hair and Spa,Waxing,Face ,24,30,,,
53470,La Debonaire Hair and Spa,Waxing,Full arm,24,30,,,
53469,The Spa on Albert,Hands,Manicure,15,15,,,
53469,The Spa on Albert,Hands,Polish change,10,15,,,
53469,The Spa on Albert,Hands,Pedicure,48,60,,,
53469,The Spa on Albert,Hands,Men sports pedicure,45,45,,,
53469,The Spa on Albert,Hands,Express pedicure,33,30,,,
53469,The Spa on Albert,Face,Traditional facial,88,60,,,
53469,The Spa on Albert,Face,Deluxe facial,114,90,,,
53469,The Spa on Albert,Face,Lip treatment,15,15,,,
53469,The Spa on Albert,Body,Massage therapy,53,30,,,
53469,The Spa on Albert,Body,Hot stone massage,77,45,,,
53469,The Spa on Albert,Body,back treatment,65,45,,,
53469,The Spa on Albert,Body,Aromatherapy massage,65,60,,,
53469,The Spa on Albert,Lashes and beauty,Eyebrow tint,12,30,,,
53469,The Spa on Albert,Lashes and beauty,Eyelash tint,20,30,,,
53469,The Spa on Albert,Lashes and beauty,Eyebrow tint and wax,22,30,,,
53469,The Spa on Albert,Lashes and beauty,Makeup application,45,60,,,
53469,The Spa on Albert,Lashes and beauty,Bridal and wedding party,60,60,,,
53468,Avalon West Salon & Spa,Cut and style,Women cut and style,50,45,,,
53468,Avalon West Salon & Spa,Cut and style,Men cut and style,26,30,,,
53468,Avalon West Salon & Spa,Colour,Full head highlights,150,90,,,
53468,Avalon West Salon & Spa,Colour,Balayage,150,90,,,
53468,Avalon West Salon & Spa,Hair Treatments,Toner application,25,30,,,
53468,Avalon West Salon & Spa,Hair Treatments,Olaplex treatment,30,30,,,
53468,Avalon West Salon & Spa,Hair Treatments,Permanent waves,100,60,,,
53468,Avalon West Salon & Spa,Tinting,Brow tint,20,15,,,
53468,Avalon West Salon & Spa,Tinting,Lash tint,25,15,,,
53468,Avalon West Salon & Spa,Waxing,Brow shaping,16,15,,,
53468,Avalon West Salon & Spa,Waxing,Upperlip,14,15,,,
53468,Avalon West Salon & Spa,Waxing,Chin,15,15,,,
53468,Avalon West Salon & Spa,Waxing,Facial waxing,28,30,,,
53468,Avalon West Salon & Spa,Waxing,Full leg,52,30,,,
53468,Avalon West Salon & Spa,Waxing,Bikini,40,30,,,
53468,Avalon West Salon & Spa,Waxing,Chest,45,45,,,
53468,Avalon West Salon & Spa,Manicure,Essential manicure,37,45,,,
53468,Avalon West Salon & Spa,Manicure,Spa manicure,47,60,,,
53468,Avalon West Salon & Spa,Manicure,Shellac manicure,42,60,,,
53468,Avalon West Salon & Spa,Manicure,Gel nails balance,60,45,,,
53468,Avalon West Salon & Spa,Pedicure,Essential pedicure,47,60,,,
53468,Avalon West Salon & Spa,Pedicure,Spa pedicure,57,75,,,
53468,Avalon West Salon & Spa,Pedicure,Just for men pedicure,40,45,,,
53467,Salon 5010,Hair colour,Solid colour,50,60,,,
53467,Salon 5011,Hair colour,Cap highlights,52,45,,,
53467,Salon 5012,Hair colour,Colour correction,65,45,,,
53467,Salon 5013,Haircut and style,Women wash/cut/blowdry,27,30,,,
53467,Salon 5014,Haircut and style,Men wash/cut/blowdry,17,30,,,
53467,Salon 5015,Haircut and style,Up do with cut,65,45,,,
53467,Salon 5016,Haircut and style,Children haircut,12,30,,,
53467,Salon 5017,Makeup,Makeup application,35,30,,,
53467,Salon 5018,Makeup,Makeup and lesson,45,45,,,
53467,Salon 5019,Manicure,Polish change,12,15,,,
53467,Salon 5020,Manicure,Classic manicure,25,30,,,
53467,Salon 5021,Manicure,Spa manicure,45,45,,,
53467,Salon 5022,Pedicure,Spa pedicure,55,30,,,
53467,Salon 5023,Pedicure,Essential pedicure,45,45,,,
53467,Salon 5024,Pedicure,Express pedicure,35,30,,,
53467,Salon 5025,Pedicure,Gel polish removal,10,15,,,
53467,Salon 5026,Pedicure,Nail art,6,15,,,
53467,Salon 5027,Waxing,Eyebrows or lip,13,15,,,
53467,Salon 5028,Waxing,Arm,20,15,,,
53467,Salon 5029,Waxing,Full leg,45,45,,,
53467,Salon 5030,Waxing,Bikini,23,30,,,
53466,Janelles Spa & Boutique,Facials,Arctic berry peel,50,75,,,
53466,Janelles Spa & Boutique,Facials,Eminence collagen facial,85,60,,,
53466,Janelles Spa & Boutique,Facials,Eminence custom facial,100,60,,,
53466,Janelles Spa & Boutique,Facials,Microdermabrasion,85,60,,,
53466,Janelles Spa & Boutique,Manicure,Junior manicure,20,15,,,
53466,Janelles Spa & Boutique,Manicure,Gel manicure,45,45,,,
53466,Janelles Spa & Boutique,Manicure,Shellac removal,12,15,,,
53466,Janelles Spa & Boutique,Manicure,Polish application,15,15,,,
53466,Janelles Spa & Boutique,Pedicure,Junior pedicure,25,30,,,
53466,Janelles Spa & Boutique,Pedicure,Senior pedicure,35,30,,,
53466,Janelles Spa & Boutique,Pedicure,Men pedicure,45,45,,,
53466,Janelles Spa & Boutique,Pedicure,Paraffin wax,10,15,,,
53466,Janelles Spa & Boutique,Massage,Massage therapy,40,30,,,
53466,Janelles Spa & Boutique,Massage,Massage therapy,60,60,,,
53466,Janelles Spa & Boutique,Massage,Body glow,65,60,,,
53466,Janelles Spa & Boutique,Massage,Reflexology,55,60,,,
53464,Alexandra Salon and Day Spa,Facial,Signature facial,79,60,,,
53464,Alexandra Salon and Day Spa,Facial,Purifying facial,89,60,,,
53464,Alexandra Salon and Day Spa,Facial,Spa teen facial,59,60,,,
53464,Alexandra Salon and Day Spa,Facial,Firming masque,29,30,,,
53464,Alexandra Salon and Day Spa,Hands and Feet,Manicure,30,30,,,
53464,Alexandra Salon and Day Spa,Hands and Feet,French manicure,35,30,,,
53464,Alexandra Salon and Day Spa,Hands and Feet,Shellac manicure,10,15,,,
53464,Alexandra Salon and Day Spa,Hands and Feet,Pedicure,43,30,,,
53464,Alexandra Salon and Day Spa,Hands and Feet,French pedicure,50,45,,,
53464,Alexandra Salon and Day Spa,Hands and Feet,Gentlemen pedicure,43,30,,,
53464,Alexandra Salon and Day Spa,Waxing,Eyebrow/upperlip/chin,10,15,,,
53464,Alexandra Salon and Day Spa,Waxing,Underarm,15,15,,,
53464,Alexandra Salon and Day Spa,Waxing,Bikini line,20,30,,,
53464,Alexandra Salon and Day Spa,Waxing,Full leg,60,45,,,
53464,Alexandra Salon and Day Spa,Tinting,Brow tint,15,15,,,
53464,Alexandra Salon and Day Spa,Tinting,Lash tint,25,30,,,
53464,Alexandra Salon and Day Spa,Makeup,Makeup application,35,30,,,
53464,Alexandra Salon and Day Spa,Makeup,Bridal makeup,55,60,,,
53464,Alexandra Salon and Day Spa,Haircut,Women cut ,40,30,,,
53464,Alexandra Salon and Day Spa,Haircut,Men cut,25,30,,,
53464,Alexandra Salon and Day Spa,Haircut,Kids cut,15,30,,,
53464,Alexandra Salon and Day Spa,Colour,Root colour,55,60,,,
53464,Alexandra Salon and Day Spa,Colour,Full colour,75,60,,,
53464,Alexandra Salon and Day Spa,Styling,Straightening,25,30,,,
53464,Alexandra Salon and Day Spa,Styling,Up style,60,60,,,
53464,Alexandra Salon and Day Spa,Styling,Shampoo and style,30,30,,,
53464,Alexandra Salon and Day Spa,Styling,Beard trim,10,15,,,
53464,Alexandra Salon and Day Spa,Styling,Permanent waving,75,60,,,
53464,Alexandra Salon and Day Spa,Bridal,Upstyle,50,30,,,
53464,Alexandra Salon and Day Spa,Bridal,Shampoo and style,25,30,,,
53464,Alexandra Salon and Day Spa,Bridal,Trial makeup,35,30,,,
53464,Alexandra Salon and Day Spa,Massage,Massage therapy,30,45,,,
53464,Alexandra Salon and Day Spa,Massage,Massage therapy,45,60,,,
53464,Alexandra Salon and Day Spa,Massage,Hot stone massage,75,90,,,
