Sal_id,Monday,Tuesday,Wednesday,Thursday,Friday,Saturday,Sunday,Mobile Number,Salon_profile_Pic,Website,Facebook,Twitter,Instagram,Sal_zip,Sal_address
49763,09:00-18:00,09:00-18:00,09:00-18:00,09:00-18:00,09:00-18:00,09:00-18:00,00:00-00:00,,49763.png,http://www.deluxenailspa.co.uk/,,,,"IG6, 2AH","101 High St, Barkingside"
49754,09:00-18:00,09:00-18:00,09:00-18:00,09:00-18:00,09:00-18:00,09:00-18:00,00:00-00:00,7495317279,ChIJPyoRZCEedkgRf5uvc0VyP0w.jpg,https://www.libeksbc.com/,,,,"IG11, 8BB","Fortis House, Barking"
49665,09:30-20:30,10:00-16:00,10:00-20:30,09:30-20:30,00:00-00:00,08:30-16:30,00:00-00:00,7801102733,ChIJNyBPEK6m2EcRqnw_Up1C2zY.jpg,http://www.purebeauty.org.uk/,,,,"IG6, 2EF","18 Fairlop Rd, Aldborough Hatch"
49035,09:00-18:00,09:00-18:00,09:00-18:00,09:00-18:00,09:00-18:00,09:00-18:00,00:00-00:00,,49035.jpg,https://www.venusinspired.co.uk/,,,,"IG8, 0HL","15B The Broadway, Woodford"
