52629,Diva Nails & Beauty,Manicure and pedicure,Manicure,10,15,,,
52629,Diva Nails & Beauty,Manicure and pedicure,French manicure,13,15,,,
52629,Diva Nails & Beauty,Manicure and pedicure,Finger nail polish ,5,15,,,
52629,Diva Nails & Beauty,Manicure and pedicure,Pedicure,23,30,,,
52629,Diva Nails & Beauty,Manicure and pedicure,Toe nail polish,6,15,,,
52629,Diva Nails & Beauty,UV Gel,Full set ,30,30,,,
52629,Diva Nails & Beauty,Nail art,Diamond crystal design,3,15,,,
52629,Diva Nails & Beauty,Nail art,Hand design,5,15,,,
52629,Diva Nails & Beauty,Threading,Eyebrow tidy,4,15,,,
52629,Diva Nails & Beauty,Threading,Upper lip,3,15,,,
52629,Diva Nails & Beauty,Threading,Neck or chin,4,15,,,
52629,Diva Nails & Beauty,Threading,Sides of face,8,15,,,
52629,Diva Nails & Beauty,Threading,Full face,13,30,,,
52629,Diva Nails & Beauty,Waxing,Full leg,20,30,,,
52629,Diva Nails & Beauty,Waxing,Full arm,12,30,,,
52629,Diva Nails & Beauty,Waxing,Full body wax,45,30,,,
52629,Diva Nails & Beauty,Waxing,Brazilian,15,15,,,
52629,Diva Nails & Beauty,Eye treatments,Eyelash tint,12,15,,,
52629,Diva Nails & Beauty,Eye treatments,Eyebrow tint,6,15,,,
52629,Diva Nails & Beauty,Eye treatments,Eyelash extensions,15,15,,,
52629,Diva Nails & Beauty,Eye treatments,Brightening eye treatment,12,15,,,
52629,Diva Nails & Beauty,Acrylic nails extensions,Full set,20,30,,,
52629,Diva Nails & Beauty,Acrylic nails extensions,Refill,15,30,,,
52629,Diva Nails & Beauty,Acrylic nails extensions,Single nail,3,15,,,
52629,Diva Nails & Beauty,Acrylic nails extensions,Take off and polish,10,15,,,
52629,Diva Nails & Beauty,Acrylic nails extensions,Take off and manicure,15,15,,,
52629,Diva Nails & Beauty,Gel colour,CND Shellac,20,30,,,
52629,Diva Nails & Beauty,Gel colour,CND Shellac with manicure,25,30,,,
52629,Diva Nails & Beauty,Gel colour,CND Shellac with pedicure,35,45,,,
52629,Diva Nails & Beauty,Facial,Express facial,15,30,,,
52629,Diva Nails & Beauty,Facial,Luxury facial,30,60,,,
52629,Diva Nails & Beauty,Massage,Indian head massage,15,30,,,
52629,Diva Nails & Beauty,Massage,Back and neck massage,20,30,,,
52629,Diva Nails & Beauty,Massage,Swedish massage,35,60,,,
52358,Dream Nails & Beauty,Acrylic extensions,Full set,25,30,,,
52358,Dream Nails & Beauty,Acrylic extensions,Full set ombre,35,45,,,
52358,Dream Nails & Beauty,Acrylic extensions,One nail,3,15,,,
52358,Dream Nails & Beauty,Gel powder,Full set,30,30,,,
52358,Dream Nails & Beauty,Gel powder,One nail,3,15,,,
52358,Dream Nails & Beauty,Gel colour,Full set,25,30,,,
52358,Dream Nails & Beauty,Gel colour,One nail,3,15,,,
52358,Dream Nails & Beauty,Feet,Pedicure,25,45,,,
52358,Dream Nails & Beauty,Feet,French pedicure,28,45,,,
52358,Dream Nails & Beauty,Feet,Shape and varnish,13,30,,,
52358,Dream Nails & Beauty,Feet,Pedicure and manicure,37,45,,,
52358,Dream Nails & Beauty,Hands,Manicure,15,30,,,
52358,Dream Nails & Beauty,Hands,French manicure,18,30,,,
52358,Dream Nails & Beauty,Hands,Nail art,5,15,,,
52358,Dream Nails & Beauty,Hands,Soak off,10,15,,,
52358,Dream Nails & Beauty,Hands,Soak off and manicure,20,30,,,
52358,Dream Nails & Beauty,Waxing,Full leg ,20,30,,,
52358,Dream Nails & Beauty,Waxing,Full leg and bikini ,30,45,,,
52358,Dream Nails & Beauty,Waxing,Full leg and brazilian,40,60,,,
52358,Dream Nails & Beauty,Waxing,Brazilian,20,30,,,
52358,Dream Nails & Beauty,Waxing,Hollywood,25,45,,,
52358,Dream Nails & Beauty,Waxing,Full arm,15,30,,,
52358,Dream Nails & Beauty,Waxing,Lip ,5,15,,,
52358,Dream Nails & Beauty,Waxing,Chin,5,15,,,
52358,Dream Nails & Beauty,Threading,Eyebrow,5,15,,,
52358,Dream Nails & Beauty,Threading,Upperlip,5,15,,,
52358,Dream Nails & Beauty,Threading,Full face,25,30,,,
52358,Dream Nails & Beauty,Eyes,Eyelash tint,12,30,,,
52358,Dream Nails & Beauty,Eyes,Eyebrow tint,7,15,,,
52358,Dream Nails & Beauty,Eyes,Lashlift,30,30,,,
52358,Dream Nails & Beauty,Facials,Revitalizing facial,25,45,,,
52358,Dream Nails & Beauty,Facials,Men skincare treatment,35,60,,,
52358,Dream Nails & Beauty,Facials,Exclusive facial,55,90,,,
52052,The Nails UK,Services,Nail polish,5,15,,,
52052,The Nails UK,Services,Nail art,8,15,,,
52052,The Nails UK,Services,Nail extensions,15,15,,,
52052,The Nails UK,Services,Temperature colour change varnish,15,15,,,
52052,The Nails UK,Services,Pedicure,10,15,,,
52052,The Nails UK,Services,Spa pedicure,15,15,,,
52052,The Nails UK,Services,Manicure and pedicure,15,30,,,
52052,The Nails UK,Services,Eyebrow tint,4,15,,,
52052,The Nails UK,Services,Eyebrow sharp,4,15,,,
52052,The Nails UK,Services,Full set,10,15,,,
51952,SA NAIL BAR,Services,Nail polish,5,15,,,
51952,SA NAIL BAR,Services,Nail art,8,15,,,
51952,SA NAIL BAR,Services,Nail extensions,15,15,,,
51952,SA NAIL BAR,Services,Temperature colour change varnish,15,15,,,
51952,SA NAIL BAR,Services,Pedicure,10,15,,,
51952,SA NAIL BAR,Services,Spa pedicure,15,15,,,
51952,SA NAIL BAR,Services,Manicure and pedicure,15,30,,,
51952,SA NAIL BAR,Services,Eyebrow tint,4,15,,,
51952,SA NAIL BAR,Services,Eyebrow sharp,4,15,,,
51952,SA NAIL BAR,Services,Full set,10,15,,,
51942,Tippi Nails,Services,Nail polish,5,15,,,
51942,Tippi Nails,Services,Nail art,8,15,,,
51942,Tippi Nails,Services,Nail extensions,15,15,,,
51942,Tippi Nails,Services,Temperature colour change varnish,15,15,,,
51942,Tippi Nails,Services,Pedicure,10,15,,,
51942,Tippi Nails,Services,Spa pedicure,15,15,,,
51942,Tippi Nails,Services,Manicure and pedicure,15,30,,,
51942,Tippi Nails,Services,Eyebrow tint,4,15,,,
51942,Tippi Nails,Services,Eyebrow sharp,4,15,,,
51942,Tippi Nails,Services,Full set,10,15,,,
51941,Fashion Nails,Acrylic extensions,Full set,20,30,,,
51941,Fashion Nails,Acrylic extensions,Infill,15,30,,,
51941,Fashion Nails,Gel extensions,Full set,25,30,,,
51941,Fashion Nails,Gel extensions,Infill,18,30,,,
51941,Fashion Nails,Toes nail extensions,Full set,26,45,,,
51941,Fashion Nails,Toes nail extensions,Infill,18,30,,,
51941,Fashion Nails,Toes nail extensions,Big toe,5,15,,,
51941,Fashion Nails,Pink and white extensions,Full set,35,45,,,
51941,Fashion Nails,Pink and white extensions,Infill,25,30,,,
51941,Fashion Nails,Ombre nail,Full set,35,45,,,
51941,Fashion Nails,Ombre nail,Infill,28,30,,,
51941,Fashion Nails,Shellac manicure,Sallac manicure colour,20,30,,,
51941,Fashion Nails,Shellac manicure,Shellac manicure white tip,23,45,,,
51941,Fashion Nails,Shellac manicure,Manicure,10,15,,,
51941,Fashion Nails,Shellac manicure,Luxury manicure,15,30,,,
51941,Fashion Nails,Shellac manicure,Pedicure,20,30,,,
51941,Fashion Nails,Shellac manicure,Luxury pedicure,25,45,,,
51941,Fashion Nails,Shellac manicure,Luxury manicure and pedicure,38,60,,,
49763,Deluxe Nail Spa,Acrylic extensions,Full set,26,30,,,
49763,Deluxe Nail Spa,Acrylic extensions,Overlay,20,30,,,
49763,Deluxe Nail Spa,Acrylic extensions,Infill,16,30,,,
49763,Deluxe Nail Spa,Acrylic extensions,Toe nails full set,28,45,,,
49763,Deluxe Nail Spa,Gel extensions,Full set,30,30,,,
49763,Deluxe Nail Spa,Gel extensions,Overlay,25,30,,,
49763,Deluxe Nail Spa,Gel extensions,Infill,18,30,,,
49763,Deluxe Nail Spa,Pink and white extensions,Full set,35,30,,,
49763,Deluxe Nail Spa,Pink and white extensions,Infll,23,30,,,
49763,Deluxe Nail Spa,Glitter extensions,Full set,32,30,,,
49763,Deluxe Nail Spa,Glitter extensions,Infill,24,30,,,
49763,Deluxe Nail Spa,Shellac,Colour,15,30,,,
49763,Deluxe Nail Spa,Shellac,Shellac manicure and pedicure,50,75,,,
49763,Deluxe Nail Spa,Manicure and pedicure,Manicure and polish,10,15,,,
49763,Deluxe Nail Spa,Manicure and pedicure,French manicure,13,30,,,
49763,Deluxe Nail Spa,Manicure and pedicure,Deluxe manicure,16,30,,,
49763,Deluxe Nail Spa,Manicure and pedicure,Pedicure and polish,25,30,,,
49763,Deluxe Nail Spa,Manicure and pedicure,French pedicure,28,45,,,
49763,Deluxe Nail Spa,Manicure and pedicure,Deluxe spapedicure,30,45,,,
49763,Deluxe Nail Spa,Nail art,Nail art,3,15,,,
49763,Deluxe Nail Spa,Nail art,3d nail art,2,15,,,
49760,Natural Beauty Hair Salon,Natural hair,Wash and blowdry,15,30,,,
49760,Natural Beauty Hair Salon,Natural hair,Trim,15,30,,,
49760,Natural Beauty Hair Salon,Natural hair,Cornrows,35,45,,,
49760,Natural Beauty Hair Salon,Natural hair,Gents cornrows,30,45,,,
49760,Natural Beauty Hair Salon,Natural hair,Wash and set,30,45,,,
49760,Natural Beauty Hair Salon,Natural hair,Treatment and set,45,45,,,
49760,Natural Beauty Hair Salon,Natural hair,Twist,35,45,,,
49760,Natural Beauty Hair Salon,Extensions,Chunky ghana,45,75,,,
49760,Natural Beauty Hair Salon,Extensions,Ghana braids,55,90,,,
49760,Natural Beauty Hair Salon,Extensions,Kinky twist,95,90,,,
49760,Natural Beauty Hair Salon,Extensions,Crochet,100,90,,,
49760,Natural Beauty Hair Salon,Extensions,Braid removal,20,45,,,
49760,Natural Beauty Hair Salon,Colour,Full head,50,75,,,
49760,Natural Beauty Hair Salon,Colour,Regrowth,40,60,,,
49760,Natural Beauty Hair Salon,Colour,Highlights,45,60,,,
49760,Natural Beauty Hair Salon,Colour,Bleach ,40,60,,,
49760,Natural Beauty Hair Salon,Colour,Colour correction,100,90,,,
49760,Natural Beauty Hair Salon,Locks,Wash and interlock,55,75,,,
49760,Natural Beauty Hair Salon,Locks,Basic style,100,90,,,
49760,Natural Beauty Hair Salon,Locks,Start locks,70,75,,,
49760,Natural Beauty Hair Salon,Locks,Treatments,25,30,,,
49760,Natural Beauty Hair Salon,All weaves cut and style,Full head,80,90,,,
49760,Natural Beauty Hair Salon,All weaves cut and style,Wig cap,80,90,,,
49760,Natural Beauty Hair Salon,All weaves cut and style,Starighten or curl,15,30,,,
49760,Natural Beauty Hair Salon,All weaves cut and style,Weave removal,15,30,,,
49760,Natural Beauty Hair Salon,Relaxed hair,Olive oil,50,60,,,
49760,Natural Beauty Hair Salon,Relaxed hair,Mizani,80,90,,,
49760,Natural Beauty Hair Salon,Relaxed hair,Virgin relaxer,70,60,,,
49760,Natural Beauty Hair Salon,Relaxed hair,Trim,12,30,,,
49760,Natural Beauty Hair Salon,Relaxed hair,Restyle,15,30,,,
49760,Natural Beauty Hair Salon,Children,Wash,10,15,,,
49760,Natural Beauty Hair Salon,Children,Trim,7,15,,,
49760,Natural Beauty Hair Salon,Children,Cornrows,25,45,,,
49760,Natural Beauty Hair Salon,Teenager,Cornrows extensions,40,60,,,
49760,Natural Beauty Hair Salon,Teenager,Fish bone,57,75,,,
49760,Natural Beauty Hair Salon,Teenager,Treatments,25,45,,,
49760,Natural Beauty Hair Salon,Bridal rehearsal,Bridal hair,95,120,,,
49760,Natural Beauty Hair Salon,Bridal rehearsal,Bridal makeup,70,120,,,
49760,Natural Beauty Hair Salon,Make over,Day makeup,25,60,,,
49760,Natural Beauty Hair Salon,Make over,Special occasion,40,60,,,
49760,Natural Beauty Hair Salon,Threading,Eyebrow threading,3,15,,,
49760,Natural Beauty Hair Salon,Threading,Eyelash tint,8,15,,,
49760,Natural Beauty Hair Salon,Threading,Eyebrow tint,6,15,,,
49760,Natural Beauty Hair Salon,Threading,Eyelash perming,23,30,,,
49760,Natural Beauty Hair Salon,Waxing,Face wax,16,30,,,
49760,Natural Beauty Hair Salon,Waxing,Eyebrow wax,5,15,,,
49760,Natural Beauty Hair Salon,Waxing,Lip ,4,15,,,
49760,Natural Beauty Hair Salon,Waxing,Half leg,12,30,,,
49760,Natural Beauty Hair Salon,Waxing,Full leg,18,45,,,
49760,Natural Beauty Hair Salon,Waxing,Full arm,13,30,,,
49760,Natural Beauty Hair Salon,Waxing,Chest,15,45,,,
49760,Natural Beauty Hair Salon,Waxing,Back wax,20,45,,,
49760,Natural Beauty Hair Salon,Facial,Deep cleansing,30,60,,,
49760,Natural Beauty Hair Salon,Facial,Mini facial,18,45,,,
49760,Natural Beauty Hair Salon,Massage,Face neck and shoulder,26,45,,,
49760,Natural Beauty Hair Salon,Massage,Full body ,39,60,,,
49759,Rich hair salon,Services,Ladies shampoo cut and finish,20,45,,,
49759,Rich hair salon,Services,Shampoo and curly finish,20,45,,,
49759,Rich hair salon,Services,Teens 11-16,15,30,,,
49759,Rich hair salon,Services,Girls 10 and under,9.5,30,,,
49759,Rich hair salon,Services,Boys 10 and under,8,15,,,
49759,Rich hair salon,Cut ,Cutting and styling,15,30,,,
49759,Rich hair salon,Colour,T-section highlights,25,45,,,
49759,Rich hair salon,Colour,Full head colour,45,60,,,
49759,Rich hair salon,Colour,Root colour,25,45,,,
49759,Rich hair salon,Colour,Toner and shine,10,15,,,
49759,Rich hair salon,OAP,Shampoo cut,13,30,,,
49759,Rich hair salon,OAP,Root colour,20,45,,,
49759,Rich hair salon,OAP,Full head colour,35,45,,,
49759,Rich hair salon,Waxing,Eyebrow ,5,15,,,
49759,Rich hair salon,Waxing,Upperlip,3,15,,,
49759,Rich hair salon,Waxing,Chin,3,15,,,
49759,Rich hair salon,Waxing,Sides of face,8,15,,,
49759,Rich hair salon,Eye treatments,Eyebrow tint,7,15,,,
49759,Rich hair salon,Eye treatments,Eyelash tint,15,15,,,
49759,Rich hair salon,Eye treatments,Cluster lashes,15,30,,,
49757,LaParlour London,Hair and makeup,Natural,75,90,,,
49757,LaParlour London,Hair and makeup,Party hair and makeup,85,90,,,
49757,LaParlour London,Hair and makeup,Makeup only,50,60,,,
49757,LaParlour London,Hair and makeup,Hair only,50,60,,,
49757,LaParlour London,Hair and makeup,Bridal,650,180,,,
49757,LaParlour London,Hair and makeup,Guest henna,60,60,,,
49757,LaParlour London,Hair and makeup,Bridal hanna,80,90,,,
49757,LaParlour London,Highlights-Colour,T-section,35,45,,,
49757,LaParlour London,Highlights-Colour,Root ,30,30,,,
49757,LaParlour London,Highlights-Colour,Half head,30,45,,,
49757,LaParlour London,Highlights-Colour,Full head,45,45,,,
49757,LaParlour London,Highlights-Colour,Tint,45,45,,,
49757,LaParlour London,Hair style,Hair up,45,45,,,
49757,LaParlour London,Hair style,Shampoo and set,20,30,,,
49757,LaParlour London,Hair style,Treatments,25,30,,,
49757,LaParlour London,Hair style,Curling hair,25,30,,,
49757,LaParlour London,Hair cut,Dry cut,10,15,,,
49757,LaParlour London,Hair cut,Wash cut and blowdry,25,45,,,
49757,LaParlour London,Hair cut,Wash and blowdry,18,30,,,
49757,LaParlour London,Hair cut,Wash and rough dry,5,15,,,
49757,LaParlour London,Body treatments,Full body scrub,45,60,,,
49757,LaParlour London,Body treatments,Body firm,45,60,,,
49757,LaParlour London,Bleach,Full face,10,15,,,
49757,LaParlour London,Bleach,Full face and neck,12,15,,,
49757,LaParlour London,Bleach,Back,12,30,,,
49757,LaParlour London,Eye treatments,Eyebrow tint,5,15,,,
49757,LaParlour London,Eye treatments,Eyelash tint,8,15,,,
49757,LaParlour London,Eye treatments,Eyelash perming,22,30,,,
49757,LaParlour London,Threading,Eyebrows,3,15,,,
49757,LaParlour London,Threading,Upperlip,2,15,,,
49757,LaParlour London,Threading,Forehead,2,15,,,
49757,LaParlour London,Threading,Chin,2,15,,,
49757,LaParlour London,Threading,Full face,12,30,,,
49757,LaParlour London,Threading,Neck,3,15,,,
49757,LaParlour London,Waxing,Full arm,12,30,,,
49757,LaParlour London,Waxing,Full leg,18,30,,,
49757,LaParlour London,Waxing,Bikini line,7,15,,,
49757,LaParlour London,Waxing,Brazilian,20,30,,,
49757,LaParlour London,Waxing,Bollywood,25,45,,,
49757,LaParlour London,Waxing,Hollywood,30,30,,,
49757,LaParlour London,Waxing,Full body,30,45,,,
49757,LaParlour London,Massage,Aromatherapy,25,30,,,
49757,LaParlour London,Massage,Aromatherapy full body,30,45,,,
49757,LaParlour London,Massage,Indian head massage,20,30,,,
49757,LaParlour London,Facials,Facial for guys,35,45,,,
49757,LaParlour London,Facials,Hydrating facial,35,45,,,
49757,LaParlour London,Facials,Youth extend,45,60,,,
49757,LaParlour London,Facials,Derma rollers,30,45,,,
49757,LaParlour London,Piercings,Ear,12,15,,,
49757,LaParlour London,Piercings,Nose,10,15,,,
49757,LaParlour London,Manicure,Express manicure,20,30,,,
49757,LaParlour London,Manicure,Express pediure,25,45,,,
49757,LaParlour London,Manicure,Luxury manicure,25,30,,,
49757,LaParlour London,Manicure,Luxury pedicure,45,60,,,
49757,LaParlour London,Manicure,Luxury mani and pedi,65,75,,,
49757,LaParlour London,Shellac,Shellac hands,20,30,,,
49757,LaParlour London,Shellac,Shellac feet,20,30,,,
49757,LaParlour London,Shellac,Shellac hands and feet,45,60,,,
49757,LaParlour London,Shellac,Manicure plus shellac,30,30,,,
49757,LaParlour London,Shellac,Pedicure plus shellac,30,45,,,
49757,LaParlour London,Acrylics,Full set,25,30,,,
49757,LaParlour London,Acrylics,Inflill,15,30,,,
49757,LaParlour London,Acrylics,Take off,15,15,,,
49757,LaParlour London,Acrylics,Acrylic and shellac,35,45,,,
49756,SixtySix Hair Salon,Styling,Ladies cut and blowdry,39,60,,,
49756,SixtySix Hair Salon,Styling,Mens cut,20,30,,,
49756,SixtySix Hair Salon,Styling,Hair up,30,30,,,
49756,SixtySix Hair Salon,Colour,Tint regrowth,30,30,,,
49756,SixtySix Hair Salon,Colour,Full head tint,50,60,,,
49756,SixtySix Hair Salon,Colour,Mens,25,30,,,
49756,SixtySix Hair Salon,Highights,Full head,80,60,,,
49756,SixtySix Hair Salon,Highights,Half head,60,60,,,
49756,SixtySix Hair Salon,Highights,Balayage,65,90,,,
49756,SixtySix Hair Salon,Highights,Brazilian blowdry,100,90,,,
49755,Mays Studio,Hair styling,Long hair ,39,60,,,
49755,Mays Studio,Hair styling,Curl blowdry,30,45,,,
49755,Mays Studio,Hair styling,Roots,30,30,,,
49755,Mays Studio,Hair styling,Ombre,65,60,,,
49755,Mays Studio,Hair styling,Balayage,70,75,,,
49755,Mays Studio,Hair styling,Full head highlights,75,75,,,
49755,Mays Studio,Hair styling,Half head highlights,50,60,,,
49755,Mays Studio,Hair treatments,Olaplex,35,45,,,
49755,Mays Studio,Hair treatments,Brazilian blowdry,75,90,,,
49755,Mays Studio,Gents,Cut and finish,15,30,,,
49755,Mays Studio,Gents,Cut and wash,18,30,,,
49755,Mays Studio,Gents,Shape up,5,15,,,
49755,Mays Studio,Gents,Child haircut,10,15,,,
49755,Mays Studio,Facial ,Mini facial,35,45,,,
49755,Mays Studio,Facial ,Anti aging,50,60,,,
49755,Mays Studio,Facial ,Deep cleansing,50,60,,,
49755,Mays Studio,Facial ,Galvanic,50,60,,,
49755,Mays Studio,Facial ,Ultrasound,50,60,,,
49755,Mays Studio,Lashes,Classic natural,50,60,,,
49755,Mays Studio,Makeup,Day makeup,30,30,,,
49755,Mays Studio,Makeup,Evening makeup,50,60,,,
49755,Mays Studio,Makeup,Bridal makeup,70,60,,,
49755,Mays Studio,Waxing,Full legs,25,30,,,
49755,Mays Studio,Waxing,Bikini line,10,15,,,
49755,Mays Studio,Waxing,Hollywood,30,30,,,
49755,Mays Studio,Waxing,Full arm,18,30,,,
49755,Mays Studio,Waxing,Face,15,15,,,
49754,Libeks Beauty Consultants Ltd,Hair ,Wash cut and style,30,45,,,
49754,Libeks Beauty Consultants Ltd,Hair ,Brazilian knots,30,45,,,
49754,Libeks Beauty Consultants Ltd,Hair ,Colour spas,30,45,,,
49754,Libeks Beauty Consultants Ltd,Hair ,Cut and style,25,45,,,
49754,Libeks Beauty Consultants Ltd,Hair ,Brush blowdry,15,30,,,
49754,Libeks Beauty Consultants Ltd,Hair ,Braids,20,20,,,
49754,Libeks Beauty Consultants Ltd,Hair ,Gel twist,25,30,,,
49754,Libeks Beauty Consultants Ltd,Makeup,Bridal makeup,60,75,,,
49754,Libeks Beauty Consultants Ltd,Makeup,Proms,55,60,,,
49754,Libeks Beauty Consultants Ltd,Makeup,Eyelash extensions,20,30,,,
49751,Basic Beauty,Ladies waxing,Full leg,30,30,,,
49751,Basic Beauty,Ladies waxing,Full arm,20,30,,,
49751,Basic Beauty,Ladies waxing,Stomach,10,15,,,
49751,Basic Beauty,Ladies waxing,Back,15,15,,,
49751,Basic Beauty,Bikini,Standard bikini,12,30,,,
49751,Basic Beauty,Bikini,Extended bikini,18,30,,,
49751,Basic Beauty,Men waxing,Back,20,30,,,
49751,Basic Beauty,Men waxing,Shoulder,5,15,,,
49751,Basic Beauty,Men waxing,Full arm,25,30,,,
49751,Basic Beauty,Men waxing,Half arm,18,30,,,
49751,Basic Beauty,Men waxing,Full leg,35,30,,,
49751,Basic Beauty,Men waxing,Underarm,12,30,,,
49751,Basic Beauty,Hands,Shape and polish,10,15,,,
49751,Basic Beauty,Hands,Manicure,19,30,,,
49751,Basic Beauty,Hands,Shellac manicure,30,30,,,
49751,Basic Beauty,Feet,Shape and polish,15,15,,,
49751,Basic Beauty,Feet,Pedicure,28,30,,,
49751,Basic Beauty,Feet,Shellac pedicure,35,30,,,
49751,Basic Beauty,Tinting,Eyebrow,8,15,,,
49751,Basic Beauty,Tinting,Eyelash,10,15,,,
49751,Basic Beauty,Tinting,Eyelash tint,22,30,,,
49751,Basic Beauty,Facial,Mini facial,25,30,,,
49751,Basic Beauty,Facial,Calming facial,39,45,,,
49751,Basic Beauty,Facial,Anti aging,45,60,,,
49751,Basic Beauty,Massage,Swedish,25,30,,,
49751,Basic Beauty,Massage,Indian head massage,25,30,,,
49751,Basic Beauty,Sunbed,Sunbed (Stand up),33,60,,,
49748,laser of beauty,Hair removal,Lips ,30,30,,,
49748,laser of beauty,Hair removal,Chin,30,30,,,
49748,laser of beauty,Hair removal,Full face,80,60,,,
49748,laser of beauty,Hair removal,Full bikini,100,60,,,
49748,laser of beauty,Hair removal,Full leg,180,120,,,
49748,laser of beauty,Hair removal,Chest,120,90,,,
49748,laser of beauty,Hair removal,Full body,400,180,,,
49748,laser of beauty,Facial treated veins,Thread veins,120,90,,,
49748,laser of beauty,Facial treated veins,Nose,120,90,,,
49747,U turn beauty salon,Women hairstyling,Perms,30,45,,,
49747,U turn beauty salon,Women hairstyling,Color,40,45,,,
49747,U turn beauty salon,Women hairstyling,Special occasion,50,60,,,
49747,U turn beauty salon,Women hairstyling,Blowdry,30,45,,,
49747,U turn beauty salon,Women hairstyling,Haircut,25,45,,,
49747,U turn beauty salon,Women hairstyling,Hair style,30,45,,,
49747,U turn beauty salon,Men hairdressing,Beard style,20,30,,,
49747,U turn beauty salon,Men hairdressing,Colour ,30,30,,,
49747,U turn beauty salon,Men hairdressing,Hair cut,30,45,,,
49747,U turn beauty salon,Men hairdressing,Hair style,35,45,,,
49747,U turn beauty salon,Men hairdressing,Straightening,25,45,,,
49747,U turn beauty salon,Men hairdressing,Eyebrow waxing,15,30,,,
49747,U turn beauty salon,Men hairdressing,Eyebrow tint,20,30,,,
49747,U turn beauty salon,Men hairdressing,Wedding,50,45,,,
49745,Beauty By Emma,Waxing,Full leg,20,30,,,
49745,Beauty By Emma,Waxing,Full leg and bikini line,25,45,,,
49745,Beauty By Emma,Waxing,Underarm,6,15,,,
49745,Beauty By Emma,Waxing,Full arm,16,30,,,
49745,Beauty By Emma,Waxing,Back,20,30,,,
49745,Beauty By Emma,Waxing,Chest,20,30,,,
49745,Beauty By Emma,Waxing,Stomach,10,30,,,
49745,Beauty By Emma,Threading,Eyebrow,5,15,,,
49745,Beauty By Emma,Threading,Sides of face,7,15,,,
49745,Beauty By Emma,Massages,Full body,38,60,,,
49745,Beauty By Emma,Massages,Legs only,25,30,,,
49745,Beauty By Emma,Massages,Feet only,25,30,,,
49745,Beauty By Emma,Massages,Back neck and shoulder,25,30,,,
49745,Beauty By Emma,Massages,Pregnancy massage,38,60,,,
49745,Beauty By Emma,Massages,Indian head massage,25,30,,,
49745,Beauty By Emma,Massages,Colonic massage,25,30,,,
49745,Beauty By Emma,Manicure and pedicure,Spa pedicure,38,45,,,
49745,Beauty By Emma,Manicure and pedicure,Gelish pedicure,25,30,,,
49745,Beauty By Emma,Manicure and pedicure,Minx toes,25,30,,,
49745,Beauty By Emma,Manicure and pedicure,Crystal pedicure,60,60,,,
49745,Beauty By Emma,Manicure and pedicure,Crystal spa pedicure,70,60,,,
49745,Beauty By Emma,Manicure and pedicure,Luxury manicure,33,45,,,
49745,Beauty By Emma,Manicure and pedicure,Luxury pedicure,36,45,,,
49745,Beauty By Emma,Manicure and pedicure,Callus peel,20,30,,,
49745,Beauty By Emma,Manicure and pedicure,Rockstar toes,25,30,,,
49745,Beauty By Emma,Facial,Express facial,25,30,,,
49745,Beauty By Emma,Facial,Hydrating mud facial,35,60,,,
49745,Beauty By Emma,Facial,Deep cleansing mud facial,35,60,,,
49745,Beauty By Emma,Facial,Anti aging,45,75,,,
49741,Bare Beautiful,Manicure and pedicure,Manicure,15,30,,,
49741,Bare Beautiful,Manicure and pedicure,Luxury manicure,20,30,,,
49741,Bare Beautiful,Manicure and pedicure,Pedicure,22,30,,,
49741,Bare Beautiful,Manicure and pedicure,Luxury pedicure,27,30,,,
49741,Bare Beautiful,Manicure and pedicure,Nail extensions,35,45,,,
49741,Bare Beautiful,Waxing,Eyebrows,5,15,,,
49741,Bare Beautiful,Waxing,Chin,5,15,,,
49741,Bare Beautiful,Waxing,Full legs,22,30,,,
49741,Bare Beautiful,Waxing,Half leg,12,30,,,
49741,Bare Beautiful,Waxing,Brazilian,15,30,,,
49741,Bare Beautiful,Waxing,Full arms,22,30,,,
49741,Bare Beautiful,Facials,Teen facial,20,30,,,
49741,Bare Beautiful,Facials,Luxury facial,25,30,,,
49741,Bare Beautiful,Facials,Vitamin c,40,45,,,
49741,Bare Beautiful,Eye treatments,Eyelash tint,10,30,,,
49741,Bare Beautiful,Eye treatments,Eyebrow tint,5,15,,,
49741,Bare Beautiful,Eye treatments,Cluster lash,15,15,,,
49741,Bare Beautiful,Massage,Full body,50,60,,,
49741,Bare Beautiful,Massage,Back neck and shoulder,25,45,,,
49741,Bare Beautiful,Massage,Back cleanse,35,45,,,
49741,Bare Beautiful,Makeup,Full face,35,30,,,
49741,Bare Beautiful,Makeup,Eye makeup,25,45,,,
49738,Glitz & Glamour,Style,Dry cut,17,30,,,
49738,Glitz & Glamour,Style,Dry cut,19,30,,,
49738,Glitz & Glamour,Style,Blowdry,19,30,,,
49738,Glitz & Glamour,Style,Re style,40,30,,,
49738,Glitz & Glamour,Style,Shampoo and set,23.5,45,,,
49738,Glitz & Glamour,Perms,Full head includes cut,69,60,,,
49738,Glitz & Glamour,Perms,Half head includes cut,53,60,,,
49738,Glitz & Glamour,Colour,Full head tint,42,60,,,
49738,Glitz & Glamour,Colour,Semi permanent,36,45,,,
49738,Glitz & Glamour,Colour,Toner,23,30,,,
49738,Glitz & Glamour,Hi-Low lights,Full head,68,60,,,
49738,Glitz & Glamour,Hi-Low lights,Half head,55,60,,,
49738,Glitz & Glamour,Hi-Low lights,T-section,47,60,,,
49738,Glitz & Glamour,Straightening,Relaxed curl,150,90,,,
49738,Glitz & Glamour,Straightening,Permanent hot smoothing,210,120,,,
49738,Glitz & Glamour,12-16 years,Dry cut,15,30,,,
49738,Glitz & Glamour,12-16 years,Wash and cut,17,30,,,
49738,Glitz & Glamour,OAP,Wash and cut,16,30,,,
49738,Glitz & Glamour,OAP,Blowdry,16,30,,,
49738,Glitz & Glamour,OAP,Tint roots,26,30,,,
49738,Glitz & Glamour,OAP,Cut and blowdry,24,30,,,
49738,Glitz & Glamour,OAP,Full head tint,30,45,,,
49737,Lashious Beauty,Threading,Eyebrow,6,15,,,
49737,Lashious Beauty,Threading,Eyebrow shaping,5,15,,,
49737,Lashious Beauty,Threading,Upperlip,5,15,,,
49737,Lashious Beauty,Threading,Chin,3,15,,,
49737,Lashious Beauty,Threading,Neck,7,15,,,
49737,Lashious Beauty,Threading,Forehead,6,15,,,
49737,Lashious Beauty,Threading,Sides of face,10,15,,,
49737,Lashious Beauty,Waxing,Upperlip,3,15,,,
49737,Lashious Beauty,Waxing,Chin,4,15,,,
49737,Lashious Beauty,Waxing,Full arm,14,30,,,
49737,Lashious Beauty,Waxing,Underarm,10,15,,,
49737,Lashious Beauty,Waxing,Full leg,18,30,,,
49737,Lashious Beauty,Waxing,Full leg and bikini line,22,45,,,
49737,Lashious Beauty,Waxing,Brazilian,20,30,,,
49737,Lashious Beauty,Waxing,Hollywood,25,30,,,
49737,Lashious Beauty,Waxing,Chin and neck,6,15,,,
49737,Lashious Beauty,Waxing,Forehead,6,15,,,
49737,Lashious Beauty,Waxing,Full face,17,30,,,
49737,Lashious Beauty,Tinting,Eyebrows,10,15,,,
49737,Lashious Beauty,Tinting,Lashes,12,30,,,
49737,Lashious Beauty,Eyelash extensions,Strip lashes,12,30,,,
49737,Lashious Beauty,Eyelash extensions,Cluster lashes,18,30,,,
49737,Lashious Beauty,Nails,File and polish,8,15,,,
49737,Lashious Beauty,Nails,Shellac paint,20,30,,,
49737,Lashious Beauty,Nails,Shellac removal,5,15,,,
49737,Lashious Beauty,Nails,Mini manicure,18,30,,,
49737,Lashious Beauty,Nails,Full manicure,25,45,,,
49737,Lashious Beauty,Nails,Pedicure,23,30,,,
49737,Lashious Beauty,Nails,Gelish pedicure,32,30,,,
49737,Lashious Beauty,Massage,Full body,38,60,,,
49737,Lashious Beauty,Massage,Back neck and shoulder,20,30,,,
49737,Lashious Beauty,Massage,Indian head massage,10,30,,,
49665,Pure Beauty,Facial,Hydra facial,55,75,,,
49665,Pure Beauty,Facial,Energizing facial,65,75,,,
49665,Pure Beauty,Facial,Micro current lifting facial,50,75,,,
49665,Pure Beauty,Facial,Bespoke facial,75,90,,,
49665,Pure Beauty,Facial,Deep cleansing,45,60,,,
49665,Pure Beauty,Facial,Crystal clear,50,45,,,
49665,Pure Beauty,Eye treatments,Eyebrow shape,7,15,,,
49665,Pure Beauty,Eye treatments,Eyelash tint,12,30,,,
49665,Pure Beauty,Eye treatments,Brow tint,10,15,,,
49665,Pure Beauty,Eye treatments,Lash infills,30,30,,,
49665,Pure Beauty,Waxing,Full leg,23,30,,,
49665,Pure Beauty,Waxing,Forearm,15,30,,,
49665,Pure Beauty,Waxing,Underarm,10,15,,,
49665,Pure Beauty,Waxing,Brow shape,7,15,,,
49665,Pure Beauty,Waxing,Chin,6.5,15,,,
49665,Pure Beauty,Waxing,Bikini line,11,15,,,
49665,Pure Beauty,Waxing,Hollywood,26,30,,,
49665,Pure Beauty,Waxing,Brazilian,21.5,30,,,
49665,Pure Beauty,Massage,Full body,43,60,0,0,0
49665,Pure Beauty,Massage,Back massage,32,30,,,
49665,Pure Beauty,Hands and feet,Manicure,16,30,,,
49665,Pure Beauty,Hands and feet,French manicure,18,30,,,
49665,Pure Beauty,Hands and feet,Pedicure,27,45,,,
49665,Pure Beauty,Hands and feet,French pedicure,32,30,,,
49661,Lumiere Hair & Beauty Salon Barkingside,Services,Nail polish,5,15,,,
49661,Lumiere Hair & Beauty Salon Barkingside,Services,Nail art,8,15,,,
49661,Lumiere Hair & Beauty Salon Barkingside,Services,Nail extensions,15,15,,,
49661,Lumiere Hair & Beauty Salon Barkingside,Services,Temperature colour change varnish,15,15,,,
49661,Lumiere Hair & Beauty Salon Barkingside,Services,Pedicure,10,15,,,
49661,Lumiere Hair & Beauty Salon Barkingside,Services,Spa pedicure,15,15,,,
49661,Lumiere Hair & Beauty Salon Barkingside,Services,Manicure and pedicure,15,30,,,
49661,Lumiere Hair & Beauty Salon Barkingside,Services,Eyebrow tint,4,15,,,
49661,Lumiere Hair & Beauty Salon Barkingside,Services,Eyebrow sharp,4,15,,,
49661,Lumiere Hair & Beauty Salon Barkingside,Services,Full set,10,15,,,
49039,MAKASkincare - Microblading Clinic,Facial treatments,Oxygen mirco bubble aqua peel,90,120,,,
49039,MAKASkincare - Microblading Clinic,Facial treatments,Anti aging,120,120,,,
49039,MAKASkincare - Microblading Clinic,Facial treatments,Chemical peel,120,120,,,
49039,MAKASkincare - Microblading Clinic,Eyelash extensions,Eyelash removal,35,45,,,
49039,MAKASkincare - Microblading Clinic,Eyelash extensions,Eyelash infill,79,60,,,
49039,MAKASkincare - Microblading Clinic,Eyelash extensions,Russian lashes,199,120,,,
49039,MAKASkincare - Microblading Clinic,Eyelash extensions,Men lash extensions,139,120,,,
49039,MAKASkincare - Microblading Clinic,Eyelash extensions,3d full set,139,90,,,
49035,Venus Inspired,Facial treatments,Cleansing super facial,97,75,,,
49035,Venus Inspired,Facial treatments,Signatue facial,115,90,,,
49035,Venus Inspired,Facial treatments,Super barry facial,123,90,,,
49035,Venus Inspired,Facial treatments,Simple facial,43,30,,,
49033,Strawberry Glow,Hair ,Blowdry,18,30,,,
49033,Strawberry Glow,Hair ,Wash cut and blowdry,30,30,,,
49033,Strawberry Glow,Hair ,Wash and cut,15,15,,,
49033,Strawberry Glow,Colouring,T-section,30,30,,,
49033,Strawberry Glow,Colouring,Half head,50,30,,,
49033,Strawberry Glow,Colouring,Full head,65,60,,,
49033,Strawberry Glow,Colouring,Regrowth tint,28,30,,,
49033,Strawberry Glow,Colouring,Brazilian blowdry,80,90,,,
49033,Strawberry Glow,Massage,Back neck and shoulder,22,45,,,
49033,Strawberry Glow,Massage,Full body,38,60,,,
49033,Strawberry Glow,Nails,Manicure,15,30,,,
49033,Strawberry Glow,Nails,Deluxe manicure,20,30,,,
49033,Strawberry Glow,Nails,Pedicure,22,30,,,
49033,Strawberry Glow,Nails,Luxury pedicure,28,45,,,
49031,Passion for Beauty,Facials,Express facial,37,45,,,
49031,Passion for Beauty,Facials,Standard facial,42,45,,,
49031,Passion for Beauty,Facials,Luxury facial,47,60,,,
49031,Passion for Beauty,Facials,Teenager facial,30,45,,,
49031,Passion for Beauty,Facials,Beauty flash,30,30,,,
49031,Passion for Beauty,Facials,Deluxe facial,45,45,,,
49031,Passion for Beauty,Waxing,Hollywood,33,30,,,
49031,Passion for Beauty,Waxing,Brazilian,28,30,,,
49031,Passion for Beauty,Waxing,Bikini line,15,30,,,
49031,Passion for Beauty,Waxing,Upperlip,7,15,,,
49031,Passion for Beauty,Waxing,Full arm,17,30,,,
49031,Passion for Beauty,Waxing,Full leg,22,30,,,
49031,Passion for Beauty,Waxing,Full back,22,30,,,
49031,Passion for Beauty,Waxing,Full chest,22,30,,,
49031,Passion for Beauty,Waxing,Half leg,15,30,,,
49029,Nu U Hair & Beauty Lounge,Facial,Pro collagen age defy,65,60,,,
49029,Nu U Hair & Beauty Lounge,Facial,Men cleanse facial,55,60,,,
49029,Nu U Hair & Beauty Lounge,Facial,Microdermabrasion diamond peel,45,45,,,
49029,Nu U Hair & Beauty Lounge,Massage,Full body swedish,55,60,,,
49029,Nu U Hair & Beauty Lounge,Massage,Back and neck,30,30,,,
49029,Nu U Hair & Beauty Lounge,Massage,Hot stone,65,60,,,
49029,Nu U Hair & Beauty Lounge,Massage,Reflexology,50,45,,,
49029,Nu U Hair & Beauty Lounge,Massage,Indian head massage,40,45,,,
49029,Nu U Hair & Beauty Lounge,Waxing,Full leg,23,30,,,
49029,Nu U Hair & Beauty Lounge,Waxing,Bikini line,12,30,,,
49029,Nu U Hair & Beauty Lounge,Waxing,Underarm,10,15,,,
49029,Nu U Hair & Beauty Lounge,Waxing,Lip,7,15,,,
49029,Nu U Hair & Beauty Lounge,Waxing,Chin,7,15,,,
49029,Nu U Hair & Beauty Lounge,Waxing,Eyebrow,8,15,,,
49029,Nu U Hair & Beauty Lounge,Waxing,Tidy up,5,15,,,
49029,Nu U Hair & Beauty Lounge,Tinting,Eyebrow tint,8,15,,,
49029,Nu U Hair & Beauty Lounge,Tinting,Eyelash tint,12,15,,,
49029,Nu U Hair & Beauty Lounge,Manicure and pedicure,Feet only,15,30,,,
49029,Nu U Hair & Beauty Lounge,Manicure and pedicure,Manicure,23,30,,,
49029,Nu U Hair & Beauty Lounge,Manicure and pedicure,Pedicure,26,30,,,
49029,Nu U Hair & Beauty Lounge,Manicure and pedicure,Luxury manicure,30,30,,,
49029,Nu U Hair & Beauty Lounge,Manicure and pedicure,Luxury pedicure,33,30,,,
49029,Nu U Hair & Beauty Lounge,Hair,Wash cut and finish,35,30,,,
49029,Nu U Hair & Beauty Lounge,Hair,Full head highlight,80,60,,,
49029,Nu U Hair & Beauty Lounge,Hair,T-section,40,45,,,
49029,Nu U Hair & Beauty Lounge,Hair,Gents clipper and cut,15,15,,,
48237,His & Hers Beauty Clinic,Hair,Blowdry,20,30,,,
48237,His & Hers Beauty Clinic,Hair,Cut wash and blowdry,35,45,,,
48237,His & Hers Beauty Clinic,Waxing,Eyebrows,5,15,,,
48237,His & Hers Beauty Clinic,Waxing,Upperlip,4,15,,,
48237,His & Hers Beauty Clinic,Waxing,Half leg,20,30,,,
48237,His & Hers Beauty Clinic,Waxing,Full leg,25,30,,,
48237,His & Hers Beauty Clinic,Waxing,Bikini line,15,30,,,
48237,His & Hers Beauty Clinic,Waxing,Chest,28,30,,,
48237,His & Hers Beauty Clinic,Waxing,Brazilian,30,30,,,
48237,His & Hers Beauty Clinic,Facial,Dermalogica,48,60,,,
48237,His & Hers Beauty Clinic,Facial,Crystal clear,50,60,,,
48237,His & Hers Beauty Clinic,Facial,Express facial,30,30,,,
48237,His & Hers Beauty Clinic,Facial,Back facial,35,45,,,
48237,His & Hers Beauty Clinic,Eyes,Eyebrow tint,10,15,,,
48237,His & Hers Beauty Clinic,Eyes,Eyelash tint,12,30,,,
48237,His & Hers Beauty Clinic,Eyes,Individual lashes,55,60,,,
48237,His & Hers Beauty Clinic,Massage,Full body ,48,60,,,
48237,His & Hers Beauty Clinic,Massage,Swedish,60,60,,,
48237,His & Hers Beauty Clinic,Massage,Indian head massage,30,30,,,
48236,Giovanni,Cut and style,Ladies cut and blowdry,40,45,,,
48236,Giovanni,Cut and style,Men cut and blowdry,28,30,,,
48236,Giovanni,Cut and style,Blowdry short hair,20,30,,,
48236,Giovanni,Tinting,Semi permanent,30,30,,,
48236,Giovanni,Tinting,Permanent root tint,35,30,,,
48236,Giovanni,Tinting,Balayage,85,60,,,
48236,Giovanni,Tinting,Bleach roots,40,45,,,
48236,Giovanni,Tinting,Toner,15,15,,,
48236,Giovanni,Hi-Lowlights,Half head highlights,65,60,,,
48236,Giovanni,Hi-Lowlights,Full head highlight,75,60,,,
48236,Giovanni,Waxing,Full leg,22,30,,,
48236,Giovanni,Waxing,Full leg and bikini line,27,30,,,
48236,Giovanni,Waxing,Bikini line,10,15,,,
48236,Giovanni,Waxing,Brazilian,22,30,,,
48236,Giovanni,Waxing,Full arm,16,30,,,
48236,Giovanni,Waxing,Lip,6,15,,,
48236,Giovanni,Waxing,Stomach,10,15,,,
48236,Giovanni,Nails,Manicure,18,30,,,
48236,Giovanni,Nails,Deluxe manicure,22,30,,,
48236,Giovanni,Nails,Pedicure,24,30,,,
48236,Giovanni,Nails,Deluxe pedicure,28,45,,,
48236,Giovanni,Lashes and brows,Eyalash tint,13,30,,,
48236,Giovanni,Lashes and brows,Eyerow tint,8,15,,,
48236,Giovanni,Lashes and brows,Eyebrow threading,8,15,,,
48236,Giovanni,Lashes and brows,Eyebrow wax,8,15,,,
48228,Luxurious Beauty Boutique Laser & Beauty Clinic,Eyelash and brow,Eyelash tint,12,15,,,
48228,Luxurious Beauty Boutique Laser & Beauty Clinic,Eyelash and brow,Eyebrow tint,7,15,,,
48228,Luxurious Beauty Boutique Laser & Beauty Clinic,Eyelash and brow,Eyebrow shape and tint,16,30,,,
48228,Luxurious Beauty Boutique Laser & Beauty Clinic,Eyelash and brow,Eyebrow and eyelash tint,15,30,,,
48228,Luxurious Beauty Boutique Laser & Beauty Clinic,Eyelash and brow,Russian volume full set,65,60,,,
48228,Luxurious Beauty Boutique Laser & Beauty Clinic,Eyelash and brow,Yummi lashes,60,60,,,
48228,Luxurious Beauty Boutique Laser & Beauty Clinic,Facial,Vitamin treatment,65,60,,,
48228,Luxurious Beauty Boutique Laser & Beauty Clinic,Facial,Power facial,65,60,,,
48228,Luxurious Beauty Boutique Laser & Beauty Clinic,Facial,Purifying treatment,45,60,,,
