47595,Bows Beauty and Tanning,Nails,File and paint,8,15,0,0,0
47595,Bows Beauty and Tanning,Nails,Manicure,15,15,,,
47595,Bows Beauty and Tanning,Nails,Luxury manicure,20,30,,,
47595,Bows Beauty and Tanning,Nails,Pedicure,20,30,,,
47595,Bows Beauty and Tanning,Nails,Luxury pedicure,25,30,,,
47595,Bows Beauty and Tanning,Nails,Shellac,18,30,,,
47595,Bows Beauty and Tanning,Waxing,Full leg,18,30,,,
47595,Bows Beauty and Tanning,Waxing,Arm,12,30,,,
47595,Bows Beauty and Tanning,Waxing,Underarm,7,15,,,
47595,Bows Beauty and Tanning,Waxing,Chest,15,15,,,
47595,Bows Beauty and Tanning,Waxing,Chin,5,15,,,
47595,Bows Beauty and Tanning,Waxing,Lip,3,15,,,
47595,Bows Beauty and Tanning,Waxing,Brazilian,25,30,,,
47595,Bows Beauty and Tanning,Waxing,Hollywood,25,30,,,
47595,Bows Beauty and Tanning,Facial and massage,Luxury facial,25,30,,,
47595,Bows Beauty and Tanning,Facial and massage,Microdermabrasion,40,60,,,
47595,Bows Beauty and Tanning,Facial and massage,Neck back and shoulder massage,20,30,,,
47595,Bows Beauty and Tanning,Facial and massage,Full body massage,30,45,,,
47595,Bows Beauty and Tanning,Eyes,Individual lashes,48,60,,,
47595,Bows Beauty and Tanning,Eyes,Classic infills,28,30,,,
47595,Bows Beauty and Tanning,Eyes,Lash tint,8,15,,,
47595,Bows Beauty and Tanning,Eyes,Brow tint,6,15,,,
47595,Bows Beauty and Tanning,Hair,Cut nd blowdry,25,45,,,
47595,Bows Beauty and Tanning,Hair,Express curl,15,30,,,
47595,Bows Beauty and Tanning,Hair,Hair up,25,30,,,
47595,Bows Beauty and Tanning,Hair,Full head highlight,75,60,,,
47595,Bows Beauty and Tanning,Hair,Half head highlight,65,60,,,
47595,Bows Beauty and Tanning,Hair,Full head tint,65,60,,,
47594,The Beauty Centre,Facials,Collagen facial,40,45,,,
47594,The Beauty Centre,Facials,Dermalogica facial,40,45,,,
47594,The Beauty Centre,Facials,Flash facial,22,30,,,
47594,The Beauty Centre,Facials,Multi vitamin facial,34,60,,,
47594,The Beauty Centre,Facials,Total eye care facial,20,30,,,
47594,The Beauty Centre,Eyes,Eyelash tint,10.5,30,,,
47594,The Beauty Centre,Eyes,Eyebrow tinting,6,15,,,
47594,The Beauty Centre,Eyes,Lash and brow tint,14,30,,,
47594,The Beauty Centre,Eyes,Eyelash perm,25,30,,,
47594,The Beauty Centre,Eyes,Eyelash extensions,15,30,,,
47594,The Beauty Centre,Waxing,Full leg,20,30,,,
47594,The Beauty Centre,Waxing,Half leg,13.5,30,,,
47594,The Beauty Centre,Waxing,Underarm,7,15,,,
47594,The Beauty Centre,Waxing,Bikini,7,15,,,
47594,The Beauty Centre,Waxing,Hollywood,30,30,,,
47594,The Beauty Centre,Waxing,Forearm,14.5,30,,,
47594,The Beauty Centre,Hands and feet,Manicure,16.5,30,,,
47594,The Beauty Centre,Hands and feet,Essential pedicure,19.5,30,,,
47594,The Beauty Centre,Hands and feet,Deluxe pedicure,25,30,,,
47594,The Beauty Centre,Hands and feet,Chocolate treatment,5,15,,,
47593,Serenity Hair & Beauty & Holistic Therapies,Hair,Shampoo cut and finish,39,60,,,
47593,Serenity Hair & Beauty & Holistic Therapies,Hair,Shampoo and blowdry,19,30,,,
47593,Serenity Hair & Beauty & Holistic Therapies,Hair,Shampoo and cut,19,30,,,
47593,Serenity Hair & Beauty & Holistic Therapies,Hair,Children under 12,12,30,,,
47593,Serenity Hair & Beauty & Holistic Therapies,Hair,Gents cut,12,30,,,
47593,Serenity Hair & Beauty & Holistic Therapies,Hair,Full head highlights,60,60,,,
47593,Serenity Hair & Beauty & Holistic Therapies,Hair,Half head highlight,48,60,,,
47593,Serenity Hair & Beauty & Holistic Therapies,Hair,T-section,36,60,,,
47593,Serenity Hair & Beauty & Holistic Therapies,Hair,Parting,32,30,,,
47593,Serenity Hair & Beauty & Holistic Therapies,Hair,Full head permanent colour,28,30,,,
47593,Serenity Hair & Beauty & Holistic Therapies,Hair,Toner,11,30,,,
47593,Serenity Hair & Beauty & Holistic Therapies,Waxing,Full leg,25,30,,,
47593,Serenity Hair & Beauty & Holistic Therapies,Waxing,Bikini,16,30,,,
47593,Serenity Hair & Beauty & Holistic Therapies,Waxing,Hollywood,35,30,,,
47593,Serenity Hair & Beauty & Holistic Therapies,Waxing,Brazilian,30,30,,,
47593,Serenity Hair & Beauty & Holistic Therapies,Waxing,Full arm,25,30,,,
47593,Serenity Hair & Beauty & Holistic Therapies,Waxing,Upperlip,7,15,,,
47593,Serenity Hair & Beauty & Holistic Therapies,Waxing,Chin,8,15,,,
47593,Serenity Hair & Beauty & Holistic Therapies,Nails ,Essential manicure,20,30,,,
47593,Serenity Hair & Beauty & Holistic Therapies,Nails ,Deluxe heated manicure,30,45,,,
47593,Serenity Hair & Beauty & Holistic Therapies,Nails ,Essential pedicure,28,45,,,
47593,Serenity Hair & Beauty & Holistic Therapies,Nails ,Deluxe pedicure,40,60,,,
47593,Serenity Hair & Beauty & Holistic Therapies,Eyes,Eyelash tint,15,30,,,
47593,Serenity Hair & Beauty & Holistic Therapies,Eyes,Eyebrow tinting,8,15,,,
47593,Serenity Hair & Beauty & Holistic Therapies,Eyes,Party lashes,16,30,,,
47593,Serenity Hair & Beauty & Holistic Therapies,Facials,Express facial,35,30,,,
47593,Serenity Hair & Beauty & Holistic Therapies,Facials,Rejuvinating facial,50,60,,,
47593,Serenity Hair & Beauty & Holistic Therapies,Facials,Prescriptive facial,55,60,,,
47591,Edge Hair & Beauty,Women,Cut and style,33,30,,,
47591,Edge Hair & Beauty,Women,Wet cut,20,30,,,
47591,Edge Hair & Beauty,Women,Re style,44,60,,,
47591,Edge Hair & Beauty,Women,Blowdry long hair,20,30,,,
47591,Edge Hair & Beauty,Men,Cut and style,10,15,,,
47591,Edge Hair & Beauty,Colour,Full head highlights,55,60,,,
47591,Edge Hair & Beauty,Colour,Half head highlight,45,60,,,
47591,Edge Hair & Beauty,Colour,T-section,30,30,,,
47591,Edge Hair & Beauty,Colour,Permanent colour,40,45,,,
47591,Edge Hair & Beauty,Colour,Tint regrowth,35,45,,,
47591,Edge Hair & Beauty,Colour,Semi permanent colour,25,30,,,
47591,Edge Hair & Beauty,Children,Boys under 10,7,15,,,
47591,Edge Hair & Beauty,Children,Girls under 10,7,15,,,
47591,Edge Hair & Beauty,Senior citizen,Men,7,15,,,
47591,Edge Hair & Beauty,Senior citizen,Cut and blowdry,21,30,,,
47591,Edge Hair & Beauty,Senior citizen,Wet cut,12.5,30,,,
47591,Edge Hair & Beauty,Senior citizen,Blowdry,12,30,,,
47591,Edge Hair & Beauty,Waxing,Half leg,13,30,,,
47591,Edge Hair & Beauty,Waxing,Full leg,20,30,,,
47591,Edge Hair & Beauty,Waxing,Bikini,9,15,,,
47591,Edge Hair & Beauty,Waxing,Brazilian,30,30,,,
47591,Edge Hair & Beauty,Waxing,Hollywood,30,30,,,
47591,Edge Hair & Beauty,Waxing,Full arm,13,30,,,
47591,Edge Hair & Beauty,Waxing,lip,6,15,,,
47591,Edge Hair & Beauty,Waxing,Chin,6,15,,,
47591,Edge Hair & Beauty,Waxing,Underarm,8,15,,,
47591,Edge Hair & Beauty,Lashes and brows,Eyelash tint,8,15,,,
47591,Edge Hair & Beauty,Lashes and brows,Eyebrow tinting,6,15,,,
47591,Edge Hair & Beauty,Lashes and brows,Lash brow and wax,18,30,,,
47591,Edge Hair & Beauty,Hands and feet,File and paint,9,15,,,
47591,Edge Hair & Beauty,Hands and feet,Manicure,20,30,,,
47591,Edge Hair & Beauty,Hands and feet,Deluxe manicure,24,45,,,
47591,Edge Hair & Beauty,Hands and feet,Pedicure,22,30,,,
47591,Edge Hair & Beauty,Hands and feet,Deluxe pedicure,26,30,,,
47590,Aroma Hair & Beauty,Hair,Ladies cut and finish,47,60,,,
47590,Aroma Hair & Beauty,Hair,Long hair blowdry,28,45,,,
47590,Aroma Hair & Beauty,Hair,Short hair blowdry,25,30,,,
47590,Aroma Hair & Beauty,Hair,Men cut and finish,25,30,,,
47590,Aroma Hair & Beauty,Massage,Swedish massage,55,60,,,
47590,Aroma Hair & Beauty,Massage,Back neck and shoulder,30,30,,,
47590,Aroma Hair & Beauty,Massage,Body aroma massage,55,60,,,
47590,Aroma Hair & Beauty,Spray tan,Spray tanning,20,30,,,
47590,Aroma Hair & Beauty,Spray tan,Express tan,25,30,,,
47590,Aroma Hair & Beauty,Waxing,Full leg,28,30,,,
47590,Aroma Hair & Beauty,Waxing,Full leg and bikini,24,30,,,
47590,Aroma Hair & Beauty,Waxing,Half leg,20,30,,,
47590,Aroma Hair & Beauty,Waxing,Bikini,12,30,,,
47590,Aroma Hair & Beauty,Waxing,Brazilian,20,30,,,
47590,Aroma Hair & Beauty,Waxing,Hollywood,20,30,,,
47590,Aroma Hair & Beauty,Waxing,Upperlip,9,15,,,
47590,Aroma Hair & Beauty,Eye Treatment,Eyebrow shape,10,15,,,
47590,Aroma Hair & Beauty,Eye Treatment,Eyebrow tint,7,15,,,
47590,Aroma Hair & Beauty,Eye Treatment,Eyelash tint,15,30,,,
47590,Aroma Hair & Beauty,Eye Treatment,Eyelash tint and brow tint,20,30,,,
47590,Aroma Hair & Beauty,Hands and feet,Jessica manicure,23,30,,,
47590,Aroma Hair & Beauty,Hands and feet,Deluxe Jessica manicure,27,45,,,
47590,Aroma Hair & Beauty,Hands and feet,Jessica pedicure,30,30,,,
47590,Aroma Hair & Beauty,Hands and feet,Deluxe Jessica pedicure,45,45,,,
47590,Aroma Hair & Beauty,Hands and feet,Gel hands,22,30,,,
47590,Aroma Hair & Beauty,Hands and feet,Gel feet,22,30,,,
47589,Vanity London Beauty,Waxing,Half leg,20,30,,,
47589,Vanity London Beauty,Waxing,Full leg,24,30,,,
47589,Vanity London Beauty,Waxing,Bikini line,14,30,,,
47589,Vanity London Beauty,Waxing,Underarm,10,15,,,
47589,Vanity London Beauty,Waxing,Forearm,17,30,,,
47589,Vanity London Beauty,Waxing,Full arm,22,30,,,
47589,Vanity London Beauty,Waxing,Lip and chin,12,30,,,
47589,Vanity London Beauty,Waxing,Man back wax,22,30,,,
47589,Vanity London Beauty,Waxing,Chest,17,30,,,
47589,Vanity London Beauty,Waxing,Men eyebrow,12,30,,,
47589,Vanity London Beauty,Nails,File and varnish,14,30,,,
47589,Vanity London Beauty,Nails,Luxury manicure,27,30,,,
47589,Vanity London Beauty,Nails,Luxury pedicure,32,30,,,
47589,Vanity London Beauty,Nails,Deluxe manicure,37,45,,,
47589,Vanity London Beauty,Nails,Deluxe pedicure,42,60,,,
47589,Vanity London Beauty,Nails,Acrylic full set,27,30,,,
47589,Vanity London Beauty,Nails,Infills,17,30,,,
47589,Vanity London Beauty,Nails,Soak off,12,30,,,
47589,Vanity London Beauty,Facials,Exclusive facial,62,75,,,
47589,Vanity London Beauty,Facials,Prescriptive facial,52,60,,,
47589,Vanity London Beauty,Facials,Express facial,37,30,,,
47589,Vanity London Beauty,Facials,Microdermabrasion,45,60,,,
47589,Vanity London Beauty,Makeup,Lip liner,225,90,,,
47589,Vanity London Beauty,Makeup,Lip liner with small blend,250,120,,,
47589,Vanity London Beauty,Makeup,Ombre lip blush,300,180,,,
47589,Vanity London Beauty,Makeup,Hair stroke eye brows,300,180,,,
47589,Vanity London Beauty,Makeup,Powder eyebrows,300,180,,,
47589,Vanity London Beauty,Makeup,Baby eyeliner top only,275,120,,,
47589,Vanity London Beauty,Massage,Swedish massage,52,60,,,
47589,Vanity London Beauty,Massage,Back neck and shoulder,32,30,,,
47589,Vanity London Beauty,Massage,Hot stone therapy,62,60,,,
47589,Vanity London Beauty,Massage,Bespoke massage,72,60,,,
47588,All About You Orpington,Facials,Precision facial,25,30,,,
47588,All About You Orpington,Facials,Express facial,25,30,,,
47588,All About You Orpington,Facials,Purifying treatment,39,45,,,
47588,All About You Orpington,Facials,Caci powder facial,60,60,,,
47588,All About You Orpington,Facials,Caci combined facial,90,120,,,
47588,All About You Orpington,Facials,C peel facial,69,90,,,
47588,All About You Orpington,Facials,Environ cool peel,65,90,,,
47588,All About You Orpington,Facials,Diamond peel Deluxe facial,54,60,,,
47588,All About You Orpington,Facials,Diamond peel essential facial,43.5,60,,,
47588,All About You Orpington,Facials,Eye lift,30,30,,,
47588,All About You Orpington,Facials,Caci jowl lift,30,30,,,
47588,All About You Orpington,Facials,Caci active acne,30,30,,,
47588,All About You Orpington,Facials,Caci hydratone facial,20,30,,,
47588,All About You Orpington,Laser Hair removal,Upperlip,45,45,,,
47588,All About You Orpington,Laser Hair removal,Lip and chin,75,60,,,
47588,All About You Orpington,Laser Hair removal,Jawline or neck,80,60,,,
47588,All About You Orpington,Laser Hair removal,Fingers,50,60,,,
47588,All About You Orpington,Laser Hair removal,Toes,50,60,,,
47588,All About You Orpington,Laser Hair removal,Stomach,110,60,,,
47588,All About You Orpington,Laser Hair removal,Full legs,300,90,,,
47588,All About You Orpington,Laser Hair removal,Forearms,140,60,,,
47588,All About You Orpington,Laser Hair removal,Bikini,80,60,,,
47588,All About You Orpington,Laser Hair removal,Upper leg,240,90,,,
47588,All About You Orpington,Waxing,Full leg,26.9,45,,,
47588,All About You Orpington,Waxing,Bikini,9.95,15,,,
47588,All About You Orpington,Waxing,Brazilian,26.95,45,,,
47588,All About You Orpington,Waxing,Hollywood,32.95,45,,,
47588,All About You Orpington,Waxing,Underarm,10.5,15,,,
47588,All About You Orpington,Waxing,Lip,7.5,15,,,
47588,All About You Orpington,Waxing,Chin,7.5,15,,,
47588,All About You Orpington,Threading,Eyebrow,7,15,,,
47588,All About You Orpington,Threading,Lip,6,15,,,
47588,All About You Orpington,Threading,Side of face,8.95,15,,,
47588,All About You Orpington,Massage,Deep cleansing,46.5,60,,,
47588,All About You Orpington,Massage,Back and shoulder massage,38.95,60,,,
47588,All About You Orpington,Massage,Hot stone therapy,50,60,,,
47588,All About You Orpington,Massage,Scalp massage,20,45,,,
47587,Indulgence in Beauty,Massage,Back neck and shoulder,25,30,,,
47587,Indulgence in Beauty,Massage,Full body massage,50,60,,,
47587,Indulgence in Beauty,Massage,Lava shell full massage,60,60,,,
47587,Indulgence in Beauty,Body therapy,Shrinking voilet body wrap,65,90,,,
47587,Indulgence in Beauty,Body therapy,Winter warmer,50,60,,,
47587,Indulgence in Beauty,Body therapy,Coconut body slammer,50,60,,,
47587,Indulgence in Beauty,Scrub,Chocolate vanilla and sweet strawberry,40,45,,,
47587,Indulgence in Beauty,Scrub,Chocolate vanilla deep heat feet,25,30,,,
47587,Indulgence in Beauty,Eye treatments,Eyelash tint,15,15,,,
47587,Indulgence in Beauty,Eye treatments,Eyebrow tint,11,15,,,
47587,Indulgence in Beauty,Eye treatments,Lash and brow tint,23,30,,,
47587,Indulgence in Beauty,LVL lashes,LVL lashes,50,60,,,
47587,Indulgence in Beauty,hair removal,Full leg wax,25.5,45,,,
47587,Indulgence in Beauty,hair removal,Half leg wax,17.5,30,,,
47587,Indulgence in Beauty,hair removal,Underarm,12.5,30,,,
47587,Indulgence in Beauty,hair removal,Eyebrow ,10,15,,,
47587,Indulgence in Beauty,hair removal,Chin,10,15,,,
47587,Indulgence in Beauty,hair removal,Upperlip,9,15,,,
47587,Indulgence in Beauty,Male waxing,Eyebrow tidy,12,30,,,
47587,Indulgence in Beauty,Male waxing,Back wax,25,30,,,
47587,Indulgence in Beauty,Male waxing,Back neck and shoulder,30,45,,,
47587,Indulgence in Beauty,Male massage,Back neck and shoulder,30,45,,,
47587,Indulgence in Beauty,Male massage,Full body massage,50,60,,,
47586,Beautiful Secrets Day Spa,Manicure,Polish only,10,15,,,
47586,Beautiful Secrets Day Spa,Manicure,File shape and polish,15,30,,,
47586,Beautiful Secrets Day Spa,Manicure,Gel removal,10,15,,,
47586,Beautiful Secrets Day Spa,Manicure,Mini manicure,20,30,,,
47586,Beautiful Secrets Day Spa,Manicure,Manicure,25,30,,,
47586,Beautiful Secrets Day Spa,Manicure,Luxury manicure,35,45,,,
47586,Beautiful Secrets Day Spa,Pedicure,Mini pedicure,20,30,,,
47586,Beautiful Secrets Day Spa,Pedicure,Aromatherapy pedicure,30,45,,,
47586,Beautiful Secrets Day Spa,Pedicure,Luxury aromatherapy pedicure,40,60,,,
47586,Beautiful Secrets Day Spa,Eye treatments,Eyebrow shape,8,15,,,
47586,Beautiful Secrets Day Spa,Eye treatments,Eyelash tint,12,30,,,
47586,Beautiful Secrets Day Spa,Eye treatments,Eyebrow tint,10,15,,,
47586,Beautiful Secrets Day Spa,Eye treatments,Strip lashes,10,15,,,
47586,Beautiful Secrets Day Spa,Eye treatments,Lash removal,15,15,,,
47586,Beautiful Secrets Day Spa,Eye treatments,LVL lash lift,45,45,,,
47586,Beautiful Secrets Day Spa,Eye treatments,Russian lashes,50,60,,,
47586,Beautiful Secrets Day Spa,Waxing,Half leg,18,30,,,
47586,Beautiful Secrets Day Spa,Waxing,Inner thigh,10,15,,,
47586,Beautiful Secrets Day Spa,Waxing,Full leg,28,45,,,
47586,Beautiful Secrets Day Spa,Waxing,Half arms,12,30,,,
47586,Beautiful Secrets Day Spa,Waxing,Full arms,17,30,,,
47586,Beautiful Secrets Day Spa,Waxing,Lip and chin,15,30,,,
47586,Beautiful Secrets Day Spa,Waxing,Cheeks,15,30,,,
47586,Beautiful Secrets Day Spa,Waxing,Full face,25,30,,,
47586,Beautiful Secrets Day Spa,Waxing,Underarm,12,30,,,
47586,Beautiful Secrets Day Spa,Facials,Discovery facial,35,30,,,
47586,Beautiful Secrets Day Spa,Facials,Ultimate vitamin glow,50,60,,,
47586,Beautiful Secrets Day Spa,Facials,Glow power boost,60,75,,,
47586,Beautiful Secrets Day Spa,Facials,Moisture quench,60,75,,,
47586,Beautiful Secrets Day Spa,Facials,Harmonie calm,60,75,,,
47586,Beautiful Secrets Day Spa,Facials,Aromamassage back neck and shoulder,38,60,,,
47586,Beautiful Secrets Day Spa,Facials,Aroma blend full body,65,60,,,
47586,Beautiful Secrets Day Spa,Massage,Back neck and shoulder,30,45,,,
47586,Beautiful Secrets Day Spa,Massage,Swedish full body,45,60,,,
47586,Beautiful Secrets Day Spa,Massage,Deep tissue back neck and shoulder,33,30,,,
47586,Beautiful Secrets Day Spa,Massage,Indian head massage,33,30,,,
46855,Frangipani Hair Salon,Women hair,Cut and blowdry,40,60,,,
46855,Frangipani Hair Salon,Women hair,Blowdry,22,30,,,
46855,Frangipani Hair Salon,Women hair,Wash and cut,25.5,45,,,
46855,Frangipani Hair Salon,Colour,Full head highlights,55,60,,,
46855,Frangipani Hair Salon,Colour,Half head highlight,40,60,,,
46855,Frangipani Hair Salon,Colour,INOA tint,31.5,45,,,
46855,Frangipani Hair Salon,Colour,Regrowth tint,29.5,45,,,
46855,Frangipani Hair Salon,Colour,Full head bleach,37,45,,,
46855,Frangipani Hair Salon,Children hair,Cut under 11,8,15,,,
46855,Frangipani Hair Salon,Children hair,Blowdry under 14,10.5,15,,,
46855,Frangipani Hair Salon,Male grooming,Restyle,10,15,,,
46855,Frangipani Hair Salon,Male grooming,Cut,9,30,,,
46855,Frangipani Hair Salon,Male grooming,Clipper cut,8,30,,,
46855,Frangipani Hair Salon,Male grooming,Wash and cut,13,30,,,
46855,Frangipani Hair Salon,Male grooming,Finish,8,15,,,
46744,Kalista Beauty,Facials,Bespoke facial,50,60,,,
46744,Kalista Beauty,Facials,Milia removal,15,30,,,
46744,Kalista Beauty,Skin peeling,Glycolic peel,65,30,,,
46744,Kalista Beauty,Skin peeling,AHA peel,55,15,,,
46744,Kalista Beauty,Back treatments,Deep cleansing,59,45,,,
46744,Kalista Beauty,Back treatments,AHA peeling treatment,55,60,,,
46744,Kalista Beauty,Back treatments,CACI microdermabrasion,76,45,,,
46744,Kalista Beauty,Back treatments,Dermalux Led light therapy,46,30,,,
46744,Kalista Beauty,Eye treatments,Eyelash tint,15,30,,,
46744,Kalista Beauty,Eye treatments,Eyebrow tint,12,30,,,
46744,Kalista Beauty,Eye treatments,Eyebrow shape,10,15,,,
46744,Kalista Beauty,Eye treatments,LVL lashes,49,60,,,
46744,Kalista Beauty,Eye treatments,CACI ultimate eye treatment,40,45,,,
46744,Kalista Beauty,Eye treatments,CACI eye revive,40,30,,,
46743,Beauty Therapy By Kathy,Skin treatments,Anti aging,55,60,,,
46743,Beauty Therapy By Kathy,Skin treatments,Ultra calming,55,60,,,
46743,Beauty Therapy By Kathy,Skin treatments,Power bright,55,60,,,
46743,Beauty Therapy By Kathy,Skin treatments,Teen skin care,25,30,,,
46743,Beauty Therapy By Kathy,Eyes,Eyebrow shape,8,15,,,
46743,Beauty Therapy By Kathy,Eyes,Eyebrow tint,7,15,,,
46743,Beauty Therapy By Kathy,Eyes,Eyelash tint,10,15,,,
46743,Beauty Therapy By Kathy,Hands and feet,Manicure,17,30,,,
46743,Beauty Therapy By Kathy,Hands and feet,Deluxe manicure,22,30,,,
46743,Beauty Therapy By Kathy,Hands and feet,Pedicure,22,30,,,
46743,Beauty Therapy By Kathy,Hands and feet,Deluxe pedicure,27,45,,,
46743,Beauty Therapy By Kathy,Massage,Full body massage,45,60,,,
46743,Beauty Therapy By Kathy,Massage,Back neck and shoulder,25,30,,,
46743,Beauty Therapy By Kathy,Massage,hot stone massage,49,60,,,
46743,Beauty Therapy By Kathy,Massage,Indian head massage,22,30,,,
46743,Beauty Therapy By Kathy,Waxing,Half leg,15,30,,,
46743,Beauty Therapy By Kathy,Waxing,Full leg,21,30,,,
46743,Beauty Therapy By Kathy,Waxing,Eyebrow,8,15,,,
46743,Beauty Therapy By Kathy,Waxing,Lip and chin,10,15,,,
46743,Beauty Therapy By Kathy,Waxing,Underarm,10,15,,,
46742,The Boutique Spa,Hair,Wet cut,40,45,,,
46742,The Boutique Spa,Hair,Cut and finish,15,30,,,
46742,The Boutique Spa,Hair,Blowdry,28,30,,,
46742,The Boutique Spa,Hair,Men haircut,13.5,30,,,
46742,The Boutique Spa,Hair,Men wash cut and finish,15,30,,,
46742,The Boutique Spa,Hair,Men Beard trim,5,15,,,
46742,The Boutique Spa,Hair,Beard trim with cut throat,7,15,,,
46742,The Boutique Spa,Hair,Men senior wash and cut,12.5,30,,,
46742,The Boutique Spa,Hair,Gents under 14,10,30,,,
46742,The Boutique Spa,Hair,Roller set,8,15,,,
46742,The Boutique Spa,Hair,Gents cut and finish,15,30,,,
46742,The Boutique Spa,Hair,Perm and volume,50,60,,,
46742,The Boutique Spa,Hair,Hair up,35,45,,,
46742,The Boutique Spa,Hair,Bridal hair up,60,60,,,
46742,The Boutique Spa,Children under 14,Wet cut,25,30,,,
46742,The Boutique Spa,Children under 15,Cut and finish,35,45,,,
46742,The Boutique Spa,Children under 16,Toddler cut under 5,12,30,,,
46742,The Boutique Spa,High and lowlights,Full head,95,60,,,
46742,The Boutique Spa,High and lowlights,Half head ,80,60,,,
46742,The Boutique Spa,Tinting,Semi permanent,45,60,,,
46742,The Boutique Spa,Tinting,Permanent,52,60,,,
46742,The Boutique Spa,Tinting,Toner,12,30,,,
46742,The Boutique Spa,Massage,Full body massage,78,90,,,
46742,The Boutique Spa,Massage,Back body,48,60,,,
46742,The Boutique Spa,Massage,Back neck and shoulder,36,45,,,
46742,The Boutique Spa,Massage,Deep tissue ,50,45,,,
46742,The Boutique Spa,Massage,Sports massage,52,45,,,
46742,The Boutique Spa,Waxing,Full leg,34,45,,,
46742,The Boutique Spa,Waxing,Half leg,24,30,,,
46742,The Boutique Spa,Waxing,Bikini,17,30,,,
46742,The Boutique Spa,Waxing,Brazilian,28,30,,,
46742,The Boutique Spa,Waxing,Hollywood,34,30,,,
46742,The Boutique Spa,Waxing,Full arm,24,30,,,
46742,The Boutique Spa,Waxing,Lip and chin,16,30,,,
46742,The Boutique Spa,Waxing,Bikini,22,30,,,
46742,The Boutique Spa,Waxing,Underarm,18,30,,,
46742,The Boutique Spa,Hands and feet,Manicure,22,30,,,
46742,The Boutique Spa,Hands and feet,Custom manicure,32,30,,,
46742,The Boutique Spa,Hands and feet,Pedicure,22,30,,,
46742,The Boutique Spa,Hands and feet,Cutsom pedicure,36,45,,,
46742,The Boutique Spa,Hands and feet,Men manicure,26,30,,,
46742,The Boutique Spa,Hands and feet,Men pedicure,34,60,,,
46742,The Boutique Spa,Hands and feet,Foot peel,12,30,,,
46742,The Boutique Spa,Eyes,Eye lash full set,95,60,,,
46742,The Boutique Spa,Eyes,Lala full set express lashes,50,60,,,
46742,The Boutique Spa,Eyes,Soak off,10,15,,,
46742,The Boutique Spa,Eyes,Eyebrow shape,14,30,,,
46742,The Boutique Spa,Eyes,Lash and brow tint,32,30,,,
46742,The Boutique Spa,Eyes,Lash lift,44,45,,,
46740,Indulgence Beauty Salon,Pedicure,Super deluxe pedicure,39.5,60,,,
46740,Indulgence Beauty Salon,Pedicure,Deluxe pedicure,36,45,,,
46740,Indulgence Beauty Salon,Pedicure,File and polish,18.5,30,,,
46740,Indulgence Beauty Salon,Pedicure,French file and polish,20,30,,,
46740,Indulgence Beauty Salon,Manicure,Super deluxe spa manicure,30,60,,,
46740,Indulgence Beauty Salon,Manicure,Deluxe manicure,26,45,,,
46740,Indulgence Beauty Salon,Manicure,File and polish,18.5,30,,,
46740,Indulgence Beauty Salon,Dermalogica Facials,Advanced facial,55,75,,,
46740,Indulgence Beauty Salon,Dermalogica Facials,Dermalogica prescriptive facial,47.5,60,,,
46740,Indulgence Beauty Salon,Dermalogica Facials,Flash facial,27.5,30,,,
46740,Indulgence Beauty Salon,Dermalogica Facials,Active resurface,55,60,,,
46740,Indulgence Beauty Salon,Caci facials,Anti aging,80,75,,,
46740,Indulgence Beauty Salon,Caci facials,Non surgical face lift,60,60,,,
46740,Indulgence Beauty Salon,Caci facials,Hydro lift,70,75,,,
46740,Indulgence Beauty Salon,Caci facials,Ultra sonic peel,50,45,,,
46740,Indulgence Beauty Salon,Caci facials,Eye treatment,30,30,,,
46740,Indulgence Beauty Salon,Caci facials,Jowl lift,30,30,,,
46740,Indulgence Beauty Salon,Waxing,Full leg,26,45,,,
46740,Indulgence Beauty Salon,Waxing,Half leg,20,30,,,
46740,Indulgence Beauty Salon,Waxing,Underarm,11.5,15,,,
46740,Indulgence Beauty Salon,Waxing,Full arm,18,30,,,
46740,Indulgence Beauty Salon,Waxing,Brazilian,28.5,30,,,
46740,Indulgence Beauty Salon,Waxing,Hollywood,31.5,30,,,
46740,Indulgence Beauty Salon,Waxing,Eyebrows,9.5,15,,,
46740,Indulgence Beauty Salon,Waxing,Abdomen,14,15,,,
46740,Indulgence Beauty Salon,Waxing,Lip and chin,16,15,,,
46740,Indulgence Beauty Salon,Lash extensions,Semi permanent,85,75,,,
46740,Indulgence Beauty Salon,Lash extensions,Infills,25,30,,,
46740,Indulgence Beauty Salon,Lash extensions,Express lashes,45,45,,,
46740,Indulgence Beauty Salon,Lash extensions,Lash removal,15,15,,,
46739,Bella Pelle Beauty,Nail treatments,Shellac hands,15,30,,,
46739,Bella Pelle Beauty,Nail treatments,Shellac toes,20,45,,,
46739,Bella Pelle Beauty,Nail treatments,Shellac hands and toes,30,45,,,
46739,Bella Pelle Beauty,Nail treatments,Soak off,5,15,,,
46739,Bella Pelle Beauty,CND spa pedicure,Spa pedicure,30,60,,,
46739,Bella Pelle Beauty,CND spa pedicure,Extra CND shellac,10,15,,,
46739,Bella Pelle Beauty,CND spa manicure,Spa manicure,20,45,,,
46739,Bella Pelle Beauty,CND spa manicure,Extra CND shellac,10,15,,,
46739,Bella Pelle Beauty,CND spa manicure,File and polish,10,15,,,
46739,Bella Pelle Beauty,Eyes,Eyebrow tint,6,15,,,
46739,Bella Pelle Beauty,Eyes,Eyelash tint,9,15,,,
46739,Bella Pelle Beauty,Eyes,Eyelash and eyebrow tint,13,30,,,
46739,Bella Pelle Beauty,Eyes,Eyebrow shape,7,15,,,
46739,Bella Pelle Beauty,Eyes,Eyebrow tint and shape,12,15,,,
46739,Bella Pelle Beauty,Body,Body massage,50,60,,,
46739,Bella Pelle Beauty,Body,Back massage,30,45,,,
46739,Bella Pelle Beauty,Body,Aromatherapy,50,60,,,
46739,Bella Pelle Beauty,Body,Reflexology,50,60,,,
46739,Bella Pelle Beauty,Waxing,Full leg,20,30,,,
46739,Bella Pelle Beauty,Waxing,Half leg,14,30,,,
46739,Bella Pelle Beauty,Waxing,Basic bikini,10,15,,,
46739,Bella Pelle Beauty,Waxing,Brazilian,22,30,,,
46739,Bella Pelle Beauty,Waxing,Hollywood,25,30,,,
46739,Bella Pelle Beauty,Waxing,Full arm,12,15,,,
46739,Bella Pelle Beauty,Waxing,Eyebrow,7,15,,,
46739,Bella Pelle Beauty,Waxing,Chin,5,15,,,
46737,Little Beauty Box,Nails,Booster manicure,18,30,,,
46737,Little Beauty Box,Nails,Booster pedicure,18,30,,,
46737,Little Beauty Box,Nails,Pristine pedicure,32,30,,,
46737,Little Beauty Box,Nails,Imaculate manicure,32,30,,,
46737,Little Beauty Box,Waxing,Full leg,26,30,,,
46737,Little Beauty Box,Waxing,Full arm,18,30,,,
46737,Little Beauty Box,Waxing,Underarm,10,15,,,
46737,Little Beauty Box,Waxing,Eyebrow shape,8,15,,,
46737,Little Beauty Box,Waxing,Bikini,15,15,,,
46737,Little Beauty Box,Waxing,Brazilian,26,30,,,
46737,Little Beauty Box,Waxing,Hollywood,32,30,,,
46737,Little Beauty Box,Waxing,Back,25,30,,,
46737,Little Beauty Box,Waxing,Face,15,30,,,
46737,Little Beauty Box,Eyes,Eyelash tint,15,15,,,
46737,Little Beauty Box,Eyes,Eyebrow tint,10,15,,,
46737,Little Beauty Box,Eyes,Eyelash extensions full set,22,30,,,
46737,Little Beauty Box,Eyes,Strip lash application,10,15,,,
46737,Little Beauty Box,Eyes,LVL lashes,45,45,,,
46737,Little Beauty Box,Hair,Ladies cut and blowdry,33,45,,,
46737,Little Beauty Box,Hair,Ladies blowdry,23,30,,,
46737,Little Beauty Box,Hair,Ladies wash and cut,25,45,,,
46737,Little Beauty Box,Hair,Men cut,17,30,,,
46737,Little Beauty Box,Hair,Children wash and cut,16,30,,,
46737,Little Beauty Box,Hair,Full head highlights,70,60,,,
46737,Little Beauty Box,Hair,Half head highlight,44,60,,,
46737,Little Beauty Box,Hair,Parting highlight,37,45,,,
46737,Little Beauty Box,Hair,Root tint,30,30,,,
46737,Little Beauty Box,Hair,Full head tint,37,45,,,
46737,Little Beauty Box,Hair,Toner,18,30,,,
46737,Little Beauty Box,Facials,Collagen power facial,60,60,,,
46737,Little Beauty Box,Facials,The ren bespoke,50,60,,,
46737,Little Beauty Box,Facials,The ren express,35,30,,,
46737,Little Beauty Box,Skin treatments,Caci non surgical face lift,55,60,,,
46737,Little Beauty Box,Skin treatments,Microdermabrasion,45,60,,,
46736,Klinik,Dermalogica Facials,Pro skin 60,55,60,,,
46736,Klinik,Dermalogica Facials,Touch therapy,15,15,,,
46736,Klinik,Dermalogica Facials,Pro skin 30,35,30,,,
46736,Klinik,Dermalogica Facials,Massage facial,30,30,,,
46736,Klinik,Hands and feet,Shape and varnish nails,17,30,,,
46736,Klinik,Hands and feet,Signature manicure,25,30,,,
46736,Klinik,Hands and feet,Pamper manicure,35,45,,,
46736,Klinik,Hands and feet,Paraffin wax,15,15,,,
46736,Klinik,Lash and brow,Eyelash tint,20,30,,,
46736,Klinik,Lash and brow,Lash and brow tint,25.5,30,,,
46736,Klinik,Lash and brow,Eye brow tint,12,30,,,
46736,Klinik,Lash and brow,Individual eyelash extensions full set,85,60,,,
46736,Klinik,Lash and brow,LVL lashes,56,60,,,
46736,Klinik,Waxing,Full leg,30,45,,,
46736,Klinik,Waxing,Full leg and bikini,41,45,,,
46736,Klinik,Waxing,Thigh,20,30,,,
46736,Klinik,Waxing,Thigh and bikini,32,30,,,
46736,Klinik,Waxing,Bikini,16,15,,,
46736,Klinik,Waxing,Underarm,12,15,,,
46736,Klinik,Waxing,Male chest,20,30,,,
46736,Klinik,Waxing,Male back,27,45,,,
46736,Klinik,Waxing,Eyebrow,8.5,15,,,
46735,Urban Beauty,Lashes and brows,Classic lash extensions,50,60,,,
46735,Urban Beauty,Lashes and brows,Infill classic lashes,30,60,,,
46735,Urban Beauty,Lashes and brows,Lash lift and tint,40,60,,,
46735,Urban Beauty,Lashes and brows,Russian volume lashes,65,60,,,
46735,Urban Beauty,Lashes and brows,SVS volume lashes,65,120,,,
46735,Urban Beauty,Lashes and brows,Hybrid lashes,55,90,,,
46735,Urban Beauty,Waxing,Full leg,27,45,,,
46735,Urban Beauty,Waxing,Half leg,16,30,,,
46735,Urban Beauty,Waxing,Full arm,16,30,,,
46735,Urban Beauty,Waxing,Bikini,14,30,,,
46735,Urban Beauty,Waxing,Brazilian,20,30,,,
46735,Urban Beauty,Waxing,Hollywood,26,30,,,
46735,Urban Beauty,Waxing,Underarm,9,15,,,
46735,Urban Beauty,Waxing,Lip ,4,15,,,
46735,Urban Beauty,Waxing,Chin,4,15,,,
46735,Urban Beauty,Nails,Mani gel polish,25,45,,,
46735,Urban Beauty,Nails,Mani and pedi gel,40,90,,,
46735,Urban Beauty,Nails,Mani polish,15,15,,,
46735,Urban Beauty,Nails,Pedi polish,15,15,,,
46735,Urban Beauty,Nails,Gel nails extensions with gel polish,35,90,,,
46735,Urban Beauty,Nails,Natural nail overlay with gel polish,30,60,,,
46728,The Beauty Concept,Eyes,Individual express lashes,45,60,,,
46728,The Beauty Concept,Eyes,Infills,32,45,,,
46728,The Beauty Concept,Eyes,Russian volume lashes,87,60,,,
46728,The Beauty Concept,Eyes,Eyelash tint,15,15,,,
46728,The Beauty Concept,Eyes,Lash lift,45,60,,,
46728,The Beauty Concept,Eyes,Eyebrow tint,9,15,,,
46728,The Beauty Concept,Eyes,Eyebrow tint and shape,15,30,,,
46728,The Beauty Concept,Eyes,Defined brows,25,30,,,
46728,The Beauty Concept,Eyes,Eyelash and eyebrow tint,18,30,,,
46728,The Beauty Concept,Eyes,Eyebrow shape,9,15,,,
46728,The Beauty Concept,Nails,Gel extensions,30,30,,,
46728,The Beauty Concept,Nails,Manicure,25,30,,,
46728,The Beauty Concept,Nails,Deluxe manicure,30,30,,,
46728,The Beauty Concept,Nails,Pedicure,30,45,,,
46728,The Beauty Concept,Nails,Deluxe pedicure,50,45,,,
46728,The Beauty Concept,Nails,Express gels,18,30,,,
46728,The Beauty Concept,Nails,French gels,28,45,,,
46728,The Beauty Concept,Nails,Gel manicure,35,45,,,
46728,The Beauty Concept,Nails,Gel pedicure,40,45,,,
46728,The Beauty Concept,Facials,Deluxe,50,60,,,
46728,The Beauty Concept,Facials,Decleor prescriptive,50,60,,,
46728,The Beauty Concept,Facials,Classic,40,60,,,
46728,The Beauty Concept,Waxing,Half leg,16,30,,,
46728,The Beauty Concept,Waxing,Full leg,25,30,,,
46728,The Beauty Concept,Waxing,Bikini,15,15,,,
46728,The Beauty Concept,Waxing,Brazilian,26,30,,,
46728,The Beauty Concept,Waxing,Hollywood,30,30,,,
46728,The Beauty Concept,Waxing,Underarm,10,15,,,
46728,The Beauty Concept,Waxing,Half arm,15,15,,,
46728,The Beauty Concept,Waxing,Full arm,18,30,,,
46728,The Beauty Concept,Waxing,Lip and chin,10,15,,,
46728,The Beauty Concept,Waxing,Chest,15,15,,,
46728,The Beauty Concept,Waxing,Half leg,25,30,,,
46728,The Beauty Concept,Massage,Full body,40,60,,,
46728,The Beauty Concept,Massage,Back neck and shoulder,28,45,,,
46728,The Beauty Concept,Massage,Indian head massage,38,45,,,
46728,The Beauty Concept,Massage,Hot stone massage,50,60,,,
46726,The Boutique Spa,Hair,Wet cut,40,45,,,
46726,The Boutique Spa,Hair,Cut and finish,15,30,,,
46726,The Boutique Spa,Hair,Blowdry,28,30,,,
46726,The Boutique Spa,Hair,Men haircut,13.5,30,,,
46726,The Boutique Spa,Hair,Men wash cut and finish,15,30,,,
46726,The Boutique Spa,Hair,Men Beard trim,5,15,,,
46726,The Boutique Spa,Hair,Beard trim with cut throat,7,15,,,
46726,The Boutique Spa,Hair,Men senior wash and cut,12.5,30,,,
46726,The Boutique Spa,Hair,Gents under 14,10,30,,,
46726,The Boutique Spa,Hair,Roller set,8,15,,,
46726,The Boutique Spa,Hair,Gents cut and finish,15,30,,,
46726,The Boutique Spa,Hair,Perm and volume,50,60,,,
46726,The Boutique Spa,Hair,Hair up,35,45,,,
46726,The Boutique Spa,Hair,Bridal hair up,60,60,,,
46726,The Boutique Spa,Children under 14,Wet cut,25,30,,,
46726,The Boutique Spa,Children under 15,Cut and finish,35,45,,,
46726,The Boutique Spa,Children under 16,Toddler cut under 5,12,30,,,
46726,The Boutique Spa,High and lowlights,Full head,95,60,,,
46726,The Boutique Spa,High and lowlights,Half head ,80,60,,,
46726,The Boutique Spa,Tinting,Semi permanent,45,60,,,
46726,The Boutique Spa,Tinting,Permanent,52,60,,,
46726,The Boutique Spa,Tinting,Toner,12,30,,,
46726,The Boutique Spa,Massage,Full body massage,78,90,,,
46726,The Boutique Spa,Massage,Back body,48,60,,,
46726,The Boutique Spa,Massage,Back neck and shoulder,36,45,,,
46726,The Boutique Spa,Massage,Deep tissue ,50,45,,,
46726,The Boutique Spa,Massage,Sports massage,52,45,,,
46726,The Boutique Spa,Waxing,Full leg,34,45,,,
46726,The Boutique Spa,Waxing,Half leg,24,30,,,
46726,The Boutique Spa,Waxing,Bikini,17,30,,,
46726,The Boutique Spa,Waxing,Brazilian,28,30,,,
46726,The Boutique Spa,Waxing,Hollywood,34,30,,,
46726,The Boutique Spa,Waxing,Full arm,24,30,,,
46726,The Boutique Spa,Waxing,Lip and chin,16,30,,,
46726,The Boutique Spa,Waxing,Bikini,22,30,,,
46726,The Boutique Spa,Waxing,Underarm,18,30,,,
46726,The Boutique Spa,Hands and feet,Manicure,22,30,,,
46726,The Boutique Spa,Hands and feet,Custom manicure,32,30,,,
46726,The Boutique Spa,Hands and feet,Pedicure,22,30,,,
46726,The Boutique Spa,Hands and feet,Cutsom pedicure,36,45,,,
46726,The Boutique Spa,Hands and feet,Men manicure,26,30,,,
46726,The Boutique Spa,Hands and feet,Men pedicure,34,60,,,
46726,The Boutique Spa,Hands and feet,Foot peel,12,30,,,
46726,The Boutique Spa,Eyes,Eye lash full set,95,60,,,
46726,The Boutique Spa,Eyes,Lala full set express lashes,50,60,,,
46726,The Boutique Spa,Eyes,Soak off,10,15,,,
46726,The Boutique Spa,Eyes,Eyebrow shape,14,30,,,
46726,The Boutique Spa,Eyes,Lash and brow tint,32,30,,,
46726,The Boutique Spa,Eyes,Lash lift,44,45,,,
46725,Kent Waxing Co Male & Female Waxing,Male waxing,Full back wax,39,60,,,
46725,Kent Waxing Co Male & Female Waxing,Male waxing,Full back shoulder arm chest stomach,79,90,,,
46725,Kent Waxing Co Male & Female Waxing,Male waxing,Underarm,15,15,,,
46725,Kent Waxing Co Male & Female Waxing,Male waxing,Lower back,20,30,,,
46725,Kent Waxing Co Male & Female Waxing,Male waxing,Hand,14,30,,,
46725,Kent Waxing Co Male & Female Waxing,Male waxing,Chest,28,45,,,
46725,Kent Waxing Co Male & Female Waxing,Male waxing,Feet,10,15,,,
46725,Kent Waxing Co Male & Female Waxing,Male waxing,Full leg and feet,47,60,,,
46725,Kent Waxing Co Male & Female Waxing,Male waxing,Lower half leg,25,45,,,
46725,Kent Waxing Co Male & Female Waxing,Male waxing,Nostril,10,15,,,
46725,Kent Waxing Co Male & Female Waxing,Male waxing,Monobrow,5,15,,,
46725,Kent Waxing Co Male & Female Waxing,Male waxing,Eyebrow,15,15,,,
46725,Kent Waxing Co Male & Female Waxing,Male waxing,Ear,10,15,,,
46725,Kent Waxing Co Male & Female Waxing,Male waxing,Brazilian,55,60,,,
46725,Kent Waxing Co Male & Female Waxing,Male waxing,Cheeks,25,30,,,
46725,Kent Waxing Co Male & Female Waxing,Male waxing,Brazilian,55,60,,,
46725,Kent Waxing Co Male & Female Waxing,Male waxing,Hollywood,59,60,,,
46725,Kent Waxing Co Male & Female Waxing,Male waxing,Full body,255,120,,,
46725,Kent Waxing Co Male & Female Waxing,Female waxing,Upperlip,7,15,,,
46725,Kent Waxing Co Male & Female Waxing,Female waxing,Chin,8,15,,,
46725,Kent Waxing Co Male & Female Waxing,Female waxing,Underarm,13,15,,,
46725,Kent Waxing Co Male & Female Waxing,Female waxing,Full arm,40,45,,,
46725,Kent Waxing Co Male & Female Waxing,Female waxing,Lower leg,24,45,,,
46725,Kent Waxing Co Male & Female Waxing,Female waxing,Upper leg,29,45,,,
46725,Kent Waxing Co Male & Female Waxing,Female waxing,Hand,12,30,,,
46725,Kent Waxing Co Male & Female Waxing,Female waxing,Full leg,40,60,,,
46725,Kent Waxing Co Male & Female Waxing,Female waxing,Stomach,24,30,,,
46725,Kent Waxing Co Male & Female Waxing,Female waxing,Brazilian,65,60,,,
46725,Kent Waxing Co Male & Female Waxing,Female waxing,Hollywood,65,60,,,
45961,The White Room Beauty Salon,Waxing,Lip ,7,15,,,
45961,The White Room Beauty Salon,Waxing,Chin,7,15,,,
45961,The White Room Beauty Salon,Waxing,Eyebrow,10,15,,,
45961,The White Room Beauty Salon,Waxing,Stomach,9,15,,,
45961,The White Room Beauty Salon,Waxing,Underarm,12,30,,,
45961,The White Room Beauty Salon,Waxing,Bikini,14,15,,,
45961,The White Room Beauty Salon,Waxing,Full arm,18,30,,,
45961,The White Room Beauty Salon,Waxing,Lower leg,18,30,,,
45961,The White Room Beauty Salon,Waxing,Full leg,30,30,,,
45961,The White Room Beauty Salon,Tinting,Eyebrow tint,10,15,,,
45961,The White Room Beauty Salon,Tinting,Eyelash tint,15,15,,,
45960,Beautiful Faces by Prina,Services,Bridal makeup and hair ,50,60,,,
45960,Beautiful Faces by Prina,Services,Bridesmaid,30,45,,,
45960,Beautiful Faces by Prina,Services,Special occasion,30,45,,,
45709,Beautiful Nails,Nails,Manicure,12,30,,,
45709,Beautiful Nails,Nails,Pedicure,20,30,,,
45709,Beautiful Nails,Nails,Mani and pedi,30,45,,,
45709,Beautiful Nails,Nails,Polish change,7,15,,,
45709,Beautiful Nails,Nails,Cut down,3,15,,,
45709,Beautiful Nails,Nails,Acrylic full set,20,30,,,
45709,Beautiful Nails,Nails,Infill,15,30,,,
45709,Beautiful Nails,Nails,SNS full set,25,30,,,
45709,Beautiful Nails,Nails,SNS infill,22,30,,,
45709,Beautiful Nails,Nails,Gel polish colour,20,30,,,
45709,Beautiful Nails,Nails,White tip,22,30,,,
45709,Beautiful Nails,Nails,Gel polish take off and manicure,15,30,,,
45521,Ascott Beauty Clinic,Facial,Hydradermie 2,58.95,90,,,
45521,Ascott Beauty Clinic,Facial,Eye logic,49.95,60,,,
45521,Ascott Beauty Clinic,Facial,Aromatic facial,50.95,60,,,
45521,Ascott Beauty Clinic,Facial,Hyrda peeling,72.95,90,,,
45521,Ascott Beauty Clinic,Facial,Enzyme facial,50.95,60,,,
45521,Ascott Beauty Clinic,Facial,Express peel,35.95,60,,,
45521,Ascott Beauty Clinic,Massage,Swedish massage,49.95,60,,,
45521,Ascott Beauty Clinic,Massage,Indian head massage,29.95,60,,,
45521,Ascott Beauty Clinic,Massage,G5 vibro massage,29.95,45,,,
45521,Ascott Beauty Clinic,Massage,Hot stone massage,55.95,60,,,
45521,Ascott Beauty Clinic,For Men,Manicure,19.95,30,,,
45521,Ascott Beauty Clinic,For Men,Pedicure,39.95,60,,,
45521,Ascott Beauty Clinic,For Men,Back wax,29.95,45,,,
45521,Ascott Beauty Clinic,For Men,Chest,29.95,45,,,
45521,Ascott Beauty Clinic,For Men,Back and chest,49.95,60,,,
45521,Ascott Beauty Clinic,Hands and feet,File and polish,13.95,30,,,
45521,Ascott Beauty Clinic,Hands and feet,Manicure,23.95,30,,,
45521,Ascott Beauty Clinic,Hands and feet,French manicure,36.95,45,,,
45521,Ascott Beauty Clinic,Hands and feet,Pedicure,31.95,45,,,
45521,Ascott Beauty Clinic,Hands and feet,French pedicure,36.95,45,,,
45521,Ascott Beauty Clinic,Hands and feet,Deluxe pedicure,41.95,60,,,
45521,Ascott Beauty Clinic,Hands and feet,Gel colour,24.95,45,,,
45521,Ascott Beauty Clinic,Hands and feet,Gel removal,9.95,15,,,
45521,Ascott Beauty Clinic,Hands and feet,Infill,29.95,45,,,
45521,Ascott Beauty Clinic,Waxing,Full leg,22.95,30,,,
45521,Ascott Beauty Clinic,Waxing,Half leg,16.95,30,,,
45521,Ascott Beauty Clinic,Waxing,Bikini,14.95,30,,,
45521,Ascott Beauty Clinic,Waxing,Brazilian,25.95,30,,,
45521,Ascott Beauty Clinic,Waxing,Hollywood,29.95,45,,,
45521,Ascott Beauty Clinic,Waxing,Underarm,14.95,30,,,
45521,Ascott Beauty Clinic,Waxing,Full arm,19.95,30,,,
45521,Ascott Beauty Clinic,Waxing,Lip and chin,10.95,30,,,
45521,Ascott Beauty Clinic,lash and brow,Eyelash tint,14.95,30,,,
45521,Ascott Beauty Clinic,lash and brow,Eyebrow tint,10.95,15,,,
45521,Ascott Beauty Clinic,lash and brow,Full set,60.95,75,,,
45521,Ascott Beauty Clinic,lash and brow,Full set infill,35,45,,,
45521,Ascott Beauty Clinic,lash and brow,Remove lashes,10,15,,,
45521,Ascott Beauty Clinic,Spray tan,Coconut,25,30,,,
45521,Ascott Beauty Clinic,Spray tan,Absolute,25,30,,,
45521,Ascott Beauty Clinic,Spray tan,Maroccan,25,30,,,
45521,Ascott Beauty Clinic,Spray tan,Violet,25,30,,,
45521,Ascott Beauty Clinic,Spray tan,Caramel,25,30,,,
45520,Spectacular Nails,Acrylic extensions,Full set,26,30,,,
45520,Spectacular Nails,Acrylic extensions,Infills,16,30,,,
45520,Spectacular Nails,Acrylic extensions,Take off and full set,30,45,,,
45520,Spectacular Nails,Gel extensions,Full set,30,45,,,
45520,Spectacular Nails,Gel extensions,Infills,20,30,,,
45520,Spectacular Nails,Gel extensions,Take off and full set,35,45,,,
45520,Spectacular Nails,Pink extensions,Acrylic pink and white,35,45,,,
45520,Spectacular Nails,Pink extensions,Gel pink and white,25,45,,,
45520,Spectacular Nails,Pink extensions,Infill acrylic,25,45,,,
45520,Spectacular Nails,Shellac UV gel colour,Hand full,25,45,,,
45520,Spectacular Nails,Shellac UV gel colour,Feet french manicure,25,45,,,
45520,Spectacular Nails,Shellac UV gel colour,Pedicure with shellac colour,45,60,,,
45520,Spectacular Nails,Feet,Pedicure,25,45,,,
45520,Spectacular Nails,Feet,Shape and colour,10,15,,,
45520,Spectacular Nails,Feet,Acrylic,10,15,,,
45520,Spectacular Nails,Feet,Full set extension acrylic,30,45,,,
45520,Spectacular Nails,Feet,Infill acrylic,15,15,,,
45520,Spectacular Nails,Natural Nails,Manicure,10,15,,,
45520,Spectacular Nails,Natural Nails,Shape and colour,6,15,,,
45520,Spectacular Nails,Natural Nails,Shape and french polish,8,15,,,
45520,Spectacular Nails,Natural Nails,Take off shellac,5,15,,,
45520,Spectacular Nails,Natural Nails,Take off manicure,15,30,,,
45520,Spectacular Nails,Natural Nails,Nail art,3,15,,,
45520,Spectacular Nails,Natural Nails,Cut down and repair,3,15,,,
45516,Advanced Facialist,Facials,Super boost,25,30,,,
45516,Advanced Facialist,Facials,Superbright,55,60,,,
45516,Advanced Facialist,Facials,Superclear,55,60,,,
45516,Advanced Facialist,Facials,Super cocktail,95,75,,,
45516,Advanced Facialist,Facials,Super woman,40,60,,,
45516,Advanced Facialist,Super focused treatments,Eye,60,30,,,
45516,Advanced Facialist,Super focused treatments,Lip,50,30,,,
45516,Advanced Facialist,Super focused treatments,Neck,80,45,,,
45516,Advanced Facialist,Super focused treatments,Eye and lip,100,60,,,
45516,Advanced Facialist,Skin peels,Face,100,60,,,
45516,Advanced Facialist,Skin peels,Back,150,60,,,
45516,Advanced Facialist,Skin peels,Hands,50,60,,,
45516,Advanced Facialist,Dermal needling,Full face treatment,250,90,,,
45516,Advanced Facialist,Dermal needling,Face and neck ,350,120,,,
45515,Light Touch Beauty Salon,Laser hair removal,Lip,35,45,,,
45515,Light Touch Beauty Salon,Laser hair removal,Chin,40,60,,,
45515,Light Touch Beauty Salon,Laser hair removal,Underarm,50,75,,,
45515,Light Touch Beauty Salon,Laser hair removal,Brazilian,90,90,,,
45515,Light Touch Beauty Salon,Laser hair removal,Hollywood,100,60,,,
45515,Light Touch Beauty Salon,Laser hair removal,Full leg,240,90,,,
45515,Light Touch Beauty Salon,Laser hair removal,Full arm,125,60,,,
45515,Light Touch Beauty Salon,Laser hair removal,Half arm,80,60,,,
45515,Light Touch Beauty Salon,Men hair removal,Chest,120,60,,,
45515,Light Touch Beauty Salon,Men hair removal,Back,170,60,,,
45515,Light Touch Beauty Salon,Men hair removal,Patch test,20,30,,,
45515,Light Touch Beauty Salon,Waxing,Full leg,28,45,,,
45515,Light Touch Beauty Salon,Waxing,Bikini,18,30,,,
45515,Light Touch Beauty Salon,Waxing,Brazilian,25,45,,,
45515,Light Touch Beauty Salon,Waxing,Hollywood,30,45,,,
45515,Light Touch Beauty Salon,Waxing,Underarm,9,15,,,
45515,Light Touch Beauty Salon,Waxing,Lip and chin,14,30,,,
45515,Light Touch Beauty Salon,Nails,Classic manicure,24,30,,,
45515,Light Touch Beauty Salon,Nails,Classic pedicure,30,45,,,
45515,Light Touch Beauty Salon,Nails,Deluxe pedicure,38,45,,,
45515,Light Touch Beauty Salon,Nails,Gel removal,10,15,,,
45515,Light Touch Beauty Salon,Nails,File and polish,12.5,30,,,
45515,Light Touch Beauty Salon,Eye treatments,Eyelash tint,15,30,,,
45515,Light Touch Beauty Salon,Eye treatments,Eyebrow tint,10,15,,,
45515,Light Touch Beauty Salon,Eye treatments,Brow shape,9,15,,,
45515,Light Touch Beauty Salon,Eye treatments,Eyelash extension single,60,60,,,
45515,Light Touch Beauty Salon,Dermalogica facial,Mini facial,28,30,,,
45515,Light Touch Beauty Salon,Dermalogica facial,Prescription facial,50,60,,,
45514,Trez Hair Design,Hair,Cut and style,32,45,,,
45514,Trez Hair Design,Hair,Men wash cut and style,35,45,,,
45514,Trez Hair Design,Hair,Kids under 8,13,30,,,
45514,Trez Hair Design,Hair,Wash blowdry and style,28,45,,,
45514,Trez Hair Design,Hair,Full head foils,80,60,,,
45514,Trez Hair Design,Hair,Parting foils,37,45,,,
45514,Trez Hair Design,Waxing,Eyebrow,7,15,,,
45514,Trez Hair Design,Waxing,Chin,5,15,,,
45514,Trez Hair Design,Waxing,Full arm,16,30,,,
45514,Trez Hair Design,Waxing,Underarm,8,15,,,
45514,Trez Hair Design,Waxing,Full leg,20,30,,,
45514,Trez Hair Design,Waxing,Bikini,10,15,,,
45514,Trez Hair Design,Waxing,Brazilian,20,30,,,
45514,Trez Hair Design,Waxing,Hollywood,25,30,,,
45514,Trez Hair Design,Eyes,Eyelash tint,10,15,,,
45514,Trez Hair Design,Eyes,Eyebrow tint,10,15,,,
45514,Trez Hair Design,Eyes,Eyebrow shape,8,15,,,
45514,Trez Hair Design,Eyes,Strip lashes,10,15,,,
45514,Trez Hair Design,Eyes,Infills,40,45,,,
45514,Trez Hair Design,Massage,Back neck and shoulder,25,45,,,
45514,Trez Hair Design,Massage,Indian head massage,20,30,,,
45514,Trez Hair Design,Massage,Full body,50,75,,,
45514,Trez Hair Design,Makeup,Bridal,45,60,,,
45514,Trez Hair Design,Makeup,Trial makeup,30,45,,,
45514,Trez Hair Design,Nails,luxury manicure,20,30,,,
45514,Trez Hair Design,Nails,Luxury pedicure,25,45,,,
45514,Trez Hair Design,Nails,Gelish hands,25,45,,,
45514,Trez Hair Design,Nails,Gelish feet,25,45,,,
45514,Trez Hair Design,Nails,Gelish removal,5,15,,,
45513,The Little Beauty Village,Waxing,Full leg,30,30,,,
45513,The Little Beauty Village,Waxing,Half arm,18,30,,,
45513,The Little Beauty Village,Waxing,Full arm,22,30,,,
45513,The Little Beauty Village,Waxing,Underarm,15,15,,,
45513,The Little Beauty Village,Waxing,Lip,12.5,15,,,
45513,The Little Beauty Village,Waxing,Chin,12.5,15,,,
45513,The Little Beauty Village,Waxing,Bikini,16,15,,,
45513,The Little Beauty Village,Waxing,Brazilian,38,30,,,
45513,The Little Beauty Village,Eye treatments,Eyebrow shape,13,15,,,
45513,The Little Beauty Village,Eye treatments,Eyebrow tint,9,15,,,
45513,The Little Beauty Village,Eye treatments,Eyebrow tint and shape,19,30,,,
45513,The Little Beauty Village,Eye treatments,Power bro,30,30,,,
45513,The Little Beauty Village,Eye treatments,Glam lashes,45,60,,,
45513,The Little Beauty Village,Eye treatments,Lash lifting treatment,45,60,,,
45513,The Little Beauty Village,Eye treatments,Eyelash tint,16,30,,,
45513,The Little Beauty Village,Manicure,Classic manicure,28,45,,,
45513,The Little Beauty Village,Manicure,Signature manicure,32,45,,,
45513,The Little Beauty Village,Manicure,Shape and polish,18,30,,,
45513,The Little Beauty Village,Manicure,Gel manicure,35,45,,,
45513,The Little Beauty Village,Pedicure,Classic pedicure,38,45,,,
45513,The Little Beauty Village,Pedicure,Signature pedicure,42,60,,,
45513,The Little Beauty Village,Pedicure,Shape and polish,18,30,,,
45513,The Little Beauty Village,Pedicure,Gel removal,10,15,,,
45513,The Little Beauty Village,Facials,Prescription facial,58,60,,,
45513,The Little Beauty Village,Facials,Deep cleansing,58,60,,,
45513,The Little Beauty Village,Facials,Quick fix facial,36,30,,,
45513,The Little Beauty Village,Facials,Stress relief facial,36,30,,,
45513,The Little Beauty Village,Facials,Facial add on,15,15,,,
45512,Luxe Beauty,Waxing,Eyebrow,7,15,,,
45512,Luxe Beauty,Waxing,Upperlip,5,15,,,
45512,Luxe Beauty,Waxing,Chin,5,15,,,
45512,Luxe Beauty,Waxing,Full face,20,30,,,
45512,Luxe Beauty,Waxing,Underarm,9,15,,,
45512,Luxe Beauty,Waxing,Full arm,16,30,,,
45512,Luxe Beauty,Waxing,Full leg,25,30,,,
45512,Luxe Beauty,Waxing,Brazilian,20,30,,,
45512,Luxe Beauty,Waxing,Hollywood,25,30,,,
45512,Luxe Beauty,Massage,Full body,40,60,,,
45512,Luxe Beauty,Massage,Back neck and shoulder,27,30,,,
45512,Luxe Beauty,Massage,Scalp and face,25,30,,,
45512,Luxe Beauty,Dermalogica facial,Microzone facial,20,30,,,
45512,Luxe Beauty,Dermalogica facial,Express facial,30,45,,,
45512,Luxe Beauty,Dermalogica facial,Age smart,45,60,,,
45512,Luxe Beauty,Dermalogica facial,Ultracalming,45,60,,,
45512,Luxe Beauty,Eye treatments,Eyelash tint,15,30,,,
45512,Luxe Beauty,Eye treatments,Eyebrow tint,10,15,,,
45512,Luxe Beauty,Eye treatments,Party lashes,22,30,,,
45512,Luxe Beauty,Nails,Shape and paint,10,15,,,
45512,Luxe Beauty,Nails,Mini manicure,15,30,,,
45512,Luxe Beauty,Nails,Manicure,22,45,,,
45512,Luxe Beauty,Nails,Pedicure,25,30,,,
45512,Luxe Beauty,Nails,Deluxe manicure,35,45,,,
45512,Luxe Beauty,Male waxing,Eyebrow,9,15,,,
45512,Luxe Beauty,Male waxing,Chest,25,30,,,
45512,Luxe Beauty,Male waxing,Stomach,20,30,,,
45512,Luxe Beauty,Male waxing,Full back,30,45,,,
45512,Luxe Beauty,Male massage,Back neck and shoulder,30,45,,,
45512,Luxe Beauty,Male massage,Scalp and face,27,45,,,
45509,Hashtag Hair,Ladies,Cut and finish,39,60,,,
45509,Hashtag Hair,Ladies,Restyle,42,60,,,
45509,Hashtag Hair,Ladies,Wet cut,27,45,,,
45509,Hashtag Hair,Men,Cut and finish,20,45,,,
45509,Hashtag Hair,Men,Clipper cut and finish,14,30,,,
45509,Hashtag Hair,Colouring,Full head tint,46,60,,,
45509,Hashtag Hair,Colouring,Regrowth tint,40,45,,,
45509,Hashtag Hair,Senior citizen,Cut and finish,25,30,,,
45509,Hashtag Hair,Senior citizen,Blowdry,18,30,,,
45509,Hashtag Hair,Senior citizen,Shampoo and set,14,30,,,
45509,Hashtag Hair,Senior citizen,Perm,56,60,,,
45509,Hashtag Hair,Makeup,Full face,35,45,,,
45509,Hashtag Hair,Children,Under 5,10,30,,,
45509,Hashtag Hair,Children,6 to 10,15,30,,,
45509,Hashtag Hair,Children,11 to 14,21,30,,,
45509,Hashtag Hair,Bespoke bonding,Full head highlight,74,60,,,
45509,Hashtag Hair,Bespoke bonding,T-section,45,60,,,
45509,Hashtag Hair,Bespoke bonding,Regrowth bleach,50,75,,,
