53973,Lahore Spa-Kensington,Body treatments,Stomach treatment,500,45,0,0,0
53973,Lahore Spa-Kensington,Body treatments,Legs and buttocks treatment,475,45,0,0,0
53973,Lahore Spa-Kensington,Body treatments,Ultimate hand treatment,150,45,0,0,0
53973,Lahore Spa-Kensington,Body treatments,Lipolaser,380,45,0,0,0
53973,Lahore Spa-Kensington,Body treatments,Lipo-cavitation,520,45,0,0,0
53973,Lahore Spa-Kensington,Body treatments,Cool sculpting,1100,120,0,0,0
53973,Lahore Spa-Kensington,Signature facials,Non-surgical facelift,500,45,0,0,0
53973,Lahore Spa-Kensington,Signature facials,High intensity micro focused ultrasound,1000,45,0,0,0
53973,Lahore Spa-Kensington,Signature facials,Freezing time treatment,450,45,0,0,0
53973,Lahore Spa-Kensington,Signature facials,Ultimate anti-aging repairing facial,600,45,0,0,0
53973,Lahore Spa-Kensington,Signature facials,Repair youth eye lift,350,45,0,0,0
53973,Lahore Spa-Kensington,Signature facials,Hydratone deep hydration facial,275,45,0,0,0
53973,Lahore Spa-Kensington,Signature facials,Jowl lift intensive treatment,300,45,0,0,0
53973,Lahore Spa-Kensington,Facial treatments,Brightening crystal hydratone infusion,350,45,0,0,0
53973,Lahore Spa-Kensington,Facial treatments,Ultimate eye treatment,275,45,0,0,0
53973,Lahore Spa-Kensington,Facial treatments,Healing/ blemish fix treatment,380,45,0,0,0
53973,Lahore Spa-Kensington,Facial treatments,Lip plump/ party paut with hyaluronic acid,185,45,0,0,0
53973,Lahore Spa-Kensington,Advanced technological facials,Phototherapy facial deep tissue,200,30,0,0,0
53973,Lahore Spa-Kensington,Advanced technological facials,Phototherapy facial skin recovery,180,30,0,0,0
53973,Lahore Spa-Kensington,Advanced technological facials,Jet spa prooxygen infusioncold therapy ultrasonic,385,45,0,0,0
53973,Lahore Spa-Kensington,Advanced technological facials,Vaccum photon radio frequency,460,45,0,0,0
