46600,DEFINED BEAUTY BY SHEENA LTD,Massage,Body massage,30,60,0,0,0
46600,DEFINED BEAUTY BY SHEENA LTD,Massage,Back massage,25,45,,,
46600,DEFINED BEAUTY BY SHEENA LTD,Waxing,Eyebrow,6,15,,,
46600,DEFINED BEAUTY BY SHEENA LTD,Waxing,Upperlip,5,15,,,
46600,DEFINED BEAUTY BY SHEENA LTD,Waxing,Forehead,4,15,,,
46600,DEFINED BEAUTY BY SHEENA LTD,Waxing,Chin,5,15,,,
46600,DEFINED BEAUTY BY SHEENA LTD,Waxing,Full face,17,30,,,
46600,DEFINED BEAUTY BY SHEENA LTD,Waxing,Full leg,20,30,,,
46600,DEFINED BEAUTY BY SHEENA LTD,Waxing,Thigh,10,15,,,
46600,DEFINED BEAUTY BY SHEENA LTD,Waxing,Full arms,15,30,,,
46600,DEFINED BEAUTY BY SHEENA LTD,Waxing,Bikini,8,15,,,
46600,DEFINED BEAUTY BY SHEENA LTD,Waxing,Full body,50,60,,,
46600,DEFINED BEAUTY BY SHEENA LTD,Eye,Strip lashes,10,15,,,
46600,DEFINED BEAUTY BY SHEENA LTD,Eye,Infills,25,30,,,
46600,DEFINED BEAUTY BY SHEENA LTD,Manicure,Standard ,12,30,,,
46600,DEFINED BEAUTY BY SHEENA LTD,Manicure,First class,15,45,,,
46600,DEFINED BEAUTY BY SHEENA LTD,Manicure,Luxury ,20,60,,,
46600,DEFINED BEAUTY BY SHEENA LTD,Pedicure,Standard,20,30,,,
46600,DEFINED BEAUTY BY SHEENA LTD,Pedicure,First class,25,45,,,
46600,DEFINED BEAUTY BY SHEENA LTD,Pedicure,Paraffin pedicure,30,60,,,
48079,Komals Beauty,Hair and Makeup,Bridal hair and makeup,350,150,,,
48079,Komals Beauty,Hair and Makeup,Party hair and makeup,95,90,,,
48079,Komals Beauty,Hair removal,Patch test,10,15,,,
48079,Komals Beauty,Hair removal,Back,60,60,,,
48079,Komals Beauty,Hair removal,Chin,20,30,,,
48079,Komals Beauty,Hair removal,Full arms,85,60,,,
48079,Komals Beauty,Hair removal,Bikini line,50,60,,,
48079,Komals Beauty,Hair removal,Full face,85,60,,,
48079,Komals Beauty,Manicure,Basic manicure,12,30,,,
48079,Komals Beauty,Manicure,Spa massage,15,30,,,
48079,Komals Beauty,Manicure,Paraffin wax manicure,20,30,,,
48079,Komals Beauty,Manicure,Shape and varnish,8,120,,,
48079,Komals Beauty,Pedicure,Express pedicure,15,15,,,
48079,Komals Beauty,Pedicure,Spa pedicure,20,30,,,
48079,Komals Beauty,Pedicure,Gel nail polish,15,15,,,
48079,Komals Beauty,Pedicure,Shape and polish,10,15,,,
49660,Beauty Anjika,Hair,Wash cut and blowdry,28,60,,,
49660,Beauty Anjika,Hair,Short hair blowdry,15,30,,,
49660,Beauty Anjika,Hair,Shampoo and set,13,30,,,
49660,Beauty Anjika,Hair,Dry cut,14,30,,,
49660,Beauty Anjika,Hair,Childs cut,8,15,,,
49660,Beauty Anjika,Foils,Parting,20,30,,,
49660,Beauty Anjika,Foils,Half head,35,45,,,
49660,Beauty Anjika,Foils,Full head,65,60,,,
49660,Beauty Anjika,Senior citizen,Cut and blowdry,22.5,30,,,
49660,Beauty Anjika,Senior citizen,Shampoo and set,9.5,15,,,
49660,Beauty Anjika,Senior citizen,Perm ,40,60,,,
49660,Beauty Anjika,Senior citizen,Cut,9.5,15,,,
49660,Beauty Anjika,Hands,Manicure,11,15,,,
49660,Beauty Anjika,Hands,French polish manicure,12.5,30,,,
49660,Beauty Anjika,Hands,Re varnish,7,15,,,
49660,Beauty Anjika,Hands,Re shape and polish,8,15,,,
49660,Beauty Anjika,Feet,Pedicure,16,15,,,
49660,Beauty Anjika,Feet,Pedicure and shellac,30,45,,,
49660,Beauty Anjika,Feet,Shape and polish,8,15,,,
49663,Nainas Beauty Box,Facials,Mini,28,30,,,
49663,Nainas Beauty Box,Facials,Gold,50,60,,,
49663,Nainas Beauty Box,Facials,Fruit,35,60,,,
49663,Nainas Beauty Box,Facials,Oxygen,55,60,,,
49663,Nainas Beauty Box,Threading,Eyebrow,5,15,,,
49663,Nainas Beauty Box,Threading,Forehead,5,15,,,
49663,Nainas Beauty Box,Threading,Upperlip,3,15,,,
49663,Nainas Beauty Box,Threading,Chin,3,15,,,
49663,Nainas Beauty Box,Waxing,Eyebrow,5,15,,,
49663,Nainas Beauty Box,Waxing,Chin,5,15,,,
49663,Nainas Beauty Box,Waxing,Hollywood,28,45,,,
49663,Nainas Beauty Box,Waxing,Full face,20,30,,,
49663,Nainas Beauty Box,Waxing,Brazilian,25,30,,,
49663,Nainas Beauty Box,Waxing,Full arm,16,30,,,
49663,Nainas Beauty Box,Waxing,Full back,20,30,,,
49663,Nainas Beauty Box,Massage,Holistic,42,60,,,
49663,Nainas Beauty Box,Massage,Neck and shoulder,20,30,,,
49663,Nainas Beauty Box,Massage,Stress relax,45,60,,,
49663,Nainas Beauty Box,Massage,Leg and foot,32,45,,,
49663,Nainas Beauty Box,Massage,Back,25,30,,,
