Sal_id,Monday,Tuesday,Wednesday,Thursday,Friday,Saturday,Sunday,Mobile Number,Salon_profile_Pic,Website,Facebook,Twitter,Instagram,Sal_zip,Sal_address,Sal_email
52508,,,,,,,,7563 327390,52508.png,http://appinails.co.uk/,,,,RM1 1BH,"26 North St, Collier Row",
52125,,,,,,,,,,http://www.abigailsagar.com/,,,,RM10 7QU,"6 Calverley Cres, Becontree",info@abigailsagar.com
48721,,,,,,,,7999 442318,48721.png,http://www.aestheticsofessex.co.uk/,,,,RM14 2UE,"1 Howard Rd, Upminster",info@aestheticsofessex.co.uk
48720,,,,,,,,7792 818072,48720.png,http://www.the-nailroom.co.uk/,,,,RM14 1EF,"Heron Way, Upminster",info@the-nailroom.co.uk
48718,,,,,,,,7787 226868,48718.jpg,http://www.bebeautifulbymichelle.co.uk/,,,,RM14 2AB,"52 Corbets Tey Rd, Upminster",bebeautifulbymichelle@gmail.com
48716,,,,,,,,,48716.png,http://www.theboutiquehairsalon.co.uk/,,,,RM14 3BU,"179 St. Marys Ln, Upminster",naz@theboutiquehairsalon.co.uk
48714,,,,,,,,7501 967414,48714.jpg,http://www.manhattanstarnails.co.uk/,,,,RM14 2AJ,"69 Corbets Tey Rd, Upminster",
48713,,,,,,,,,,http://www.thetanninglodge.com/about/index.html,,,,RM14 2UB,"30 Station Rd, Upminster",info@thetanninglodge.com
48191,,,,,,,,,48191.png,http://www.brownstanningandbeautyrainham.co.uk/,,,,RM13 9TR,"137 Wennington Rd, South Hornchurch",browns.tanning@mail.com
48034,,,,,,,,7957 391804,,http://tsunisexsalon.co.uk/,,,,RM8 1DJ,"921A Green Ln, Rush Green",
48032,,,,,,,,7958 709661,48032.jpg,https://xcluzzy-hair-beauty-salon-beauty-salon.business.site/,,,,RM1 1TB,"4 Atlanta Blvd, Rush Green",
47996,,,,,,,,7535 353616,47996.png,http://estheticlinebeautyclinic.co.uk/,,,,RM1 1EU,"95 North St, Romford",estheticlinebeautyclinic@gmail.com
47994,,,,,,,,,47994.jpg,http://www.elegancebeautyltd.com/,,,,RM1 3RT,"N-7, Romford",info@elegancebeautyltd.com
47993,,,,,,,,,47993.png,http://calista-beauty.com/,,,,RM1 3EE,"28 Mercury Gardens, Romford",info@calista-beauty.com
47479,,,,,,,,,,http://www.auraupminster.co.uk/,,,,RM14 2SJ,"9 Station Rd, North Ockendon",Aura.upminster@yahoo.co.uk
47473,,,,,,,,7983 107542,47473.jpg,http://www.microringhairextensions.co.uk/,,,,RM14 1EB,"Micro Ring Hair Extensions, North Ockendon",microringextensions@hotmail.co.uk
47464,,,,,,,,,47464.jpg,http://christinesbarbershop.co.uk/,,,,RM15 6NH,"6 South Rd, North Ockendon",chrischaplin1952@gmail.com
46531,,,,,,,,,46531.png,http://headlineshairdressing.com/,,,,RM12 6QP,"174 High St, Hornchurch",hornchurchreception@headlineshairdressing.com
46527,,,,,,,,7482 788065,,https://www.shazhairbeauty.com/,,,,RM11 1QH,"156 Hornchurch Rd, Hornchurch",shazhairandbeauty@hotmail.co.uk
46525,,,,,,,,7484 906499,46525.png,http://www.havering-beauty-academy.com/,,,,RM11 1QH,"142 Hornchurch Rd, Hornchurch",info@havering-beauty-academy.com
46291,,,,,,,,,46291.jpg,https://www.beautypot-romford.co.uk/,,,,RM1 4YD,"14 Moray Way, Havering-atte-Bower",lizal123@btinternet.com
46290,,,,,,,,,,https://www.rush.co.uk/salons/romford?utm_source=google&utm_medium=places&utm_campaign=maps,,,,RM1 1RB,"44 South St, Havering-atte-Bower",marketing@rush.co.uk
46289,,,,,,,,,,https://www.raymondleehair.co.uk/,,,,RM5 3ND,"315 Collier Row Ln, Havering-atte-Bower",info@raymondleehair.co.uk
46287,,,,,,,,7725 998588,46287.png,https://hollyshairhut.co.uk/,,,,RM4 1QS,"9 Samantha Mews, Havering-atte-Bower",by_holly_hair@hotmail.com
46213,,,,,,,,,46213.jpg,http://www.the-nails-boutique.co.uk/,,,,RM11 1QX,"12 North St, Harold Wood",mail@the-nails-boutique.co.uk
46208,,,,,,,,,46208.png,http://studio15salon.co.uk/,,,,RM3 0PH,"15 Oak Rd, Harold Wood",info@studio15salon.co.uk
46205,,,,,,,,7929 003402,46205.jpg,http://www.sbbeauty.me.uk/,,,,RM3 0RG,"19 Rosslyn Ave, Harold Wood",sam@sbbeauty.me.uk
46201,,,,,,,,,46201.jpg,http://www.tahitibeautysalon.co.uk/,,,,RM5 3RP,"89-91 Chase Cross Rd, Harold Hill",info@tahitibeautysalon.co.uk
46198,,,,,,,,,,http://www.thepinksalon.co.uk/,,,,RM3 8HP,"83 Chippenham Rd, Harold Hill",contactus@thepinksalon.co.uk
46197,,,,,,,,7548 204332,,http://www.heavenlybeautyandtanning.com/,,,,RM3 9PH,"102 Petersfield Ave, Harold Hill",
