12373,Beauty And Bubbles Salon,Nails,Shape and polish,10,15,0,0,0
12373,Beauty And Bubbles Salon,Nails,Manicure and polish,15,30,,,
12373,Beauty And Bubbles Salon,Nails,Shellac manicure,25,30,,,
12373,Beauty And Bubbles Salon,Nails,Pedicure,25,30,,,
12373,Beauty And Bubbles Salon,Nails,Pedicure and polish,28,45,,,
12373,Beauty And Bubbles Salon,Massage,Back Neck and Shoulder,28,30,,,
12373,Beauty And Bubbles Salon,Massage,Indian head Massage,25,45,,,
12373,Beauty And Bubbles Salon,Massage,Full body,45,60,,,
12373,Beauty And Bubbles Salon,Facial,Express facial,25,30,,,
12373,Beauty And Bubbles Salon,Facial,Luxurious Facial,50,75,,,
12373,Beauty And Bubbles Salon,Facial,Facial for men,30,60,,,
12373,Beauty And Bubbles Salon,Waxing,Lip,8,15,,,
12373,Beauty And Bubbles Salon,Waxing,Lip and Chin,15,30,,,
12373,Beauty And Bubbles Salon,Waxing,Underarm,10,15,,,
12373,Beauty And Bubbles Salon,Waxing,Bikini,15,30,,,
12373,Beauty And Bubbles Salon,Men ,Manicure,12,15,,,
12373,Beauty And Bubbles Salon,Men ,Pedicure,22,45,,,
12373,Beauty And Bubbles Salon,Men ,Chest wax,20,30,,,
12373,Beauty And Bubbles Salon,Men ,Facial,60,30,,,
12371,Skin Viva Salon,Eyelash enhancement,1 month supply,70,60,,,
12371,Skin Viva Salon,Eyelash enhancement,3 months,95,60,,,
12371,Skin Viva Salon,Dermaroller skin needling,Single treatment,250,120,,,
12371,Skin Viva Salon,Dermaroller skin needling,3 treatments,650,120,,,
12371,Skin Viva Salon,Viva lift,Non surgical facelift,1975,120,,,
12371,Skin Viva Salon,Dermal filler treatments,Upper lip lines,395,120,,,
12371,Skin Viva Salon,Dermal filler treatments,Nose to mouth lines,395,120,,,
12371,Skin Viva Salon,Dermal filler treatments,Nose reshaping,595,120,,,
12379,Images Nails and Beauty,Hands,Paraffin wax,29,30,,,
12379,Images Nails and Beauty,Hands,Spa manicure,20,30,,,
12379,Images Nails and Beauty,Hands,Manicure,17,15,,,
12379,Images Nails and Beauty,Hands,nexgen infill,28,30,,,
12379,Images Nails and Beauty,Waxing,Eyebrows,6,15,,,
12379,Images Nails and Beauty,Waxing,Full face,12,30,,,
12379,Images Nails and Beauty,Waxing,Full leg,20,30,,,
12379,Images Nails and Beauty,Waxing,Bikini,12,15,,,
12379,Images Nails and Beauty,Waxing,Hollywood,23,30,,,
12379,Images Nails and Beauty,Waxing,Full back,15,30,,,
12379,Images Nails and Beauty,Eyes,Eyebrow tint,9,15,,,
12379,Images Nails and Beauty,Eyes,Eyelash tint,12,15,,,
12379,Images Nails and Beauty,Eyes,HD brows,22,30,,,
12379,Images Nails and Beauty,Threading,Eyebrows,7,15,,,
12379,Images Nails and Beauty,Threading,Chin,5.5,15,,,
12379,Images Nails and Beauty,Feet,Spa pedicure,30,30,,,
12379,Images Nails and Beauty,Feet,Twinkle toes,25,30,,,
12379,Images Nails and Beauty,Massage,Deep tissue,45,60,,,
12379,Images Nails and Beauty,Massage,Swedish,35,60,,,
12379,Images Nails and Beauty,Massage,Hot stone,55,60,,,
12374,MG Barbers,Hair,Cut and finish,20,30,,,
12374,MG Barbers,Hair,Beard trim and design,20,30,,,
12374,MG Barbers,Hair,Traditional cut throat shave,25,45,,,
12374,MG Barbers,Hair,Clipper head shave,10,15,,,
12374,MG Barbers,Hair,Steam shave,30,30,,,
52641,Pedicure Plus,Pedicure,Regular,26,30,,,
52642,Pedicure Plus,Pedicure,Deluxe,36,45,,,
52643,Pedicure Plus,Pedicure,Luxury,31,30,,,
52644,Pedicure Plus,Manicure,Regular,26,30,,,
52645,Pedicure Plus,Manicure,Deluxe,36,45,,,
52646,Pedicure Plus,Manicure,Luxury,41,45,,,
52647,Pedicure Plus,Eyes,Eyebrow tint,9,15,,,
52648,Pedicure Plus,Eyes,Eyelash tint,13,15,,,
52649,Pedicure Plus,Waxing,Buttocks,20,30,,,
52650,Pedicure Plus,Waxing,Full leg and bikini,50,60,,,
52651,Pedicure Plus,Waxing,Back,25,30,,,
52652,Pedicure Plus,Waxing,Shoulder,20,30,,,
52653,Pedicure Plus,Massage,Deep tissue,69,60,,,
52654,Pedicure Plus,Massage,Swedish,65,60,,,
52655,Pedicure Plus,Massage,Foot,25,30,,,
52656,Pedicure Plus,Facial,Mini,35,30,,,
52657,Pedicure Plus,Facial,Signature,50,60,,,
52658,Pedicure Plus,Facial,Deep cleansing,60,75,,,
18742,Rula Beauty,Pedicure,Express pedicure,15,30,,,
18742,Rula Beauty,Pedicure,French pedicure,20,30,,,
18742,Rula Beauty,Pedicure,Classic pedicure,38,45,,,
18742,Rula Beauty,Massage,Foot massage,20,30,,,
18742,Rula Beauty,Massage,Indian head Massage,15,30,,,
18742,Rula Beauty,Massage,Hand massage,20,30,,,
18742,Rula Beauty,Manicure,Express manicure,15,15,,,
18742,Rula Beauty,Manicure,French manicure,20,30,,,
18742,Rula Beauty,Manicure,Classic manicure,30,30,,,
