sal_id,Sal Name,Monday,Tuesday,Wednesday,Thursday,Friday,Saturday,Sunday,Mobile Number,Salon_profile_Pic,Website,Facebook,Twitter,Instagram,Sal_address,Sal_email,Owner Name,Lat,Long,Salon Type
khi1,Nabila Salon,11:00-20:00,11:00-20:00,11:00-20:00,11:00-20:00,11:00-20:00,11:00-20:00,11:00-20:00,0301 8283211,khi1.jpg,http://www.nabila.net/,,,,"Nabila C-33, E-Street, Block 4, Clifton Karachi",,,24.804212,67.032796,2
khi2,Allenora Annie Signature Salon,10:30-20:30,10:30-20:30,10:30-20:30,10:30-20:30,10:30-20:30,10:30-20:30,10:30-20:30,0345 8390444,khi2.png,,,,,"6th st zamzama, mall square,phase 5, Zamzama Commercial Area, DHA, Karachi",allenorakarachi@yahoo.com,,24.8168051,67.0404316,2
khi3,Nadia Hussain Salon,11:00-20:00,11:00-20:00,11:00-20:00,11:00-20:00,11:00-20:00,11:00-20:00,11:00-20:00,0300 8253325,khi3.jpg,,,,,"F 50/3, E street, block 4, Clifton, Karachi",,,24.805977,67.034068,2
khi4,Blush Studio Karachi,11:00-20:30,11:00-20:30,11:00-20:30,11:00-20:30,11:00-20:30,11:00-20:30,11:00-20:30,021 35846105,khi4.jpg,,,,,"18-C, Lane 3, Bukhari Commerical, Phase-VI, Karachi",blush.studiopk@gmail.com,,24.7940613,67.0650268,2
khi5,Bina Khan Salon,11:00-19:00,11:00-19:00,11:00-19:00,11:00-19:00,11:00-19:00,11:00-19:00,11:00-19:00,0300 8208640,khi5.jpg,https://binakhanmkp.com,,,,"Lane 1, Bukhari Commercial Area Phase 6, DHA, Karachi",binakhansalon@gmail.com,,24.795836,67.0642,2
khi6,Zara Beauty Parlour,10:00-20:00,10:00-20:00,10:00-20:00,10:00-20:00,10:00-20:00,10:00-20:00,10:00-20:00,021 35360005,khi6.jpg,http://www.zarassalon.com,,,,"18/C LANE 2 1ST FLOOR, STANDARD CHARTERED BANK, ZAMZAMA COMMERCIAL, PHASE 5. KARACHI",zarassalon6@gmail.com,,24.8159134,67.0427316,2
khi7,Zara Beauty Parlour,10:00-20:00,10:00-20:00,10:00-20:00,10:00-20:00,10:00-20:00,10:00-20:00,10:00-20:00,021 36627091,khi6.jpg,http://www.zarassalon.com,,,,"L, 14TH ST S, BLOCK L NORTH NAZIMABAD TOWN, KARACHI",zarassalon6@gmail.com,,24.9423485,67.0586522,2
khi8,Pengs Hair and Beauty Salon,09:30-20:00,09:30-20:00,09:30-20:00,09:30-20:00,09:30-20:00,09:30-20:00,00:00-00:00,021 35838588,khi8.jpg,http://pengs.com.pk/,,,,"F-50/A, E-street, Block 4, Clifton, Karachi (same lane as Xanders cafe)",,,24.806398,67.03405,2
khi9,Pengs Hair and Beauty Salon,09:30-20:00,09:30-20:00,09:30-20:00,09:30-20:00,09:30-20:00,09:30-20:00,00:00-00:00,021 35890568,khi8.jpg,http://pengs.com.pk/,,,,"116, Ground Floor, 9th East Street, Phase 1, DHA, Karachi",,,24.843838,67.060032,2
khi10,Pengs Hair and Beauty Salon,09:30-20:00,09:30-20:00,09:30-20:00,09:30-20:00,09:30-20:00,09:30-20:00,00:00-00:00,0321 2107133,khi8.jpg,http://pengs.com.pk/,,,,"Plot 44C, Lane 5, DHA Phase 6, Bukhari Commercial, Karachi ",,,24.793183,67.0680742,2
khi11,Pengs Hair and Beauty Salon,09:30-20:00,09:30-20:00,09:30-20:00,09:30-20:00,09:30-20:00,09:30-20:00,00:00-00:00,021 34390011,khi8.jpg,http://pengs.com.pk/,,,,"Plot D-25/1, Muhammad Ali Housing Society, Karachi",,,24.8812796,67.0860158,2
khi12,Men Salon By Pengs,09:30-20:00,09:30-20:00,09:30-20:00,09:30-20:00,09:30-20:00,09:30-20:00,00:00-00:00,021 34226333,khi12.jpg,http://pengs.com.pk/,,,,"27-C, 27th Comm Street, Tauheed Comm Area, Phase 5, DHA, Karachi",,,24.808102,67.037334,2
khi13,Aliya Tipu Signature Salon,10:00-19:00,10:00-19:00,10:00-19:00,10:00-19:00,10:00-19:00,10:00-19:00,10:00-19:00,0322 5536672,khi13.jpg,,,,,"D-80, Block 4, Clifton, Karachi",,,24.8078054,67.0343299,2
khi14,Mahrose Beauty parlour,10:00-22:00,10:00-22:00,10:00-22:00,10:00-22:00,10:00-22:00,10:00-22:00,10:00-22:00,021 36625540,khi14.jpg,http://mahrosebeautyparlour.com,,,,"Shahrah-e-Jahangir, Block H, North Nazimabad, Karachi", info@mahrosebeautyparlour.com,,24.936669,67.0518518,2
khi15,Mahrose Beauty parlour,10:00-22:00,10:00-22:00,10:00-22:00,10:00-22:00,10:00-22:00,10:00-22:00,10:00-22:00,021 36639977,khi14.jpg,http://mahrosebeautyparlour.com,,,,"C, 14, Block S North Nazimabad, Karachi", info@mahrosebeautyparlour.com,,24.944572,67.047899,2
khi16,Mahrose Beauty parlour,10:00-22:00,10:00-22:00,10:00-22:00,10:00-22:00,10:00-22:00,10:00-22:00,10:00-22:00,021 36989300,khi14.jpg,http://mahrosebeautyparlour.com,,,,"A 511, Sector 11-A Sector 11 A North Karachi", info@mahrosebeautyparlour.com,,24.9838918,67.065322,2
khi17,Mahrose Beauty parlour,10:00-22:00,10:00-22:00,10:00-22:00,10:00-22:00,10:00-22:00,10:00-22:00,10:00-22:00,021 34811712,khi14.jpg,http://mahrosebeautyparlour.com,,,,"B-33, Block-16, Gulshan-e-Iqbal, Karachi", info@mahrosebeautyparlour.com,,24.9049099,67.0802136,2
khi18,Mahrose Beauty parlour,10:00-22:00,10:00-22:00,10:00-22:00,10:00-22:00,10:00-22:00,10:00-22:00,10:00-22:00,021 34810871,khi14.jpg,http://mahrosebeautyparlour.com,,,,"B & H House, University Rd, Block 15, Gulshan-e-Iqbal, Karachi", info@mahrosebeautyparlour.com,,24.9040914,67.0781888,2
khi19,Mahrose Beauty parlour,10:00-22:00,10:00-22:00,10:00-22:00,10:00-22:00,10:00-22:00,10:00-22:00,10:00-22:00,021 34612747,khi14.jpg,http://mahrosebeautyparlour.com,,,,"Block 17, Gulistan-e-Johar, Karachi", info@mahrosebeautyparlour.com,,24.909118,67.1185493,2
khi20,Mahrose Beauty parlour,10:00-22:00,10:00-22:00,10:00-22:00,10:00-22:00,10:00-22:00,10:00-22:00,10:00-22:00,021 34518890,khi14.jpg,http://mahrosebeautyparlour.com,,,,"Shahrah-e-Faisal, Darakhshan Housing Society, Malir Kala Board, Karachi", info@mahrosebeautyparlour.com,,24.8834092,67.1799664,2
khi21,Mahrose Beauty parlour,10:00-22:00,10:00-22:00,10:00-22:00,10:00-22:00,10:00-22:00,10:00-22:00,10:00-22:00,021 34902105,khi14.jpg,http://mahrosebeautyparlour.com,,,,"Malir Cantonment, Karachi", info@mahrosebeautyparlour.com,,24.942563,67.2038328,2
khi22,Mahrose Beauty parlour,10:00-22:00,10:00-22:00,10:00-22:00,10:00-22:00,10:00-22:00,10:00-22:00,10:00-22:00,021 35868255,khi14.jpg,http://mahrosebeautyparlour.com,,,,"Zamzama Commercial Area, Phase 5, Karachi", info@mahrosebeautyparlour.com,,24.81661,67.0404521,2
khi23,Mahrose Beauty parlour,10:00-22:00,10:00-22:00,10:00-22:00,10:00-22:00,10:00-22:00,10:00-22:00,10:00-22:00,021 34314498,khi14.jpg,http://mahrosebeautyparlour.com,,,,"Y-172 Block 2 Tariq Rd, PECHS, Karachi", info@mahrosebeautyparlour.com,,24.8674281,67.0574319,2
khi24,Sephorah Salon,11:00-22:00,11:00-22:00,11:00-22:00,11:00-22:00,11:00-22:00,11:00-22:00,11:00-22:00,0321 2212266,khi24.jpg,http://sephorahsalon.com,,,,"14-C Khayaban-e-Tanzeem, Phase 5, Karachi",info@sephorahsalon.com,,24.8070345,67.0400856,2
khi25,Neelos Beauty Salon,10:30-19:30,10:30-19:30,10:30-19:30,10:30-19:30,10:30-19:30,10:30-19:30,10:30-19:30,0301 8219548,khi25.jpg,,,,,"F-61 Block 4, Clifton, Karachi",,,24.8078421,67.0307563,2
khi26,Deluxe Beauty Parlour,12:00-21:00,12:00-21:00,12:00-21:00,12:00-21:00,12:00-21:00,12:00-21:00,12:00-21:00,0346 3233149,khi26.jpg,,,,,"House No. 291, Block - 19, Alnoor Society, F.B. Area, Karachi",,,24.8119608,67.0497161,2
khi27,Humass Signature Salon,11:00-19:00,11:00-19:00,11:00-19:00,11:00-19:00,11:00-19:00,11:00-19:00,11:00-19:00,0302 8261502,khi27.jpg,,,,,"G-2, Ground Floor, Sara Apartment Britto Road, Garden East, Karachi",humaira_kamani@yahoo.com,,24.8788266,67.0341261,2
khi28,Libras Beauty Salon,11:00-20:30,11:00-20:30,11:00-20:30,11:00-20:30,11:00-20:30,11:00-20:30,11:00-20:30,0300 2825545,khi28.jpg,,,,,"Abdullah arcade first floor 274/c-2commercial area behina metro shoes, near liberty signal, tariq road, Karachi",info@librasbeautysalon.com,,24.8724765,67.0608732,2
khi29,Bina Beauty Parlour,11:00-21:30,11:00-21:30,11:00-21:30,11:00-21:30,11:00-21:30,11:00-21:30,11:00-21:30,021 36683161,khi29.jpg,,,,,"11/13, Nazimabad No.4, Near Caltex Petrol Pump, Karachi",binabeautyparlor@gmail.com,,24.9126649,67.0319147,2
khi30,Depilex Beauty Clinic,10:00-22:00,10:00-22:00,10:00-22:00,10:00-22:00,10:00-22:00,10:00-22:00,10:00-22:00,021 34858781,khi30.jpg,https://depilexonline.com/,,,,"3/54, Sirajudullah Road, Block 3, Bahadurabad, Karachi",depilex.bahadurabad@depilexonline.com,,24.8793218,67.0688349,2
khi31,Depilex Beauty Clinic,10:00-22:00,10:00-22:00,10:00-22:00,10:00-22:00,10:00-22:00,10:00-22:00,10:00-22:00,0300 2770089,khi30.jpg,https://depilexonline.com/,,,,"C-16, Block-I, near Five star Chaurangi, North Nazimabad, Karachi",,,24.9450909,67.0446726,2
khi32,Depilex Beauty Clinic,10:00-22:00,10:00-22:00,10:00-22:00,10:00-22:00,10:00-22:00,10:00-22:00,10:00-22:00,0308 2929932,khi30.jpg,https://depilexonline.com/,,,,"C-79, Block 13, Gulistan-e-Johar, Karachi",,,24.9124432,67.1332274,2
khi33,Depilex Beauty Clinic,10:00-22:00,10:00-22:00,10:00-22:00,10:00-22:00,10:00-22:00,10:00-22:00,10:00-22:00,021 34211177,khi30.jpg,https://depilexonline.com/,,,,"B-17, Block 5, Gulshan-e-Iqbal, Karachi",depilex.gulshan@depilexonline.com,,24.9209045,67.0895825,2
khi34,Depilex Beauty Clinic,10:00-22:00,10:00-22:00,10:00-22:00,10:00-22:00,10:00-22:00,10:00-22:00,10:00-22:00,021 36341117,khi30.jpg,https://depilexonline.com/,,,,"C-278, Block-10, Near Tahir Villa, Chowrangi F.B.Area, Karachi",depilex.chowrangi@depilexonline.com,,24.9304331,67.0617017,2
