204,BB CREAM CLAS. MIC PERF- EXT LIGHT 50 ML,609.74,799,BB CREAM CLAS. MIC PERF- EXT LIGHT 50 ML.jpg,Face Cream,"Achieve immediately perfected skin. Garnier Miracle Skin Perfector Daily All-In-One B.B. Cream will Blur imperfections, Smooth fine lines and Protect your skin with SPF15 UV protection."
352,BB CREAM OIL FREE LIGHT 40ML,609.74,799,BB CREAM OIL FREE LIGHT 40ML.jpg,Face Cream,Garnier BB Oil Free is specially designed for combination to oily skin. Its an oil-free formula. It minimises the appearance of pores and imperfections for visible improvement to the look of skin texture.
361,GARNIER MEN POWERLIGHT FAIR. MOIST 50 ML,304.49,399,GARNIER MEN POWERLIGHT FAIR. MOIST 50 ML.png,Face Cream,Garnier for Men PowerLight Fairness Moisturiser is the first moisturizer for men with fairness so intense that you can now measure its performance over weeks.
363,GARNIER MEN POWERLIGHT FW 50 ML,136.6,179,GARNIER MEN POWERLIGHT FW 50 ML.png,Face Wash,Face wash gentle on the skin dont strip away natural oils and it leave the skin soft and clean and very smooth.
366,BB CREAM OIL FREE MEDIUM 40ML,609.74,799,BB CREAM OIL FREE MEDIUM 40ML.jpg,Face Cream,Garnier BB Oil Free is specially designed for combination to oily skin. Its an oil-free formula. It minimises the appearance of pores and imperfections for visible improvement to the look of skin texture.
371,GARNIER MEN POWER LIGHT F W 100ML,243.43,319,GARNIER MEN POWER LIGHT F W 100ML.jpg,Face Wash,Face wash gentle on the skin dont strip away natural oils and it leave the skin soft and clean and very smooth.
372,COLOR NATURALS PAK 3 DARK BROWN,355.41,499,COLOR NATURALS PAK 3 DARK BROWN.png,Hair colour,"The unique creamy formula, with a conditioner enriched with 3 nutritive ingredients - olive, avocado and karite - smoothes and deeply nourishes the hair."
373,COLOR NATURALS PAK 4.6 BURGUNDY RED,355.41,499,COLOR NATURALS PAK 4.6 BURBUNDY RED.png,Hair colour,"The unique creamy formula, with a conditioner enriched with 3 nutritive ingredients - olive, avocado and karite - smoothes and deeply nourishes the hair."
374,COLOR NATURALS PAK 4 BROWN,355.41,499,COLOR NATURALS PAK 4 BROWN.jpg,Hair colour,"The unique creamy formula, with a conditioner enriched with 3 nutritive ingredients - olive, avocado and karite - smoothes and deeply nourishes the hair."
375,COLOR NATURALS PAK 5 LIGHT BROWN,355.41,499,COLOR NATURALS PAK 5 LIGHT BROWN.png,Hair colour,"The unique creamy formula, with a conditioner enriched with 3 nutritive ingredients - olive, avocado and karite - smoothes and deeply nourishes the hair."
376,COLOR NATURALS PAK 5.3 LIGHT GOLDEN BROWN,355.41,499,COLOR NATURALS PAK 5.3 LIGHT GOLDEN BRON.jpg,Hair colour,"The unique creamy formula, with a conditioner enriched with 3 nutritive ingredients - olive, avocado and karite - smoothes and deeply nourishes the hair."
377,COLOR NATURALS PAK 1 BLACK,355.41,499,COLOR NATURALS PAK 1 BLACK.png,Hair colour,"The unique creamy formula, with a conditioner enriched with 3 nutritive ingredients - olive, avocado and karite - smoothes and deeply nourishes the hair."
378,COLOR NATURALS PAK 3.6 DEEP RED BROWN,355.41,499,COLOR NATURALS PAK 3.6 DEEP RED BROWN.jpg,Hair colour,"The unique creamy formula, with a conditioner enriched with 3 nutritive ingredients - olive, avocado and karite - smoothes and deeply nourishes the hair."
379,COLOR NATURALS PAK 6.34 CHOCOLATE,355.41,499,COLOR NATURALS PAK 6.34 CHOCOLATE.jpg,Hair colour,"The unique creamy formula, with a conditioner enriched with 3 nutritive ingredients - olive, avocado and karite - smoothes and deeply nourishes the hair."
381,COLOR NATURALS PAK 5.25 CINNAMON CHOCO,355.41,499,COLOR NATURALS PAK 5.25 CINNAMON CHOCO.png,Hair colour,"The unique creamy formula, with a conditioner enriched with 3 nutritive ingredients - olive, avocado and karite - smoothes and deeply nourishes the hair."
382,CN PAK 6.66 FON ROU,355.41,499,CN PAK 6.66 FON ROU.jpg,Hair colour,"The unique creamy formula, with a conditioner enriched with 3 nutritive ingredients - olive, avocado and karite - smoothes and deeply nourishes the hair."
383,COLOR NATURALS PAK 4.3 GOLDEN BROWN,355.41,499,COLOR NATURALS PAK 4.3 GLDEN BROWN.jpg,Hair colour,"The unique creamy formula, with a conditioner enriched with 3 nutritive ingredients - olive, avocado and karite - smoothes and deeply nourishes the hair."
386,COLOR NATURALS 5.15 MAHOG.LIGHT BROWN,355.41,499,COLOR NATURALS 5.15 MAHOG.LIGHT BROWN.png,Hair colour,"The unique creamy formula, with a conditioner enriched with 3 nutritive ingredients - olive, avocado and karite - smoothes and deeply nourishes the hair."
387,COLOR NATURALS 2.6 RASPBERRY BLACK,355.41,499,COLOR NATURALS 2.6 RASPBERRY BLACK.png,Hair colour,"The unique creamy formula, with a conditioner enriched with 3 nutritive ingredients - olive, avocado and karite - smoothes and deeply nourishes the hair."
389,COLOR NATURALS 6.1 DARK ASH BLONDE,355.41,499,COLOR NATURALS 6.1 DARK ASH BLONDE.jpg,Hair colour,"The unique creamy formula, with a conditioner enriched with 3 nutritive ingredients - olive, avocado and karite - smoothes and deeply nourishes the hair."
392,COLOR NATURALS PAK 6 DARK BLONDE,355.41,499,COLOR NATURALS PAK 6 DARK BLONDE.png,Hair colour,"The unique creamy formula, with a conditioner enriched with 3 nutritive ingredients - olive, avocado and karite - smoothes and deeply nourishes the hair."
393,COLOR NATURALS PAK 51 2 CREAMY COFFEE,355.41,499,COLOR NATURALS PAK 51 2 CREAMY COFFEE,Hair colour,"The unique creamy formula, with a conditioner enriched with 3 nutritive ingredients - olive, avocado and karite - smoothes and deeply nourishes the hair."
395,COLOR NATURALS PAK 4.15 BROWNIE CHOCOLATE,355.41,499,COLOR NATURALS PAK 4.15 BROWNIE CHOCOLAT.jpg,Hair colour,"The unique creamy formula, with a conditioner enriched with 3 nutritive ingredients - olive, avocado and karite - smoothes and deeply nourishes the hair."
405,COLOR NATURALS PAK 7 BLONDE,355.41,499,COLOR NATURALS PAK 7 BLONDE.png,Hair colour,"The unique creamy formula, with a conditioner enriched with 3 nutritive ingredients - olive, avocado and karite - smoothes and deeply nourishes the hair."
406,GARNIER MEN ACNO FIGHT F W 100GM,243.43,319,GARNIER MEN ACNO FIGHT F W 100GM.jpg,Face Wash,It contains natural ingredients to fight against six major acne problems. Its effective micro-beads cleansing foam unclogs pores to remove blackheads.
407,GARNIER MEN ACNO FIGHT F W 50GM,136.6,179,GARNIER MEN ACNO FIGHT F W 50GM.jpg,Face Wash,It contains natural ingredients to fight against six major acne problems. Its effective micro-beads cleansing foam unclogs pores to remove blackheads.
408,GARNIER MEN SWEAT & OIL CONTROL 45GM,304.49,399,GARNIER MEN SWEAT & OIL CONTROL 45GM.jpg,Face Wash,Garnier brings to you Garnier Men Sweat and Oil Control Moisturiser that provides you with radiant and supple skin without making it oily or greasy. ThisGarnier Fairness Moisturiser for Men gives instant fairness from the very first application and also controls the excess oil and sweat on the face.
409,GARNIER COLOR NATURALS 4.7,355.41,499,GARNIER COLOR NATURALS 4.7.jpg,Hair colour,"The 1st nourishing hair color with Olive Oil, Avocado and Karite. The unique creamy formula, with a conditioner enriched with 3 nutritive ingredients - olive, avocado and karite - smoothes and deeply nourishes the hair."
410,GARNIER COLOR NATURALS 6.7,355.41,499,GARNIER COLOR NATURALS 6.7.jpg,Hair colour,"The 1st nourishing hair color with Olive Oil, Avocado and Karite. The unique creamy formula, with a conditioner enriched with 3 nutritive ingredients - olive, avocado and karite - smoothes and deeply nourishes the hair."
411,COLOR NATURALS 7.7 DEER BROWN,355.41,499,COLOR NATURALS 7.7 DEER BROWN.jpg,Hair colour,"The 1st nourishing hair color with Olive Oil, Avocado and Karite. The unique creamy formula, with a conditioner enriched with 3 nutritive ingredients - olive, avocado and karite - smoothes and deeply nourishes the hair."
416,GARNIER MEN POWERLIGHT DBL.ACT. FW 100ML,418.96,549,GARNIER MEN POWERLIGHT DBL.ACT. FW 100ML.jpg,Face Wash,"Garnier Mens first Dual Texture face wash designed to remove dust and pollution and give fairer looking skin. Formula enriched with Salicylic Active and Vitamin C, known to exfoliate skin and reduce dullness respectively."
417,GARNIER MEN POWERLIGHT DBL.ACT. F W 50ML,266.33,349,GARNIER MEN POWERLIGHT DBL.ACT. F W 50ML.png,Face Wash,"Garnier Mens first Dual Texture face wash designed to remove dust and pollution and give fairer looking skin. Formula enriched with Salicylic Active and Vitamin C, known to exfoliate skin and reduce dullness respectively."
418,GARNIER SN LIGHT & RADIANT F W 50ML,144.23,189,GARNIER SN LIGHT & RADIANT F W 50ML.png,Face Wash,"It gently exfoliates & clarifies skin Exposure to sun, pollution and harsh environmental conditions makes skin appear dull and dark.Garnier Light Fairness Face Wash: Is an effective daily face wash that helps you recover a clear, radiant, even complexion."
419,GARNIER SN LIGHT & RADIANT F W 100ML,228.17,299,GARNIER SN LIGHT & RADIANT F W 100ML.png,Face Wash,"It gently exfoliates & clarifies skin Exposure to sun, pollution and harsh environmental conditions makes skin appear dull and dark.Garnier Light Fairness Face Wash: Is an effective daily face wash that helps you recover a clear, radiant, even complexion."
420,GARNIER SN LIGHT & RADIANT SCRUB 100ML,228.17,299,GARNIER SN LIGHT & RADIANT SCRUB 100ML.jpg,Face Cream,"This Garnier scrub removes dead skin cells, oil, impurities, dirt and dust from your skin and unclog the pores to make your skin looking younger, clearer and naturally healthy."
421,GARNIER SN PURE ACTIVE NEEM F W 50ML,144.23,189,GARNIER SN PURE ACTIVE NEEM F W 50ML.png,Face Wash,Garnier Neem Purifying face wash as it contains Neem which with Vitamin C helps eliminate pimples. It washes away problem causing bacteria to help prevent pimples and Deep cleans pores to remove impurities caused by pollution.
422,GARNIER SN PURE ACTIVE NEEM F W 100ML,228.17,299,GARNIER SN PURE ACTIV NEEM F W 100ML.jpg,Face Wash,Garnier Neem Purifying face wash as it contains Neem which with Vitamin C helps eliminate pimples. It washes away problem causing bacteria to help prevent pimples and Deep cleans pores to remove impurities caused by pollution.
423,GARNIER SN APRICOT PURE ACTIVE SCRUB 100ML,228.17,299,GARNIER SN APRICOT PURE ACTI SCRUB 100ML.jpg,Face Cream,"The garnier pure active apricot face scrub comes in a squeezable, plastic tube which is very travel friendly and hygienic as you don't have to dig in your fingers into the tub to take out the product each time. It has real apricot micro beads (1500 of them, to be precise), to exfoliate your skin, and the beads are neither too abrasive that it hurts when you rub it against your skin nor too subtle that you hardly realise that there's anything at all."
424,GARNIER SN MICELLAR CLEANSNG WATER 400ML,418.96,549,GARNIER SN MICELLAR CLEANSNG WATER 400ML.jpg,Face Cream,"Garnier Cleansing Micellar Water is an easy way to remove make-up, soothe and hydrate the face, eye area, and lips, in 1 step without rinsing. Perfectly cleansed and refreshed skin without rubbing or rinsing. Garnier Cleansing Micellar Water has a soothing and fragrance free formula that suits all skin types, even sensitive."
425,GARNIER SN MICELLAR CLEANSNG WIPES 25PCS,342.64,449,GARNIER SN MICELLAR CLEANSNG WIPES 25PCS.jpg,Beauty Wipes,"Garnier Skin Naturals Micellar Extra-Gentle Cleansing Wipes contain thin silk fibres in a thick, soft wipe. Soaked with Micellar water, they are specially formulated for make-up removal on sensitive skin. Like a magnet, the cleansing agents capture impurities and lift away dirt from the skin. No need to rub to efficiently to remove make-up. The result: In a single step, your make-up is removed and your skin feels refreshed and soothed."
426,COLOR NATURALS 5.132 NUDE MEDIUM BROWN,355.41,499,COLOR NATURALS 5.132 NUDE MEDIUM BROWN.jpg,Hair colour,"The 1st nourishing hair color with Olive Oil, Avocado and Karite. The unique creamy formula, with a conditioner enriched with 3 nutritive ingredients - olive, avocado and karite - smoothes and deeply nourishes the hair."
427,COLOR NATURAL NUDES KIT EN AR 6.132,355.41,499,COLOR NATURAL NUDES KIT EN AR 6.132.png,Hair colour,"The 1st nourishing hair color with Olive Oil, Avocado and Karite. The unique creamy formula, with a conditioner enriched with 3 nutritive ingredients - olive, avocado and karite - smoothes and deeply nourishes the hair."
428,COLOR NATURALS 7.132 NUDE DARK BROWN,355.41,499,COLOR NATURALS 7.132 NUDE DARK BROWN.jpg,Hair colour,"The 1st nourishing hair color with Olive Oil, Avocado and Karite. The unique creamy formula, with a conditioner enriched with 3 nutritive ingredients - olive, avocado and karite - smoothes and deeply nourishes the hair."
429,BB CREAM CLASSIC - LIGHT 50ML,609.74,799,BB CREAM CLASSIC - LIGHT 50ML.jpg,Face Cream,A new innovation for combination to oily skin types with a hybrid formula that offers instant perfection and all-day shine control in one single beauty product.This oil-free skin care formula combines mattifying Mineral Pigments with ultra oil-absorbing Perlite to deliver an immediate complexion transformation. B.B. Cream (Beauty Balm Cream) is an all -in-one formula that offers advanced skincare + immediate skin perfecting coverage.
432,COLOR NATURALS 6.3 MOCCA,355.41,499,COLOR NATURALS 6.3 MOCCA.png,Hair colour,"The 1st nourishing hair color with Olive Oil, Avocado and Karite. The unique creamy formula, with a conditioner enriched with 3 nutritive ingredients - olive, avocado and karite - smoothes and deeply nourishes the hair."
433,COLOR NATURALS 7.3 HAZEL BLONDE,355.41,499,COLOR NATURALS 7.3 HAZEL BLONDE.jpg,Hair colour,"The 1st nourishing hair color with Olive Oil, Avocado and Karite. The unique creamy formula, with a conditioner enriched with 3 nutritive ingredients - olive, avocado and karite - smoothes and deeply nourishes the hair."
434,COLOR NATURALS 2 LUMINOUS BLACK,355.41,499,COLOR NATURALS 2 LUMINOUS BLACK.jpg,Hair colour,"The 1st nourishing hair color with Olive Oil, Avocado and Karite. The unique creamy formula, with a conditioner enriched with 3 nutritive ingredients - olive, avocado and karite - smoothes and deeply nourishes the hair."
435,COLOR NATURALS 3.3 DARK TOFFEE,355.41,499,COLOR NATURALS 3.3 DARK TOFFEE.jpg,Hair colour,"The 1st nourishing hair color with Olive Oil, Avocado and Karite. The unique creamy formula, with a conditioner enriched with 3 nutritive ingredients - olive, avocado and karite - smoothes and deeply nourishes the hair."
436,COLOR NATURALS 7.1 ASH BLOND,355.41,499,COLOR NATURALS 7.1 ASH BLOND.jpg,Hair colour,"The 1st nourishing hair color with Olive Oil, Avocado and Karite. The unique creamy formula, with a conditioner enriched with 3 nutritive ingredients - olive, avocado and karite - smoothes and deeply nourishes the hair."
437,G.MEN ACNO FIGHT FW 50ML,151.86,199,G.MEN ACNO FIGHT FW 50ML.jpg,Face Wash,It contains natural ingredients to fight against six major acne problems. its effective micro-beads cleansing foam unclogs pores to remove blackheads.
438,G.MEN ACNO FIGHT FW 100ML,266.33,349,G.MEN ACNO FIGHT FW 100ML.jpg,Face Wash,It contains natural ingredients to fight against six major acne problems. its effective micro-beads cleansing foam unclogs pores to remove blackheads.
439,G.MEN OIL CLEAR FW 50ML,151.86,199,G.MEN OIL CLEAR FW 50ML.jpg,Face Wash,"It removes excessive oil without drying, makes Intensive anti grease action and Makes your skin feel oil free, clean and fresh."
440,G.MEN OIL CLEAR FW 100ML,266.33,349,G.MEN OIL CLEAR FW 100ML.jpg,Face Wash,"It removes excessive oil without drying, makes Intensive anti grease action and Makes your skin feel oil free, clean and fresh."
441,G.MEN POWER WHITE FW 50ML,151.86,199,G.MEN POWER WHITE FW 50ML.png,Face Wash,"The 1st face wash for men that removes impurities, pollutants and dark cells for an intensive fairness action. Its formula, enriched with anti-oxidant grape water, eliminates impurities & pollutants. Enriched with brightening lemon extracts and gentle micro-polishing beads, pit removes dark dead cells and visibly brightens skin."
442,G.MEN POWER WHITE FW 100ML,266.33,349,G.MEN POWER WHITE FW 100ML.jpg,Face Wash,"The 1st face wash for men that removes impurities, pollutants and dark cells for an intensive fairness action. Its formula, enriched with anti-oxidant grape water, eliminates impurities & pollutants. Enriched with brightening lemon extracts and gentle micro-polishing beads, pit removes dark dead cells and visibly brightens skin."
443,GARNIER SN MICELLAR CLEANSNG WATER 125ML,228.17,299,GARNIER SN MICELLAR CLEANSNG WATER 125ML.jpg,Face Cream,"Garnier Cleansing Micellar Water is an easy way to remove make-up, soothe and hydrate the face, eye area, and lips, in 1 step without rinsing. Perfectly cleansed and refreshed skin without rubbing or rinsing. Garnier Cleansing Micellar Water has a soothing and fragrance free formula that suits all skin types, even sensitive."
444,GARNIER MEN OIL CLEAR MATCHA 100G,304.49,399,GARNIER MEN OIL CLEAR MATCHA 100G.jpg,Face Wash,
445,GARNIER MEN OIL CLEAR MATCHA 50G,167.12,219,GARNIER MEN OIL CLEAR MATCHA 50G.jpg,Face Wash,
446,GARNIER PURE ACTIVE PAK 3-IN-1 50ML,151.86,199,GARNIER PURE ACTIVE PAK 3-IN-1 50ML.jpg,Face Wash,
447,GARNIER PURE ACTIVE PAK 3-IN-1 100ML,251.07,329,GARNIER PURE ACTIVE PAK 3-IN-1 100ML.png,Face Wash,
448,S.ACT MASK H.BOMB REPLENISHING 32G-BLUE,235.81,309,S.ACT MASK H.BOMB REPLENISHING 32G-BLUE.png,Face Mask,"This water-based hydrating sheet mask with Hyaluronic Acid, an ingredient naturally found in skin, floods skin with intense weightless hydration. Free of mineral oil and parabens, this non-greasy, intense glow-boosting formula, with Sakura extract, hydrates, illuminates and enhances skin's radiance."
449,S.ACT MASK H.BOMB REBALANCING 32G-GREEN,235.81,309,S.ACT MASK H.BOMB REBALANCING 32G-GREEN.jpg,Face Mask,"This water-based hydrating sheet mask with Hyaluronic Acid, an ingredient naturally found in skin, floods skin with intense weightless hydration. Free of mineral oil and parabens, this non-greasy, intense glow-boosting formula, with Sakura extract, hydrates, illuminates and enhances skin's radiance."
450,S.ACT MASK H.BOMB SOOTHING 32G-PURPLE,235.81,309,S.ACT MASK H.BOMB SOOTHING 32G-PURPLE.jpg,Face Mask,"This water-based hydrating sheet mask with Hyaluronic Acid, an ingredient naturally found in skin, floods skin with intense weightless hydration. Free of mineral oil and parabens, this non-greasy, intense glow-boosting formula, with Sakura extract, hydrates, illuminates and enhances skin's radiance."
451,S.ACT MASK H.BOMB GLOW-REVEALING 32G-PIN,235.81,309,S.ACT MASK H.BOMB GLOW-REVEALING 32G-PIN.jpg,Face Mask,"This water-based hydrating sheet mask with Hyaluronic Acid, an ingredient naturally found in skin, floods skin with intense weightless hydration. Free of mineral oil and parabens, this non-greasy, intense glow-boosting formula, with Sakura extract, hydrates, illuminates and enhances skin's radiance."
452,COLOR NATURALS 4.1 OX H COL FROZEN,355.41,499,COLOR NATURALS 4.1 OX H COL FROZEN.jpg,Hair colour,
453,COLOR NATURALS 5.1 FROZEN BROWNS,355.41,499,COLOR NATURALS 5.1 FROZEN BROWNS.jpg,Hair colour,
454,LIGHT & RADIANT YOGHURT NIGHT CREAM,380.8,499,LIGHT & RADIANT YOGHURT NIGHT CREAM.jpg,Face Cream,
455,GARNIER SN MICELLAR CLEANSNG WATER 100ML,228.17,299,GARNIER SN MICELLAR CLEANSNG WATER 100ML.jpg,Face Wash,
456,S. ACTIVE PURE CHARCOAL MASK BLACK TEA,243.43,319,S. ACTIVE PURE CHARCOAL MASK BLACK TEA.jpg,Face Mask,
457,S. ACTIVE PURE CHARCOAL MASK BLACK ALGAE,243.43,319,S. ACTIVE PURE CHARCOAL MASK BLACK ALGAE.jpg,Face Mask,
458,MICELLAR CLEANSNG WATER IN OIL 100ML,266.33,349,MICELLAR CLEANSNG WATER IN OIL 100ML.jpg,Face Wash,
459,COLOR NATURALS 7.11 DEEP ASHY BLONDE,355.41,499,COLOR NATURALS 7.11 DEEP ASHY BLOND.png,Hair colour,
460,COLOR NATURALS 5.52 LIGHT MAHOGANY,355.41,499,COLOR NATURALS 5.52 LIGHT MAHOGANY.jpg,Hair colour,
461,COLOR NATURALS 6.25 CHESTNUT BROWN,355.41,499,COLOR NATURALS 6.25 CHESTNUT BROWN.jpg,Hair colour,
462,PURE ACTIVE INTENSIVE CHARCOAL 50ML,151.86,199,PURE ACTIVE INTENSIVE CHARCOAL 50ML.jpg,Face Wash,
463,PURE ACTIVE INTENSIVE CHARCOAL 100ML,251.07,329,PURE ACTIVE INTENSIVE CHARCOAL 100ML.jpg,Face Wash,
464,S.ACT HYDRA BOMB TISSUE EYE MASK-ORANGE,151.86,199,S.ACT HYDRA BOMB TISSUE EYE MASK-ORANGE.png,Eye Mask,